{
  "headerModifierClass": "s-header--fixed",
  "navMobile": [
    {
      "navMobileModifierClass": "",
      "hamburguer": [
        {}
      ],
      "navBrand": [
        {
          "navBrandImg": [
            {
              "classModifier": "",
              "src": "../../images/ca-brand-white.png",
              "alt": "Casa Andina Hotels"
            }
          ]
        }
      ],
      "navButton": [
        {
          "button": [
            {
              "classModifier": "g-btn-primary",
              "type": "button",
              "inlineStyle": "",
              "textButton": "Reservar Ahora"
            }
          ]
        }
      ],
      "navContact": [
        {
          "navContactClass": "s-nav-contact",
          "navContactItem": [
            {
              "navContactItemLink": "#",
              "icon": [
                {
                  "class": "la la-envelope",
                  "inlineStyle": ""
                }
              ],
              "text": false
            },
            {
              "navContactItemLink": "tel:5113916500",
              "icon": [
                {
                  "class": "la la-phone",
                  "inlineStyle": ""
                }
              ],
              "text": false
            }
          ]
        }
      ]
    }
  ],
  "navWrapper": [
    {
      "navWrapperModifierClass": "",
      "navList": [
        {
          "navListModifierClass": "",
          "navListItem": [
            {
              "navListItemModifierClass": "s-nav-list-item--featured active",
              "navListLink": [
                {
                  "navListLinkUrl": "#",
                  "navListLinkClass": "",
                  "icon": false,
                  "navListLinkText": "Reservar"
                }
              ]
            },
            {
              "navListItemModifierClass": "s-nav-list-item--dropdown active",
              "navListLink": [
                {
                  "navListLinkUrl": "#",
                  "navListLinkClass": "active",
                  "icon": false,
                  "navListLinkText": "Destinos"
                }
              ],
              "navSublistWrapper": [
                {
                  "navSublistWrapperClass": "s-nav-sublist-wrapper--all",
                  "navSublist": [
                    {
                      "navSublistClass": "container px-0",
                      "navSublistItem": [
                        {
                          "navSublistItemClass": "",
                          "navSublistLink": [
                            {
                              "navSublistLinkUrl": "#",
                              "navSublistLinkClass": "",
                              "navSublistLinkText": "Arequipa"
                            }
                          ]
                        },
                        {
                          "navSublistItemClass": "",
                          "navSublistLink": [
                            {
                              "navSublistLinkUrl": "#",
                              "navSublistLinkClass": "",
                              "navSublistLinkText": "Chiclayo"
                            }
                          ]
                        },
                        {
                          "navSublistItemClass": "",
                          "navSublistLink": [
                            {
                              "navSublistLinkUrl": "#",
                              "navSublistLinkClass": "",
                              "navSublistLinkText": "Lima"
                            }
                          ]
                        },
                        {
                          "navSublistItemClass": "",
                          "navSublistLink": [
                            {
                              "navSublistLinkUrl": "#",
                              "navSublistLinkClass": "",
                              "navSublistLinkText": "Moquegua"
                            }
                          ]
                        },
                        {
                          "navSublistItemClass": "",
                          "navSublistLink": [
                            {
                              "navSublistLinkUrl": "#",
                              "navSublistLinkClass": "",
                              "navSublistLinkText": "Cuzco"
                            }
                          ]
                        },
                        {
                          "navSublistItemClass": "",
                          "navSublistLink": [
                            {
                              "navSublistLinkUrl": "#",
                              "navSublistLinkClass": "",
                              "navSublistLinkText": "Puno"
                            }
                          ]
                        },
                        {
                          "navSublistItemClass": "",
                          "navSublistLink": [
                            {
                              "navSublistLinkUrl": "#",
                              "navSublistLinkClass": "",
                              "navSublistLinkText": "Arequipa"
                            }
                          ]
                        },
                        {
                          "navSublistItemClass": "",
                          "navSublistLink": [
                            {
                              "navSublistLinkUrl": "#",
                              "navSublistLinkClass": "",
                              "navSublistLinkText": "Chiclayo"
                            }
                          ]
                        },
                        {
                          "navSublistItemClass": "",
                          "navSublistLink": [
                            {
                              "navSublistLinkUrl": "#",
                              "navSublistLinkClass": "",
                              "navSublistLinkText": "Lima"
                            }
                          ]
                        },
                        {
                          "navSublistItemClass": "",
                          "navSublistLink": [
                            {
                              "navSublistLinkUrl": "#",
                              "navSublistLinkClass": "",
                              "navSublistLinkText": "Moquegua"
                            }
                          ]
                        },
                        {
                          "navSublistItemClass": "",
                          "navSublistLink": [
                            {
                              "navSublistLinkUrl": "#",
                              "navSublistLinkClass": "",
                              "navSublistLinkText": "Cuzco"
                            }
                          ]
                        },
                        {
                          "navSublistItemClass": "",
                          "navSublistLink": [
                            {
                              "navSublistLinkUrl": "#",
                              "navSublistLinkClass": "",
                              "navSublistLinkText": "Puno"
                            }
                          ]
                        },
                        {
                          "navSublistItemClass": "",
                          "navSublistLink": [
                            {
                              "navSublistLinkUrl": "#",
                              "navSublistLinkClass": "",
                              "navSublistLinkText": "Puno"
                            }
                          ]
                        },
                        {
                          "navSublistItemClass": "",
                          "navSublistLink": [
                            {
                              "navSublistLinkUrl": "#",
                              "navSublistLinkClass": "",
                              "navSublistLinkText": "Arequipa"
                            }
                          ]
                        },
                        {
                          "navSublistItemClass": "",
                          "navSublistLink": [
                            {
                              "navSublistLinkUrl": "#",
                              "navSublistLinkClass": "",
                              "navSublistLinkText": "Chiclayo"
                            }
                          ]
                        },
                        {
                          "navSublistItemClass": "",
                          "navSublistLink": [
                            {
                              "navSublistLinkUrl": "#",
                              "navSublistLinkClass": "",
                              "navSublistLinkText": "Lima"
                            }
                          ]
                        },
                        {
                          "navSublistItemClass": "",
                          "navSublistLink": [
                            {
                              "navSublistLinkUrl": "#",
                              "navSublistLinkClass": "",
                              "navSublistLinkText": "Moquegua"
                            }
                          ]
                        },
                        {
                          "navSublistItemClass": "",
                          "navSublistLink": [
                            {
                              "navSublistLinkUrl": "#",
                              "navSublistLinkClass": "",
                              "navSublistLinkText": "Cuzco"
                            }
                          ]
                        },
                        {
                          "navSublistItemClass": "",
                          "navSublistLink": [
                            {
                              "navSublistLinkUrl": "#",
                              "navSublistLinkClass": "",
                              "navSublistLinkText": "Puno"
                            }
                          ]
                        },
                        {
                          "navSublistItemClass": "",
                          "navSublistLink": [
                            {
                              "navSublistLinkUrl": "#",
                              "navSublistLinkClass": "",
                              "navSublistLinkText": "Moquegua"
                            }
                          ]
                        },
                        {
                          "navSublistItemClass": "s-nav-sublist-item--all",
                          "navSublistLink": [
                            {
                              "navSublistLinkUrl": "#",
                              "navSublistLinkClass": "",
                              "navSublistLinkText": "Ver todos los destinos"
                            }
                          ]
                        }
                      ]
                    }
                  ]
                }
              ]
            },
            {
              "navListItemModifierClass": "s-nav-list-item--dropdown active",
              "navListLink": [
                {
                  "navListLinkUrl": "#",
                  "navListLinkClass": "",
                  "icon": false,
                  "navListLinkText": "Nuestros Hoteles"
                }
              ],
              "navSublistWrapper": [
                {
                  "navSublistWrapperClass": "",
                  "navSublist": [
                    {
                      "navSublistClass": "container px-0",
                      "navSublistItem": [
                        {
                          "navSublistItemClass": "s-nav-sublist-item--descriptor active",
                          "navSublistLink": [
                            {
                              "navSublistLinkUrl": "#",
                              "navSublistLinkClass": "s-nav-sublist-link--descriptor",
                              "navSublistLinkStyle": "style='border-color: #002857;'",
                              "navSublistLinkText": "Premium"
                            }
                          ],
                          "navSublistInner": [
                            {
                              "navSublistInnerClass": "s-nav-sublist--descriptor",
                              "navSublistInnerItem": [
                                {
                                  "navSublistInnerItemClass": "",
                                  "navSublistInnerLink": [
                                    {
                                      "navSublistInnerLinkUrl": "#",
                                      "navSublistInnerLinkClass": "",
                                      "navSublistInnerLinkText": "Puno"
                                    }
                                  ]
                                },
                                {
                                  "navSublistInnerItemClass": "",
                                  "navSublistInnerLink": [
                                    {
                                      "navSublistInnerLinkUrl": "#",
                                      "navSublistInnerLinkClass": "",
                                      "navSublistInnerLinkText": "Puno"
                                    }
                                  ]
                                },
                                {
                                  "navSublistInnerItemClass": "",
                                  "navSublistInnerLink": [
                                    {
                                      "navSublistInnerLinkUrl": "#",
                                      "navSublistInnerLinkClass": "",
                                      "navSublistInnerLinkText": "Puno"
                                    }
                                  ]
                                },
                                {
                                  "navSublistInnerItemClass": "",
                                  "navSublistInnerLink": [
                                    {
                                      "navSublistInnerLinkUrl": "#",
                                      "navSublistInnerLinkClass": "",
                                      "navSublistInnerLinkText": "Puno"
                                    }
                                  ]
                                },
                                {
                                  "navSublistInnerItemClass": "",
                                  "navSublistInnerLink": [
                                    {
                                      "navSublistInnerLinkUrl": "#",
                                      "navSublistInnerLinkClass": "",
                                      "navSublistInnerLinkText": "Puno"
                                    }
                                  ]
                                },
                                {
                                  "navSublistInnerItemClass": "",
                                  "navSublistInnerLink": [
                                    {
                                      "navSublistInnerLinkUrl": "#",
                                      "navSublistInnerLinkClass": "",
                                      "navSublistInnerLinkText": "Puno"
                                    }
                                  ]
                                },
                                {
                                  "navSublistInnerItemClass": "",
                                  "navSublistInnerLink": [
                                    {
                                      "navSublistInnerLinkUrl": "#",
                                      "navSublistInnerLinkClass": "",
                                      "navSublistInnerLinkText": "Puno"
                                    }
                                  ]
                                },
                                {
                                  "navSublistInnerItemClass": "",
                                  "navSublistInnerLink": [
                                    {
                                      "navSublistInnerLinkUrl": "#",
                                      "navSublistInnerLinkClass": "",
                                      "navSublistInnerLinkText": "Puno"
                                    }
                                  ]
                                }
                              ]
                            }
                          ]
                        },
                        {
                          "navSublistItemClass": "s-nav-sublist-item--descriptor",
                          "navSublistLink": [
                            {
                              "navSublistLinkUrl": "#",
                              "navSublistLinkClass": "s-nav-sublist-link--descriptor",
                              "navSublistLinkStyle": "style='border-color: #008eaa;'",
                              "navSublistLinkText": "Select"
                            }
                          ],
                          "navSublistInner": [
                            {
                              "navSublistInnerClass": "s-nav-sublist--descriptor",
                              "navSublistInnerItem": [
                                {
                                  "navSublistInnerItemClass": "",
                                  "navSublistInnerLink": [
                                    {
                                      "navSublistInnerLinkUrl": "#",
                                      "navSublistInnerLinkClass": "",
                                      "navSublistInnerLinkText": "Puno"
                                    }
                                  ]
                                },
                                {
                                  "navSublistInnerItemClass": "",
                                  "navSublistInnerLink": [
                                    {
                                      "navSublistInnerLinkUrl": "#",
                                      "navSublistInnerLinkClass": "",
                                      "navSublistInnerLinkText": "Puno"
                                    }
                                  ]
                                },
                                {
                                  "navSublistInnerItemClass": "",
                                  "navSublistInnerLink": [
                                    {
                                      "navSublistInnerLinkUrl": "#",
                                      "navSublistInnerLinkClass": "",
                                      "navSublistInnerLinkText": "Puno"
                                    }
                                  ]
                                },
                                {
                                  "navSublistInnerItemClass": "",
                                  "navSublistInnerLink": [
                                    {
                                      "navSublistInnerLinkUrl": "#",
                                      "navSublistInnerLinkClass": "",
                                      "navSublistInnerLinkText": "Puno"
                                    }
                                  ]
                                },
                                {
                                  "navSublistInnerItemClass": "",
                                  "navSublistInnerLink": [
                                    {
                                      "navSublistInnerLinkUrl": "#",
                                      "navSublistInnerLinkClass": "",
                                      "navSublistInnerLinkText": "Puno"
                                    }
                                  ]
                                },
                                {
                                  "navSublistInnerItemClass": "",
                                  "navSublistInnerLink": [
                                    {
                                      "navSublistInnerLinkUrl": "#",
                                      "navSublistInnerLinkClass": "",
                                      "navSublistInnerLinkText": "Puno"
                                    }
                                  ]
                                },
                                {
                                  "navSublistInnerItemClass": "",
                                  "navSublistInnerLink": [
                                    {
                                      "navSublistInnerLinkUrl": "#",
                                      "navSublistInnerLinkClass": "",
                                      "navSublistInnerLinkText": "Puno"
                                    }
                                  ]
                                },
                                {
                                  "navSublistInnerItemClass": "",
                                  "navSublistInnerLink": [
                                    {
                                      "navSublistInnerLinkUrl": "#",
                                      "navSublistInnerLinkClass": "",
                                      "navSublistInnerLinkText": "Puno"
                                    }
                                  ]
                                }
                              ]
                            }
                          ]
                        },
                        {
                          "navSublistItemClass": "s-nav-sublist-item--descriptor",
                          "navSublistLink": [
                            {
                              "navSublistLinkUrl": "#",
                              "navSublistLinkClass": "s-nav-sublist-link--descriptor",
                              "navSublistLinkStyle": "style='border-color: #ff4200;'",
                              "navSublistLinkText": "Standard"
                            }
                          ],
                          "navSublistInner": [
                            {
                              "navSublistInnerClass": "s-nav-sublist--descriptor",
                              "navSublistInnerItem": [
                                {
                                  "navSublistInnerItemClass": "",
                                  "navSublistInnerLink": [
                                    {
                                      "navSublistInnerLinkUrl": "#",
                                      "navSublistInnerLinkClass": "",
                                      "navSublistInnerLinkText": "Puno"
                                    }
                                  ]
                                },
                                {
                                  "navSublistInnerItemClass": "",
                                  "navSublistInnerLink": [
                                    {
                                      "navSublistInnerLinkUrl": "#",
                                      "navSublistInnerLinkClass": "",
                                      "navSublistInnerLinkText": "Puno"
                                    }
                                  ]
                                },
                                {
                                  "navSublistInnerItemClass": "",
                                  "navSublistInnerLink": [
                                    {
                                      "navSublistInnerLinkUrl": "#",
                                      "navSublistInnerLinkClass": "",
                                      "navSublistInnerLinkText": "Puno"
                                    }
                                  ]
                                },
                                {
                                  "navSublistInnerItemClass": "",
                                  "navSublistInnerLink": [
                                    {
                                      "navSublistInnerLinkUrl": "#",
                                      "navSublistInnerLinkClass": "",
                                      "navSublistInnerLinkText": "Puno"
                                    }
                                  ]
                                },
                                {
                                  "navSublistInnerItemClass": "",
                                  "navSublistInnerLink": [
                                    {
                                      "navSublistInnerLinkUrl": "#",
                                      "navSublistInnerLinkClass": "",
                                      "navSublistInnerLinkText": "Puno"
                                    }
                                  ]
                                },
                                {
                                  "navSublistInnerItemClass": "",
                                  "navSublistInnerLink": [
                                    {
                                      "navSublistInnerLinkUrl": "#",
                                      "navSublistInnerLinkClass": "",
                                      "navSublistInnerLinkText": "Puno"
                                    }
                                  ]
                                },
                                {
                                  "navSublistInnerItemClass": "",
                                  "navSublistInnerLink": [
                                    {
                                      "navSublistInnerLinkUrl": "#",
                                      "navSublistInnerLinkClass": "",
                                      "navSublistInnerLinkText": "Puno"
                                    }
                                  ]
                                },
                                {
                                  "navSublistInnerItemClass": "",
                                  "navSublistInnerLink": [
                                    {
                                      "navSublistInnerLinkUrl": "#",
                                      "navSublistInnerLinkClass": "",
                                      "navSublistInnerLinkText": "Puno"
                                    }
                                  ]
                                }
                              ]
                            }
                          ]
                        }
                      ]
                    }
                  ]
                }
              ]
            },
            {
              "navListItemModifierClass": "",
              "navListLink": [
                {
                  "navListLinkUrl": "#",
                  "navListLinkClass": "",
                  "icon": false,
                  "navListLinkText": "Promociones"
                }
              ],
              "navSublistWrapper": false
            },
            {
              "navListItemModifierClass": "s-nav-list-item--dropdown active",
              "navListLink": [
                {
                  "navListLinkUrl": "#",
                  "navListLinkClass": "",
                  "icon": false,
                  "navListLinkText": "Restaurantes"
                }
              ],
              "navSublistWrapper": [
                {
                  "navSublistWrapperClass": "s-nav-sublist-wrapper--all",
                  "navSublist": [
                    {
                      "navSublistClass": "container px-0",
                      "navSublistItem": [
                        {
                          "navSublistItemClass": "s-nav-sublist-item--descriptor active",
                          "navSublistLink": [
                            {
                              "navSublistLinkUrl": "#",
                              "navSublistLinkClass": "s-nav-sublist-link--descriptor",
                              "navSublistLinkStyle": "style='border-color: #002c55;'",
                              "navSublistLinkText": "Alma"
                            }
                          ],
                          "navSublistInner": [
                            {
                              "navSublistInnerClass": "s-nav-sublist--descriptor",
                              "navSublistInnerItem": [
                                {
                                  "navSublistInnerItemClass": "",
                                  "navSublistInnerLink": [
                                    {
                                      "navSublistInnerLinkUrl": "#",
                                      "navSublistInnerLinkClass": "",
                                      "navSublistInnerLinkText": "Puno"
                                    }
                                  ]
                                },
                                {
                                  "navSublistInnerItemClass": "",
                                  "navSublistInnerLink": [
                                    {
                                      "navSublistInnerLinkUrl": "#",
                                      "navSublistInnerLinkClass": "",
                                      "navSublistInnerLinkText": "Puno"
                                    }
                                  ]
                                },
                                {
                                  "navSublistInnerItemClass": "",
                                  "navSublistInnerLink": [
                                    {
                                      "navSublistInnerLinkUrl": "#",
                                      "navSublistInnerLinkClass": "",
                                      "navSublistInnerLinkText": "Puno"
                                    }
                                  ]
                                },
                                {
                                  "navSublistInnerItemClass": "",
                                  "navSublistInnerLink": [
                                    {
                                      "navSublistInnerLinkUrl": "#",
                                      "navSublistInnerLinkClass": "",
                                      "navSublistInnerLinkText": "Puno"
                                    }
                                  ]
                                },
                                {
                                  "navSublistInnerItemClass": "",
                                  "navSublistInnerLink": [
                                    {
                                      "navSublistInnerLinkUrl": "#",
                                      "navSublistInnerLinkClass": "",
                                      "navSublistInnerLinkText": "Puno"
                                    }
                                  ]
                                },
                                {
                                  "navSublistInnerItemClass": "",
                                  "navSublistInnerLink": [
                                    {
                                      "navSublistInnerLinkUrl": "#",
                                      "navSublistInnerLinkClass": "",
                                      "navSublistInnerLinkText": "Puno"
                                    }
                                  ]
                                },
                                {
                                  "navSublistInnerItemClass": "",
                                  "navSublistInnerLink": [
                                    {
                                      "navSublistInnerLinkUrl": "#",
                                      "navSublistInnerLinkClass": "",
                                      "navSublistInnerLinkText": "Puno"
                                    }
                                  ]
                                },
                                {
                                  "navSublistInnerItemClass": "",
                                  "navSublistInnerLink": [
                                    {
                                      "navSublistInnerLinkUrl": "#",
                                      "navSublistInnerLinkClass": "",
                                      "navSublistInnerLinkText": "Puno"
                                    }
                                  ]
                                }
                              ]
                            }
                          ]
                        },
                        {
                          "navSublistItemClass": "s-nav-sublist-item--descriptor",
                          "navSublistLink": [
                            {
                              "navSublistLinkUrl": "#",
                              "navSublistLinkClass": "s-nav-sublist-link--descriptor",
                              "navSublistLinkStyle": "style='border-color: #e90629;'",
                              "navSublistLinkText": "La Plaza"
                            }
                          ],
                          "navSublistInner": [
                            {
                              "navSublistInnerClass": "s-nav-sublist--descriptor",
                              "navSublistInnerItem": [
                                {
                                  "navSublistInnerItemClass": "",
                                  "navSublistInnerLink": [
                                    {
                                      "navSublistInnerLinkUrl": "#",
                                      "navSublistInnerLinkClass": "",
                                      "navSublistInnerLinkText": "Puno"
                                    }
                                  ]
                                },
                                {
                                  "navSublistInnerItemClass": "",
                                  "navSublistInnerLink": [
                                    {
                                      "navSublistInnerLinkUrl": "#",
                                      "navSublistInnerLinkClass": "",
                                      "navSublistInnerLinkText": "Puno"
                                    }
                                  ]
                                },
                                {
                                  "navSublistInnerItemClass": "",
                                  "navSublistInnerLink": [
                                    {
                                      "navSublistInnerLinkUrl": "#",
                                      "navSublistInnerLinkClass": "",
                                      "navSublistInnerLinkText": "Puno"
                                    }
                                  ]
                                },
                                {
                                  "navSublistInnerItemClass": "",
                                  "navSublistInnerLink": [
                                    {
                                      "navSublistInnerLinkUrl": "#",
                                      "navSublistInnerLinkClass": "",
                                      "navSublistInnerLinkText": "Puno"
                                    }
                                  ]
                                },
                                {
                                  "navSublistInnerItemClass": "",
                                  "navSublistInnerLink": [
                                    {
                                      "navSublistInnerLinkUrl": "#",
                                      "navSublistInnerLinkClass": "",
                                      "navSublistInnerLinkText": "Puno"
                                    }
                                  ]
                                },
                                {
                                  "navSublistInnerItemClass": "",
                                  "navSublistInnerLink": [
                                    {
                                      "navSublistInnerLinkUrl": "#",
                                      "navSublistInnerLinkClass": "",
                                      "navSublistInnerLinkText": "Puno"
                                    }
                                  ]
                                },
                                {
                                  "navSublistInnerItemClass": "",
                                  "navSublistInnerLink": [
                                    {
                                      "navSublistInnerLinkUrl": "#",
                                      "navSublistInnerLinkClass": "",
                                      "navSublistInnerLinkText": "Puno"
                                    }
                                  ]
                                },
                                {
                                  "navSublistInnerItemClass": "",
                                  "navSublistInnerLink": [
                                    {
                                      "navSublistInnerLinkUrl": "#",
                                      "navSublistInnerLinkClass": "",
                                      "navSublistInnerLinkText": "Puno"
                                    }
                                  ]
                                }
                              ]
                            }
                          ]
                        },
                        {
                          "navSublistItemClass": "s-nav-sublist-item--descriptor",
                          "navSublistLink": [
                            {
                              "navSublistLinkUrl": "#",
                              "navSublistLinkClass": "s-nav-sublist-link--descriptor",
                              "navSublistLinkStyle": "style='border-color: #00a336;'",
                              "navSublistLinkText": "Sama"
                            }
                          ],
                          "navSublistInner": [
                            {
                              "navSublistInnerClass": "s-nav-sublist--descriptor",
                              "navSublistInnerItem": [
                                {
                                  "navSublistInnerItemClass": "",
                                  "navSublistInnerLink": [
                                    {
                                      "navSublistInnerLinkUrl": "#",
                                      "navSublistInnerLinkClass": "",
                                      "navSublistInnerLinkText": "Puno"
                                    }
                                  ]
                                },
                                {
                                  "navSublistInnerItemClass": "",
                                  "navSublistInnerLink": [
                                    {
                                      "navSublistInnerLinkUrl": "#",
                                      "navSublistInnerLinkClass": "",
                                      "navSublistInnerLinkText": "Puno"
                                    }
                                  ]
                                },
                                {
                                  "navSublistInnerItemClass": "",
                                  "navSublistInnerLink": [
                                    {
                                      "navSublistInnerLinkUrl": "#",
                                      "navSublistInnerLinkClass": "",
                                      "navSublistInnerLinkText": "Puno"
                                    }
                                  ]
                                },
                                {
                                  "navSublistInnerItemClass": "",
                                  "navSublistInnerLink": [
                                    {
                                      "navSublistInnerLinkUrl": "#",
                                      "navSublistInnerLinkClass": "",
                                      "navSublistInnerLinkText": "Puno"
                                    }
                                  ]
                                },
                                {
                                  "navSublistInnerItemClass": "",
                                  "navSublistInnerLink": [
                                    {
                                      "navSublistInnerLinkUrl": "#",
                                      "navSublistInnerLinkClass": "",
                                      "navSublistInnerLinkText": "Puno"
                                    }
                                  ]
                                },
                                {
                                  "navSublistInnerItemClass": "",
                                  "navSublistInnerLink": [
                                    {
                                      "navSublistInnerLinkUrl": "#",
                                      "navSublistInnerLinkClass": "",
                                      "navSublistInnerLinkText": "Puno"
                                    }
                                  ]
                                },
                                {
                                  "navSublistInnerItemClass": "",
                                  "navSublistInnerLink": [
                                    {
                                      "navSublistInnerLinkUrl": "#",
                                      "navSublistInnerLinkClass": "",
                                      "navSublistInnerLinkText": "Puno"
                                    }
                                  ]
                                },
                                {
                                  "navSublistInnerItemClass": "",
                                  "navSublistInnerLink": [
                                    {
                                      "navSublistInnerLinkUrl": "#",
                                      "navSublistInnerLinkClass": "",
                                      "navSublistInnerLinkText": "Puno"
                                    }
                                  ]
                                }
                              ]
                            }
                          ]
                        },
                        {
                          "navSublistItemClass": "s-nav-sublist-item--all",
                          "navSublistLink": [
                            {
                              "navSublistLinkUrl": "#",
                              "navSublistLinkClass": "",
                              "navSublistLinkText": "Ver todos los Restaurantes"
                            }
                          ]
                        }
                      ]
                    }
                  ]
                }
              ]
            },
            {
              "navListItemModifierClass": "",
              "navListLink": [
                {
                  "navListLinkUrl": "#",
                  "navListLinkClass": "",
                  "icon": false,
                  "navListLinkText": "Eventos"
                }
              ],
              "navSublistWrapper": false
            },
            {
              "navListItemModifierClass": "",
              "navListLink": [
                {
                  "navListLinkUrl": "#",
                  "navListLinkClass": "",
                  "icon": false,
                  "navListLinkText": "Viajeros Auténticos"
                }
              ],
              "navSublistWrapper": false
            }
          ]
        },
        {
          "navListModifierClass": "s-nav-list--user",
          "navListItem": [
            {
              "navListItemModifierClass": "",
              "select": [
                {
                  "classModifier": "g-select-invert g-select-sm",
                  "nameSelect": "moneda",
                  "icon": [
                    {
                      "class": "la la-angle-down",
                      "inlineStyle": ""
                    }
                  ],
                  "options": [
                    {
                      "value": "",
                      "text": "U$D"
                    },
                    {
                      "value": "",
                      "text": "S/"
                    },
                    {
                      "value": "",
                      "text": "R$"
                    }
                  ]
                }
              ]
            },
            {
              "navListItemModifierClass": "",
              "select": [
                {
                  "classModifier": "g-select-invert g-select-sm",
                  "nameSelect": "idioma",
                  "icon": [
                    {
                      "class": "la la-angle-down",
                      "inlineStyle": ""
                    }
                  ],
                  "options": [
                    {
                      "value": "",
                      "text": "ES"
                    },
                    {
                      "value": "",
                      "text": "EN"
                    },
                    {
                      "value": "",
                      "text": "PR"
                    }
                  ]
                }
              ]
            },
            {
              "navListItemModifierClass": "s-nav-list-item--user",
              "navListLink": [
                {
                  "navListLinkUrl": "#",
                  "navListLinkClass": "",
                  "icon": [
                    {
                      "class": "la la-user",
                      "inlineStyle": ""
                    }
                  ]
                }
              ]
            },
            {
              "navListItemModifierClass": "s-nav-list-item--contact d-none d-xl-block",
              "navListLink": [
                {
                  "navListLinkUrl": "#",
                  "navListLinkClass": "",
                  "icon": [
                    {
                      "class": "la la-envelope",
                      "inlineStyle": ""
                    }
                  ]
                }
              ]
            }
          ]
        }
      ]
    }
  ]
}
