{
  "footerTop": [
    {
      "col": [
        {
          "colClass": "justify-content-end py-3 px-0",
          "middleContainerClass": "",
          "innerDiv": [
            {
              "innerDivClass": "d-flex align-items-center flex-wrap",
              "innerText": [
                {
                  "tag": "h4",
                  "modifierClass": "s-footer-subtitle mr-1 mb-md-0",
                  "text": "Redes Sociales"
                }
              ],
              "listSocial": [
                {
                  "listSocialClass": "",
                  "listSocialItem": [
                    {
                      "listSocialItemUrl": "#",
                      "icon": [
                        {
                          "class": "caicon-facebook"
                        }
                      ]
                    },
                    {
                      "listSocialItemUrl": "#",
                      "icon": [
                        {
                          "class": "caicon-twitter"
                        }
                      ]
                    },
                    {
                      "listSocialItemUrl": "#",
                      "icon": [
                        {
                          "class": "caicon-instagram"
                        }
                      ]
                    },
                    {
                      "listSocialItemUrl": "#",
                      "icon": [
                        {
                          "class": "caicon-flickr"
                        }
                      ]
                    },
                    {
                      "listSocialItemUrl": "#",
                      "icon": [
                        {
                          "class": "caicon-youtube"
                        }
                      ]
                    }
                  ]
                }
              ]
            }
          ]
        },
        {
          "colClass": "justify-content-start py-3 px-0 g-bgc-black",
          "middleContainerClass": "pl-md-4",
          "text": [
            {
              "tag": "h3",
              "modifierClass": "s-footer-title",
              "text": "Suscríbete"
            },
            {
              "tag": "h4",
              "modifierClass": "s-footer-subtitle",
              "text": "Persona"
            }
          ],
          "innerDiv": [
            {
              "innerDivClass": "d-flex align-items-center flex-wrap",
              "inputCheck": [
                {
                  "className": "g-radio g-radio--invert mr-2 mb-2",
                  "type": "radio",
                  "name": "persona",
                  "labelText": "Natural"
                },
                {
                  "className": "g-radio g-radio--invert mr-2 mb-2",
                  "type": "radio",
                  "name": "persona",
                  "labelText": "Jurídica"
                }
              ]
            }
          ],
          "inputForm": [
            {
              "inputFormClass": "mb-2",
              "input": [
                {
                  "classModifier": "g-input-invert",
                  "type": "text",
                  "name": "suscribete",
                  "placeHolder": "Ingresa tu email"
                }
              ],
              "button": [
                {
                  "classModifier": "g-btn-icon g-btn-primary",
                  "type": "button",
                  "textButton": "",
                  "icon": "<i class='la la-long-arrow-right'></i>"
                }
              ]
            }
          ]
        }
      ]
    }
  ],
  "footerBottom": [
    {
      "content": [
        {
          "row": [
            {
              "rowModifierClass": "py-3 align-items-center",
              "col": [
                {
                  "colModifierClass": "col-sm-6 mb-3 mb-sm-0 text-center text-sm-left",
                  "img": [
                    {
                      "classModifier": "",
                      "src": "../../images/ca-brand-white.png",
                      "alt": "Casa Andina Logo"
                    }
                  ]
                },
                {
                  "colModifierClass": "col-sm-6 mb-3 mb-sm-0 text-center text-sm-right",
                  "img": false,
                  "innerDiv": [
                    {
                      "innerDivClass": "d-inline-flex justify-content-center justify-content-sm-start align-items-center flex-wrap",
                      "innerText": [
                        {
                          "tag": "h4",
                          "modifierClass": "s-footer-subtitle mr-1 mb-md-0",
                          "text": "Medios de pago"
                        }
                      ],
                      "payMethods": [
                        {
                          "payMethodImg": [
                            {
                              "classModifier": "m-0-5",
                              "src": "https://placehold.it/32x32",
                              "alt": ""
                            },
                            {
                              "classModifier": "m-0-5",
                              "src": "https://placehold.it/32x32",
                              "alt": ""
                            },
                            {
                              "classModifier": "m-0-5",
                              "src": "https://placehold.it/32x32",
                              "alt": ""
                            },
                            {
                              "classModifier": "m-0-5",
                              "src": "https://placehold.it/32x32",
                              "alt": ""
                            },
                            {
                              "classModifier": "m-0-5",
                              "src": "https://placehold.it/32x32",
                              "alt": ""
                            },
                            {
                              "classModifier": "m-0-5",
                              "src": "https://placehold.it/32x32",
                              "alt": ""
                            },
                            {
                              "classModifier": "m-0-5",
                              "src": "https://placehold.it/32x32",
                              "alt": ""
                            },
                            {
                              "classModifier": "m-0-5",
                              "src": "https://placehold.it/32x32",
                              "alt": ""
                            }
                          ]
                        }
                      ]
                    }
                  ]
                }
              ]
            }
          ]
        },
        {
          "divider": [
            {}
          ]
        },
        {
          "row": [
            {
              "rowModifierClass": "py-2",
              "col": [
                {
                  "colModifierClass": "col-sm-6 col-md-4 col-lg-x5",
                  "img": false,
                  "text": [
                    {
                      "tag": "h4",
                      "modifierClass": "s-footer-subtitle s-footer-subtitle--arrow active",
                      "text": "Casa Andina"
                    }
                  ],
                  "listFooter": [
                    {
                      "listFooterClass": "active",
                      "listFooterItem": [
                        {
                          "listFooterItemUrl": "#",
                          "listFooterItemText": "Quiénes somos"
                        },
                        {
                          "listFooterItemUrl": "#",
                          "listFooterItemText": "Grupo empresarial"
                        },
                        {
                          "listFooterItemUrl": "#",
                          "listFooterItemText": "Responsabilidad social"
                        }
                      ]
                    }
                  ]
                },
                {
                  "colModifierClass": "col-sm-6 col-md-4 col-lg-x5",
                  "img": false,
                  "text": [
                    {
                      "tag": "h4",
                      "modifierClass": "s-footer-subtitle s-footer-subtitle--arrow",
                      "text": "Nuestro Equipo"
                    }
                  ],
                  "listFooter": [
                    {
                      "listFooterClass": "",
                      "listFooterItem": [
                        {
                          "listFooterItemUrl": "#",
                          "listFooterItemText": "El equipo"
                        },
                        {
                          "listFooterItemUrl": "#",
                          "listFooterItemText": "Trabaja con nosotros"
                        }
                      ]
                    }
                  ]
                },
                {
                  "colModifierClass": "col-sm-6 col-md-4 col-lg-x5",
                  "img": false,
                  "text": [
                    {
                      "tag": "h4",
                      "modifierClass": "s-footer-subtitle s-footer-subtitle--arrow",
                      "text": "Empresas"
                    }
                  ],
                  "listFooter": [
                    {
                      "listFooterClass": "",
                      "listFooterItem": [
                        {
                          "listFooterItemUrl": "#",
                          "listFooterItemText": "Empresas"
                        },
                        {
                          "listFooterItemUrl": "#",
                          "listFooterItemText": "Eventos Corporativos"
                        }
                      ]
                    }
                  ]
                },
                {
                  "colModifierClass": "col-sm-6 col-md-4 col-lg-x5",
                  "img": false,
                  "text": [
                    {
                      "tag": "h4",
                      "modifierClass": "s-footer-subtitle s-footer-subtitle--arrow",
                      "text": "Reservas"
                    }
                  ],
                  "listFooter": [
                    {
                      "listFooterClass": "",
                      "listFooterItem": [
                        {
                          "listFooterItemUrl": "#",
                          "listFooterItemText": "Directorio de contacto"
                        },
                        {
                          "listFooterItemUrl": "#",
                          "listFooterItemText": "Control de reservas"
                        },
                        {
                          "listFooterItemUrl": "#",
                          "listFooterItemText": "Corporativo"
                        },
                        {
                          "listFooterItemUrl": "#",
                          "listFooterItemText": "Viajes personales"
                        }
                      ]
                    }
                  ]
                },
                {
                  "colModifierClass": "col-sm-6 col-md-4 col-lg-x5",
                  "img": false,
                  "text": [
                    {
                      "tag": "h4",
                      "modifierClass": "s-footer-subtitle s-footer-subtitle--arrow",
                      "text": "Programa de Lealtad"
                    }
                  ],
                  "listFooter": [
                    {
                      "listFooterClass": "",
                      "listFooterItem": [
                        {
                          "listFooterItemUrl": "#",
                          "listFooterItemText": "¿Qué es?"
                        },
                        {
                          "listFooterItemUrl": "#",
                          "listFooterItemText": "¿Cómo funciona?"
                        },
                        {
                          "listFooterItemUrl": "#",
                          "listFooterItemText": "¿Cómo formo parte?"
                        }
                      ]
                    }
                  ]
                }
              ]
            }
          ]
        },
        {
          "divider": [
            {}
          ]
        },
        {
          "row": [
            {
              "rowModifierClass": "py-2 align-items-center justify-content-center",
              "col": [
                {
                  "colModifierClass": "col-12",
                  "img": false,
                  "listFooter": [
                    {
                      "listFooterClass": "s-footer-list--inline",
                      "listFooterItem": [
                        {
                          "listFooterItemUrl": "#",
                          "listFooterItemText": "Preguntas frecuentes"
                        },
                        {
                          "listFooterItemUrl": "#",
                          "listFooterItemText": "Términos y condiciones"
                        },
                        {
                          "listFooterItemUrl": "#",
                          "listFooterItemText": "Políticas de privacidad"
                        },
                        {
                          "listFooterItemUrl": "#",
                          "listFooterItemText": "Libro de reclamaciones"
                        },
                        {
                          "listFooterItemUrl": "#",
                          "listFooterItemText": "Contacto"
                        }
                      ]
                    }
                  ]
                }
              ]
            }
          ]
        },
        {
          "divider": [
            {}
          ]
        },
        {
          "row": [
            {
              "rowModifierClass": "py-2",
              "col": [
                {
                  "colModifierClass": "col-12 text-center",
                  "text": [
                    {
                      "tag": "span",
                      "modifierClass": "g-cl-gray4 g-fs-11",
                      "text": "Todos los derechos reservados - Casa Andina Hoteles"
                    }
                  ]
                }
              ]
            }
          ]
        }
      ]
    }
  ]
}
