{
  "marginClass": "",
  "text": [
    {
      "tag": "span",
      "modifierClass": "d-block g-fs-14",
      "text": "<strong>Medidas</strong>: 250 x 120px"
    },
    {
      "tag": "span",
      "modifierClass": "d-block g-fs-14",
      "text": "<strong>Peso máx.</strong>: 2mb"
    }
  ]
}
