{
  "modifierClass": "g-img-preview-select",
  "before": false,
  "after": [
    {
      "img": "../../images/preview-img.jpg",
      "buttonClose": false,
      "buttonSelected": [
        {
          "className": "g-radio",
          "type": "radio",
          "name": "nInputPermission",
          "labelText": ""
        }
      ]
    }
  ]
}
