{
  "modifierClass": "",
  "wrapperModifierClass": "",
  "item": [
    {
      "itemModifierClass": "lg active"
    },
    {
      "itemModifierClass": "md"
    },
    {
      "itemModifierClass": "xs"
    },
    {
      "itemModifierClass": "xs"
    }
  ]
}
