<?xml version="1.0" encoding="utf-8"?>
<!-- Generator: Adobe Illustrator 22.1.0, SVG Export Plug-In . SVG Version: 6.00 Build 0)  -->
<svg version="1.1" id="Capa_1" xmlns="http://www.w3.org/2000/svg" xmlns:xlink="http://www.w3.org/1999/xlink" x="0px" y="0px"
	 viewBox="0 0 760 710" style="enable-background:new 0 0 760 710;" xml:space="preserve">
<style type="text/css">
	.st0{fill:url(#SVGID_1_);}
	.st1{fill:url(#SVGID_2_);}
	.st2{fill:#E5E7E8;}
	.st3{fill:none;stroke:#FFFFFF;}
</style>
<linearGradient id="SVGID_1_" gradientUnits="userSpaceOnUse" x1="-301.3593" y1="738.9606" x2="-300.9548" y2="738.9606" gradientTransform="matrix(1068 0 0 -711 322234 525756)">
	<stop  offset="0" style="stop-color:#F6F6F6"/>
	<stop  offset="1" style="stop-color:#E9EAEB"/>
</linearGradient>
<rect class="st0" width="760" height="710"/>
<linearGradient id="SVGID_2_" gradientUnits="userSpaceOnUse" x1="-300.9437" y1="738.8322" x2="-301.0486" y2="738.7608" gradientTransform="matrix(809.6557 0 0 -1083 243899.375 800547)">
	<stop  offset="0" style="stop-color:#B8F4FF"/>
	<stop  offset="1" style="stop-color:#E4FBFF"/>
</linearGradient>
<path class="st1" d="M555.4,693.2l-8.9-13l-0.3-0.6H537l-26.3-21.4l-10-13.3l-28.3-21.4l-48.2-19.1l-43.4-30.2l-29.6-23.3
	l-12.9-26.1V503l-31.5-45.3v-16.4l-17.9-13.4l-4.6-24.3l-19.7-28.8L255,346l-20.4-33.7L219,294.7v-12.3l-17.7-15.8l-36.8-24.7
	l9.5-8.5L155,195.5l12.3-21.8l16.3-16.7l10.3-5.9c2.5-7.6,6.3-18.3,9.5-24c5.5-9.5,0-19.1,0-21.8s-2.7-5.5-8.2,0s0,5.5,0,5.5
	s-6.8,12.3-13.6,6.8c-6.8-5.5-20.5-8.2-20.5-15c0-6.8,6.8-9.5,8.2-23.2c1.4-13.6-4.1-8.2,2.7-20.5s2.7-27.3,10.9-30
	c8.2-2.7,9.5-1.4,12.3-9.5c2-6.1,6.3-13.7,8.9-19.4H0v710h558.2C556.7,701.9,555.4,693.2,555.4,693.2z"/>
<g id="Group-3" transform="translate(80.000000, 30.000000)">
	<polygon id="Fill-1_1_" class="st2" points="300.5,0.5 286,3.2 297.1,33.1 291.1,33 284.5,51.8 267.8,74.6 246,89.6 206.6,103 
		186.9,121.3 177.4,156 152.7,176 144.3,160.1 123.7,152.2 110.5,156 114.9,141.8 120.4,138.7 117.1,121.3 106.1,127.6 89.8,144.3 
		77.5,166 96.6,203.9 87,212.3 123.7,237 141.4,252.7 141.4,265 157,282.5 177.4,316.2 186.9,344.8 206.6,373.6 211.1,397.9 
		229,411.2 229,427.6 260.4,472.8 260.4,494.5 273.3,520.6 302.8,543.8 346.1,573.9 394.2,593 422.5,614.3 432.4,627.6 458.7,649 
		475.5,649 492.8,619.4 483.6,614.3 509.6,593 492.8,531.8 514.2,504.3 514.2,462.6 526.4,446.3 492.8,386.2 461.2,391.3 
		456.1,354.9 408.2,355.6 401.1,338.3 368,333.2 376.7,324.2 342,265 348.7,256.4 346.7,242.4 372.3,226.1 366.3,212.3 378.5,195.8 
		378.5,179.3 416.1,157.7 466.5,150.1 469.5,138.7 454.3,135.9 480.4,95.3 451.4,78.1 438.2,83.1 421.3,76.8 407.8,85.4 379.9,88.3 
		372.3,82.7 372.3,67 360.2,63.3 354.5,46.3 332.6,34.1 323.7,16.6 	"/>
	<path id="Stroke-2" class="st3" d="M206.6,103l9.2,49.2l-9.2,15.6l3.1,22.8l38.7,20.4l42.8,14.3l-22.4,27.5l13.2,37.7l38.8-7.8
		v-24.8L342,265 M114.7,143.9l-14.6,6.3l-10.4-5.9 M209.6,190.6l-2.3,13.2l21.6,17l-8.9,10.5h-10.4l-2.3,11.2l12.7,36l12.3,8
		l7.8,17.1h20.2l14.9,5.1l6.6-18.3 M275.3,308.8l6.6,24.4l9.2-4.5l23.4-25h7.6l-7.6,25l15.3,52.4l12.2,8.4l8.2-8.4l9.2,23.4h41.8
		l3.6-13.2l32.1-10.2l19.4-26.2 M401.1,404.5l-5.9,16.3l18.6,33.6l47.4,8.2l31.6,10.2l21.4-10.2 M461.2,462.6l-17.3,55.5l1.7,66.7
		l-18.1,8.1l-5,21.4 M445,562.9l16.2,7.6l6.1,28.5l17.3,15.2 M432.4,627.6l13.1-8.1l15.7-20.4h6.1 M177.4,156v30.9l-8.8,17
		l28.2,27.5l0.2,11.2h10.4 M141.4,252.7l7.8-6.9l13.9,24.4l14.3-5.3l12.9,6.6l13.2-6.6l-6.6-22.4 M152.7,176l-2,34.4l-18.2-6.5
		l-17.7,7.1l-8.8,14.3 M149.2,245.8l7-6.8l-10.9-12.9l10.9-13.8l-5.4-2 M177.4,316.2l12.9-10l13.2-23.6h7.6l13.8,21h15.3
		 M206.6,373.6l9.2,7.5l19.4-14.9l-2.7-21.3l12.9-20.7l-16.3-8l-4.1-12.5 M319.2,344.9l-40.7,6.4l-4.3,18.3l-17.5-6.8l-11.5,6.8
		l-10.2-3.4 M342,389.8l-17.6,1.5l-3.8-8.1l-19.4-4.8l-32.6,6.9l-16.6,12.6l-6.8-28.4 M444.5,543l-30.7-6.4l-23.9-18.6l-17.6,4.9
		v13.7l-36.4,14.2l-21.4-19l-11.7,11.9 M389.9,518.1l18.3-26.8l-28-18.6l-12.2,6.1l-21.9-11.2l8.9,36.7v16.2l17.3,2.5 M368,478.9
		l-26-41.3l-17.6-7l5.3,27.8l-21.1,14.8l5.9,21.2l-11.7,4.8v13.2h5.9l5.9,19.4 M302.8,499.2l-14.8-7.9l3.1-12.4l-7.9-16.3
		l-22.8,10.2 M283.2,462.6l3.3-16.3l14.8-8.7v-13.1h17.1l6.1,6.1 M286.5,446.3l-6.6-21.7h-11.2l-16.6-26.7 M342,437.6l17.3-33.1"/>
</g>
</svg>
