{
  "pagesAccordion": [
    {
      "pagesAccordionClass": "",
      "cardHeader": [
        {
          "col": [
            {
              "colClass": "col-3",
              "cardPageInfo": [
                {
                  "breadcrumb": [
                    {
                      "marginClass": "",
                      "items": [
                        {
                          "item": "Mercado"
                        }
                      ]
                    }
                  ],
                  "pageType": [
                    {
                      "class": "la la-file g-fs-20 mr-1"
                    }
                  ],
                  "pageTitle": [
                    {
                      "tag": "h4",
                      "modifierClass": "g-fs-17 mb-0",
                      "text": "Resumen de mercado de valores agrupados"
                    }
                  ]
                }
              ]
            },
            {
              "colClass": "col-2 pl-0",
              "cardInfo": [
                {
                  "title": "Última actualización",
                  "infoWithIcon": [
                    {
                      "iconClass": "la la-calendar",
                      "text": "15/10/2018"
                    },
                    {
                      "iconClass": "la la-user",
                      "text": "Hugo Torres Herrera"
                    }
                  ]
                }
              ]
            },
            {
              "colClass": "col-2",
              "cardInfo": [
                {
                  "title": "Estado",
                  "badge": [
                    {
                      "modifierClass": "g-badge-success",
                      "text": "Publicada"
                    }
                  ]
                }
              ]
            },
            {
              "colClass": "col-2",
              "cardInfo": [
                {
                  "title": "Idioma",
                  "infoWithIcon": [
                    {
                      "iconClass": "la la-calendar",
                      "text": "Inglés / Español"
                    }
                  ]
                }
              ]
            },
            {
              "colClass": "col-3 text-right",
              "squareBtn": [
                {
                  "type": "button",
                  "classModifier": "",
                  "iconClass": "la la-trash",
                  "text": "Eliminar"
                },
                {
                  "type": "button",
                  "classModifier": "",
                  "iconClass": "la la-edit",
                  "text": "Editar"
                }
              ]
            }
          ]
        }
      ],
      "pagesAccordionBody": [
        {
          "pageSummary": [
            {
              "column": [
                {
                  "colClass": "col-3",
                  "cardPageInfo": [
                    {
                      "breadcrumb": [
                        {
                          "marginClass": "",
                          "items": [
                            {
                              "item": "Mercado"
                            }
                          ]
                        }
                      ],
                      "pageType": [
                        {
                          "class": "la la-file g-fs-20 mr-1"
                        }
                      ],
                      "pageTitle": [
                        {
                          "tag": "h4",
                          "modifierClass": "g-fs-17 mb-0",
                          "text": "Resumen de mercado de valores agrupados"
                        }
                      ]
                    }
                  ]
                },
                {
                  "colClass": "col-2 pl-0",
                  "cardInfo": [
                    {
                      "title": "Última actualización",
                      "infoWithIcon": [
                        {
                          "iconClass": "la la-calendar",
                          "text": "15/10/2018"
                        },
                        {
                          "iconClass": "la la-user",
                          "text": "Hugo Torres Herrera"
                        }
                      ]
                    }
                  ]
                },
                {
                  "colClass": "col-2",
                  "cardInfo": [
                    {
                      "title": "Estado",
                      "badge": [
                        {
                          "modifierClass": "g-badge-success",
                          "text": "Publicada"
                        }
                      ]
                    }
                  ]
                },
                {
                  "colClass": "col-2",
                  "cardInfo": [
                    {
                      "title": "Idioma",
                      "infoWithIcon": [
                        {
                          "iconClass": "la la-calendar",
                          "text": "Inglés / Español"
                        }
                      ]
                    }
                  ]
                },
                {
                  "colClass": "col-3 text-right",
                  "squareBtn": [
                    {
                      "type": "button",
                      "classModifier": "",
                      "iconClass": "la la-trash",
                      "text": "Eliminar"
                    },
                    {
                      "type": "button",
                      "classModifier": "",
                      "iconClass": "la la-edit",
                      "text": "Editar"
                    }
                  ]
                }
              ]
            }
          ]
        }
      ]
    }
  ]
}
