{
  "modifierClass": "g-section--padding-60 g-bgc-gray7",
  "title": [
    {
      "tag": "h2",
      "classModifier": "",
      "headingText": "Promociones destacadas"
    }
  ],
  "button": [
    {
      "classModifier": "g-btn-outline g-btn-icon mb-1",
      "type": "button",
      "inlineStyle": "",
      "textButton": "",
      "icon": "<i class='la la-filter'></i>"
    }
  ],
  "filter": [
    {
      "classModifier": "g-box-shadow3 d-none d-xl-block",
      "col": [
        {
          "colClass": "col-3",
          "buttonDropdown": [
            {
              "classModifier": "g-block",
              "button": [
                {
                  "classModifier": "g-btn-primary g-btn-outline g-btn-with-icon--dropdown g-block",
                  "type": "button",
                  "textButton": "Tipo de promoción (2)",
                  "classIcon": "la la-angle-down"
                }
              ],
              "list": false,
              "listCheckbox": [
                {
                  "classModifier": "g-dropDown--list active",
                  "listElements": [
                    {
                      "liClass": "",
                      "checkbox": [
                        {
                          "className": "g-checkbox",
                          "type": "checkbox",
                          "name": "nInputCheckbox",
                          "labelText": "Defaul text"
                        }
                      ]
                    },
                    {
                      "liClass": "",
                      "checkbox": [
                        {
                          "className": "g-checkbox",
                          "type": "checkbox",
                          "name": "nInputCheckbox",
                          "labelText": "Defaul text"
                        }
                      ]
                    },
                    {
                      "liClass": "",
                      "checkbox": [
                        {
                          "className": "g-checkbox",
                          "type": "checkbox",
                          "name": "nInputCheckbox",
                          "labelText": "Defaul text"
                        }
                      ]
                    },
                    {
                      "liClass": "",
                      "checkbox": [
                        {
                          "className": "g-checkbox",
                          "type": "checkbox",
                          "name": "nInputCheckbox",
                          "labelText": "Defaul text"
                        }
                      ]
                    },
                    {
                      "liClass": "",
                      "checkbox": [
                        {
                          "className": "g-checkbox",
                          "type": "checkbox",
                          "name": "nInputCheckbox",
                          "labelText": "Defaul text"
                        }
                      ]
                    },
                    {
                      "liClass": "",
                      "checkbox": [
                        {
                          "className": "g-checkbox",
                          "type": "checkbox",
                          "name": "nInputCheckbox",
                          "labelText": "Defaul text"
                        }
                      ]
                    }
                  ]
                }
              ],
              "assessmentBox": false
            }
          ]
        },
        {
          "colClass": "col-2",
          "buttonDropdown": [
            {
              "classModifier": "g-block",
              "button": [
                {
                  "classModifier": "g-btn-primary g-btn-outline g-btn-with-icon--dropdown g-block",
                  "type": "button",
                  "textButton": "Destino (2)",
                  "classIcon": "la la-angle-down"
                }
              ],
              "list": false,
              "listCheckbox": [
                {
                  "classModifier": "g-dropDown--list",
                  "listElements": [
                    {
                      "liClass": "",
                      "checkbox": [
                        {
                          "className": "g-checkbox",
                          "type": "checkbox",
                          "name": "nInputCheckbox",
                          "labelText": "Defaul text"
                        }
                      ]
                    },
                    {
                      "liClass": "",
                      "checkbox": [
                        {
                          "className": "g-checkbox",
                          "type": "checkbox",
                          "name": "nInputCheckbox",
                          "labelText": "Defaul text"
                        }
                      ]
                    },
                    {
                      "liClass": "",
                      "checkbox": [
                        {
                          "className": "g-checkbox",
                          "type": "checkbox",
                          "name": "nInputCheckbox",
                          "labelText": "Defaul text"
                        }
                      ]
                    },
                    {
                      "liClass": "",
                      "checkbox": [
                        {
                          "className": "g-checkbox",
                          "type": "checkbox",
                          "name": "nInputCheckbox",
                          "labelText": "Defaul text"
                        }
                      ]
                    },
                    {
                      "liClass": "",
                      "checkbox": [
                        {
                          "className": "g-checkbox",
                          "type": "checkbox",
                          "name": "nInputCheckbox",
                          "labelText": "Defaul text"
                        }
                      ]
                    },
                    {
                      "liClass": "",
                      "checkbox": [
                        {
                          "className": "g-checkbox",
                          "type": "checkbox",
                          "name": "nInputCheckbox",
                          "labelText": "Defaul text"
                        }
                      ]
                    }
                  ]
                }
              ],
              "assessmentBox": false
            }
          ]
        },
        {
          "colClass": "col-2",
          "buttonDropdown": [
            {
              "classModifier": "g-block",
              "button": [
                {
                  "classModifier": "g-btn-primary g-btn-outline g-btn-with-icon--dropdown g-block",
                  "type": "button",
                  "textButton": "Hotel (2)",
                  "classIcon": "la la-angle-down"
                }
              ],
              "list": false,
              "listCheckbox": [
                {
                  "classModifier": "g-dropDown--list",
                  "listElements": [
                    {
                      "liClass": "",
                      "checkbox": [
                        {
                          "className": "g-checkbox",
                          "type": "checkbox",
                          "name": "nInputCheckbox",
                          "labelText": "Defaul text"
                        }
                      ]
                    },
                    {
                      "liClass": "",
                      "checkbox": [
                        {
                          "className": "g-checkbox",
                          "type": "checkbox",
                          "name": "nInputCheckbox",
                          "labelText": "Defaul text"
                        }
                      ]
                    },
                    {
                      "liClass": "",
                      "checkbox": [
                        {
                          "className": "g-checkbox",
                          "type": "checkbox",
                          "name": "nInputCheckbox",
                          "labelText": "Defaul text"
                        }
                      ]
                    },
                    {
                      "liClass": "",
                      "checkbox": [
                        {
                          "className": "g-checkbox",
                          "type": "checkbox",
                          "name": "nInputCheckbox",
                          "labelText": "Defaul text"
                        }
                      ]
                    },
                    {
                      "liClass": "",
                      "checkbox": [
                        {
                          "className": "g-checkbox",
                          "type": "checkbox",
                          "name": "nInputCheckbox",
                          "labelText": "Defaul text"
                        }
                      ]
                    },
                    {
                      "liClass": "",
                      "checkbox": [
                        {
                          "className": "g-checkbox",
                          "type": "checkbox",
                          "name": "nInputCheckbox",
                          "labelText": "Defaul text"
                        }
                      ]
                    }
                  ]
                }
              ],
              "assessmentBox": false
            }
          ]
        },
        {
          "colClass": "col-2",
          "buttonDropdown": [
            {
              "classModifier": "g-block",
              "button": [
                {
                  "classModifier": "g-btn-primary g-btn-outline g-btn-with-icon--dropdown g-block",
                  "type": "button",
                  "textButton": "Marca (2)",
                  "classIcon": "la la-angle-down"
                }
              ],
              "list": false,
              "listCheckbox": [
                {
                  "classModifier": "g-dropDown--list",
                  "listElements": [
                    {
                      "liClass": "",
                      "checkbox": [
                        {
                          "className": "g-checkbox",
                          "type": "checkbox",
                          "name": "nInputCheckbox",
                          "labelText": "Defaul text"
                        }
                      ]
                    },
                    {
                      "liClass": "",
                      "checkbox": [
                        {
                          "className": "g-checkbox",
                          "type": "checkbox",
                          "name": "nInputCheckbox",
                          "labelText": "Defaul text"
                        }
                      ]
                    },
                    {
                      "liClass": "",
                      "checkbox": [
                        {
                          "className": "g-checkbox",
                          "type": "checkbox",
                          "name": "nInputCheckbox",
                          "labelText": "Defaul text"
                        }
                      ]
                    }
                  ]
                }
              ],
              "assessmentBox": false
            }
          ]
        },
        {
          "colClass": "col-2",
          "buttonDropdown": [
            {
              "classModifier": "g-block",
              "button": [
                {
                  "classModifier": "g-btn-primary g-btn-outline g-btn-with-icon--dropdown g-block",
                  "type": "button",
                  "textButton": "Interés (2)",
                  "classIcon": "la la-angle-down"
                }
              ],
              "list": false,
              "listCheckbox": [
                {
                  "classModifier": "g-dropDown--list",
                  "listElements": [
                    {
                      "liClass": "",
                      "checkbox": [
                        {
                          "className": "g-checkbox",
                          "type": "checkbox",
                          "name": "nInputCheckbox",
                          "labelText": "Defaul text"
                        }
                      ]
                    },
                    {
                      "liClass": "",
                      "checkbox": [
                        {
                          "className": "g-checkbox",
                          "type": "checkbox",
                          "name": "nInputCheckbox",
                          "labelText": "Defaul text"
                        }
                      ]
                    },
                    {
                      "liClass": "",
                      "checkbox": [
                        {
                          "className": "g-checkbox",
                          "type": "checkbox",
                          "name": "nInputCheckbox",
                          "labelText": "Defaul text"
                        }
                      ]
                    },
                    {
                      "liClass": "",
                      "checkbox": [
                        {
                          "className": "g-checkbox",
                          "type": "checkbox",
                          "name": "nInputCheckbox",
                          "labelText": "Defaul text"
                        }
                      ]
                    },
                    {
                      "liClass": "",
                      "checkbox": [
                        {
                          "className": "g-checkbox",
                          "type": "checkbox",
                          "name": "nInputCheckbox",
                          "labelText": "Defaul text"
                        }
                      ]
                    },
                    {
                      "liClass": "",
                      "checkbox": [
                        {
                          "className": "g-checkbox",
                          "type": "checkbox",
                          "name": "nInputCheckbox",
                          "labelText": "Defaul text"
                        }
                      ]
                    }
                  ]
                }
              ],
              "assessmentBox": false
            }
          ]
        },
        {
          "colClass": "col-1 pl-0",
          "linkWithIcon": [
            {
              "link": "#",
              "modifierClass": "g-link-icon-static",
              "iconLeft": false,
              "text": "Limpiar",
              "iconRight": [
                {
                  "class": "la la-trash"
                }
              ]
            }
          ]
        }
      ]
    }
  ]
}
