{
  "modifierClass": "mb-2",
  "column": [
    {
      "colClass": "col-auto g-w-100",
      "label": [
        {
          "modifierClass": "g-fw-bold g-fs-15",
          "name": "description",
          "title": "Estilo:"
        }
      ]
    },
    {
      "colClass": "col",
      "alignButtons": [
        {
          "buttons": [
            {
              "name": "align",
              "iconClass": "la-align-left"
            },
            {
              "name": "align",
              "iconClass": "la-align-center"
            },
            {
              "name": "align",
              "iconClass": "la-align-right"
            }
          ]
        }
      ]
    }
  ]
}
