{
  "label": [
    {
      "modifierClass": "g-text-uppercase g-fw-medium g-fs-13 mb-1",
      "name": "pageName",
      "title": "Nombre de la página"
    }
  ],
  "input": [
    {
      "classModifier": false,
      "type": "text",
      "name": "pageName",
      "placeHolder": "General"
    }
  ]
}
