{
  "modifierClass": "mt-1",
  "column": [
    {
      "colClass": "col-auto",
      "label": [
        {
          "modifierClass": "g-fw-bold g-fs-12 mb-0",
          "name": "pageUrl",
          "title": "Enlace permanente: <a href='https://www.bvl.com.pe/mercado/'>https://www.bvl.com.pe/mercado/</a>"
        }
      ]
    },
    {
      "colClass": "col",
      "input": [
        {
          "classModifier": "mb-0",
          "type": "text",
          "name": "pageUrl",
          "placeHolder": "la-nueva-bolsa"
        }
      ]
    }
  ]
}
