{
  "modifierClass": "",
  "dropdownListItem": [
    {
      "listItemText": [
        {
          "tag": "span",
          "modifierClass": "",
          "text": "2019:"
        }
      ],
      "tagsList": [
        {
          "modifierClass": "",
          "tagsListItem": [
            {
              "tagsListItemText": "enero",
              "tagslistItemIcon": [
                {
                  "class": "la la-close"
                }
              ]
            },
            {
              "tagsListItemText": "febrero",
              "tagslistItemIcon": [
                {
                  "class": "la la-close"
                }
              ]
            },
            {
              "tagsListItemText": "marzo",
              "tagslistItemIcon": [
                {
                  "class": "la la-close"
                }
              ]
            },
            {
              "tagsListItemText": "abril",
              "tagslistItemIcon": [
                {
                  "class": "la la-close"
                }
              ]
            },
            {
              "tagsListItemText": "mayo",
              "tagslistItemIcon": [
                {
                  "class": "la la-close"
                }
              ]
            },
            {
              "tagsListItemText": "junio",
              "tagslistItemIcon": [
                {
                  "class": "la la-close"
                }
              ]
            },
            {
              "tagsListItemText": "julio",
              "tagslistItemIcon": [
                {
                  "class": "la la-close"
                }
              ]
            },
            {
              "tagsListItemText": "agosto",
              "tagslistItemIcon": [
                {
                  "class": "la la-close"
                }
              ]
            },
            {
              "tagsListItemText": "septiembre",
              "tagslistItemIcon": [
                {
                  "class": "la la-close"
                }
              ]
            },
            {
              "tagsListItemText": "octubre",
              "tagslistItemIcon": [
                {
                  "class": "la la-close"
                }
              ]
            },
            {
              "tagsListItemText": "noviembre",
              "tagslistItemIcon": [
                {
                  "class": "la la-close"
                }
              ]
            },
            {
              "tagsListItemText": "diciembre",
              "tagslistItemIcon": [
                {
                  "class": "la la-close"
                }
              ]
            }
          ]
        }
      ]
    },
    {
      "listItemText": [
        {
          "tag": "span",
          "modifierClass": "",
          "text": "2018:"
        }
      ],
      "tagsList": [
        {
          "modifierClass": "",
          "tagsListItem": [
            {
              "tagsListItemText": "enero",
              "tagslistItemIcon": [
                {
                  "class": "la la-close"
                }
              ]
            },
            {
              "tagsListItemText": "febrero",
              "tagslistItemIcon": [
                {
                  "class": "la la-close"
                }
              ]
            },
            {
              "tagsListItemText": "marzo",
              "tagslistItemIcon": [
                {
                  "class": "la la-close"
                }
              ]
            },
            {
              "tagsListItemText": "abril",
              "tagslistItemIcon": [
                {
                  "class": "la la-close"
                }
              ]
            },
            {
              "tagsListItemText": "mayo",
              "tagslistItemIcon": [
                {
                  "class": "la la-close"
                }
              ]
            },
            {
              "tagsListItemText": "junio",
              "tagslistItemIcon": [
                {
                  "class": "la la-close"
                }
              ]
            },
            {
              "tagsListItemText": "julio",
              "tagslistItemIcon": [
                {
                  "class": "la la-close"
                }
              ]
            },
            {
              "tagsListItemText": "agosto",
              "tagslistItemIcon": [
                {
                  "class": "la la-close"
                }
              ]
            },
            {
              "tagsListItemText": "septiembre",
              "tagslistItemIcon": [
                {
                  "class": "la la-close"
                }
              ]
            },
            {
              "tagsListItemText": "octubre",
              "tagslistItemIcon": [
                {
                  "class": "la la-close"
                }
              ]
            },
            {
              "tagsListItemText": "noviembre",
              "tagslistItemIcon": [
                {
                  "class": "la la-close"
                }
              ]
            },
            {
              "tagsListItemText": "diciembre",
              "tagslistItemIcon": [
                {
                  "class": "la la-close"
                }
              ]
            }
          ]
        }
      ]
    }
  ]
}
