{
  "templates": {
    "site": {
      "index": {
        "input": "apps/casite/templates/index.tpl.html",
        "output": "apps/casite/src/index.html"
      }
    },
    "admin": {
      "index": {
        "input": "apps/caadmin/templates/index.tpl.html",
        "output": "apps/caadmin/src/index.html"
      }
    }
  },
  "s3": {
    "bucketName": {
      "dev": "multimediadev.casa-andina.com",
      "qa": "multimediaqa.casa-andina.com",
      "prod": "multimediaqa.casa-andina.com"
    },
    "dirName": "web-components/modules/",
    "region": "us-east-1",
    "accessKeyId": "AKIAZTBKWQVL2BSQ4VMP",
    "secretAccessKey": "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",
    "directory": {
      "public": {
        "dev": "https://s3.amazonaws.com/multimediadev.casa-andina.com/",
        "qa": "https://s3.amazonaws.com/multimediaqa.casa-andina.com/",
        "prod": "https://s3.amazonaws.com/multimediaqa.casa-andina.com/"
      },
      "publicSeo": {
        "dev": "https://s3.amazonaws.com/multimediadev.casa-andina.com/",
        "qa": "https://s3.amazonaws.com/multimediaqa.casa-andina.com/",
        "prod": "https://s3.amazonaws.com/multimediaqa.casa-andina.com/"
      }
    },
    "directoryWebcomponents": {
      "dev": "system/web-components/modules",
      "qa": "system-qa/web-components/modules",
      "prod": "system/web-components/modules"
    },
    "directoryBundles": {
      "dev": "system/web-components/bundles",
      "qa": "system-qa/web-components/bundles",
      "prod": "system/web-components/bundles"
    }
  },
  "seo": {
    "googlea10dd615a5542c15.html": {
      "contectType": "text/html",
      "directory": {
        "dev": "siteMap/googlea10dd615a5542c15.html",
        "qa": "siteMap/googlea10dd615a5542c15.html",
        "prod": "siteMap/googlea10dd615a5542c15.html"
      }
    },
    "robots.txt": {
      "contectType": "text/plain",
      "directory": {
        "dev": "siteMap/robots.txt",
        "qa": "siteMap/robots.txt",
        "prod": "siteMap/robots.txt"
      }
    },
    "sitemap.xml": {
      "contectType": "application/xml",
      "directory": {
        "dev": "siteMap/sitemap.xml",
        "qa": "siteMap/sitemap.xml",
        "prod": "siteMap/sitemap.xml"
      }
    },
    "post_es_sitemap.xml": {
      "contectType": "application/xml",
      "directory": {
        "dev": "siteMap/post_es_sitemap.xml",
        "qa": "siteMap/post_es_sitemap.xml",
        "prod": "siteMap/post_es_sitemap.xml"
      }
    },
    "post_en_sitemap.xml": {
      "contectType": "application/xml",
      "directory": {
        "dev": "siteMap/post_en_sitemap.xml",
        "qa": "siteMap/post_en_sitemap.xml",
        "prod": "siteMap/post_en_sitemap.xml"
      }
    },
    "post_pt_sitemap.xml": {
      "contectType": "application/xml",
      "directory": {
        "dev": "siteMap/post_pt_sitemap.xml",
        "qa": "siteMap/post_pt_sitemap.xml",
        "prod": "siteMap/post_pt_sitemap.xml"
      }
    },
    "main-sitemap.xsl": {
      "contectType": "text/xml",
      "directory": {
        "dev": "siteMap/main-sitemap.xsl",
        "qa": "siteMap/main-sitemap.xsl",
        "prod": "siteMap/main-sitemap.xsl"
      }
    }
  },
  "error": {
    "directory": {
      "dev": "system/pages-error",
      "qa": "system-qa/pages-error",
      "prod": "system/pages-error"
    }
  }
}
