{
  "bodyClass": "g-modal-open",
  "modifierClass": "multimedia",
  "modalHeader": [
    {
      "iconClass": "la-close",
      "modalTitle": false
    }
  ],
  "modalBodyClass": "",
  "image": [
    {
      "classModifier": "",
      "src": "https://placehold.it/650x420",
      "alt": "Alt default"
    }
  ]
}
