{
  "classModifier": "g-nav--single",
  "items": [
    {
      "tag": "span",
      "modifierClass": "g-fs-18",
      "inlineStyle": "",
      "text": "Fiesta"
    },
    {
      "tag": "span",
      "modifierClass": "g-fs-18",
      "inlineStyle": "",
      "text": "Noches de bodas"
    },
    {
      "tag": "span",
      "modifierClass": "g-fs-18",
      "inlineStyle": "",
      "text": "Luna de miel"
    },
    {
      "tag": "span",
      "modifierClass": "g-fs-18",
      "inlineStyle": "",
      "text": "Pedida de mano"
    },
    {
      "tag": "span",
      "modifierClass": "g-fs-18",
      "inlineStyle": "",
      "text": "Shorwer"
    },
    {
      "tag": "span",
      "modifierClass": "g-fs-18",
      "inlineStyle": "",
      "text": "Tus invitados"
    }
  ]
}