[
  {
      "title": "Excelente hotel2",
      "body": "Un hotel con muy buena ubicación en Miraflores, pero lo mas importante es la cortesía y ",
      "author": "LUIS URTEAGA",
      "authorLocation": "ESTADOS UNIDOS",
      "dateReview": 1559692800,
      "dateCollected": 1559736725,
      "updatedAt": 1559814063,
      "rating": 4.5,
      "reviewSite": {
          "name": "Revinate Surveys",
          "s3Url": "Falta5"
      },
      "links": [
          {
              "rel": "self",
              "href": "https://porter.revinate.com:443/reviews/647226318"
          },
          {
              "rel": "hotel",
              "href": "https://porter.revinate.com:443/hotels/32245"
          }
      ]
  },
  {
      "title": "Excelente hotel",
      "body": "Un hotel con muy buena ubicación en Miraflores, pero lo mas importante es la cortesía y a",
      "author": "Freedom54549097855",
      "dateReview": 1559692800,
      "dateCollected": 1559797407,
      "updatedAt": 1559797408,
      "rating": 5,
      "reviewSite": {
          "name": "TripAdvisor",
          "s3Url": "https://s3.amazonaws.com/multimediadev.casa-andina.com/images/revinate/review-site/TripAdvisor.png"
      },
      "links": [
          {
              "rel": "self",
              "href": "https://porter.revinate.com:443/reviews/647409001"
          },
          {
              "rel": "hotel",
              "href": "https://porter.revinate.com:443/hotels/32245"
          }
      ]
  },
  {
      "title": "Bueno",
      "body": "Acogedor y bien situado, servicio agradable  y amabilidad.\nPudimos disfrutar poco de los servicios ya que la estancia fue corta, dos pernoctaciones de pocas horas cada una debido la la programación del viaje",
      "author": "FRANCISCO JUAN ROCA",
      "authorLocation": "ESPAÑA",
      "dateReview": 1559520000,
      "dateCollected": 1559561376,
      "updatedAt": 1559641272,
      "rating": 4,
      "reviewSite": {
          "name": "Revinate Surveys",
          "s3Url": "Falta5"
      },
      "links": [
          {
              "rel": "self",
              "href": "https://porter.revinate.com:443/reviews/646631269"
          },
          {
              "rel": "hotel",
              "href": "https://porter.revinate.com:443/hotels/32245"
          }
      ]
  },
  {
      "title": "Premium Service",
      "body": "Tuve en términos general una experiencia excelente en mi estadía. La habitación Imperial no tiene nada que agregar, fabulosa alternativa para esposos que requieran tener un cambio de espacio al de su hogar.",
      "author": "MARK CHRISTHIAN BARRUETA PINTO",
      "authorLocation": "PERU",
      "dateReview": 1559520000,
      "dateCollected": 1559585787,
      "updatedAt": 1559814143,
      "rating": 5,
      "reviewSite": {
          "name": "Revinate Surveys",
          "s3Url": "Falta5"
      },
      "links": [
          {
              "rel": "self",
              "href": "https://porter.revinate.com:443/reviews/646641348"
          },
          {
              "rel": "hotel",
              "href": "https://porter.revinate.com:443/hotels/32245"
          }
      ]
  },
  {
      "title": "Buen lugar",
      "body": "Good: Muy bueno el desayuno, buena ubicación y rica piscina/sauna temperada para días fríos. Servicio del personal muy bueno.\nBad: Baños antiguos, con falta de confort. Habitaciones un poco antiguas y sus artefactos, deberían renovar tv y baños para que tenga el confort de 5 estrellas. A mi gusto tiene el confort de un hotel 4 estrellas.",
      "author": "Catalina",
      "authorLocation": "Chile",
      "dateReview": 1559520000,
      "dateCollected": 1559565563,
      "updatedAt": 1559854893,
      "rating": 3,
      "reviewSite": {
          "name": "Booking.com",
          "s3Url": "https://s3.amazonaws.com/multimediadev.casa-andina.com/images/revinate/review-site/Booking.png"
      },
      "links": [
          {
              "rel": "self",
              "href": "https://porter.revinate.com:443/reviews/646672709"
          },
          {
              "rel": "hotel",
              "href": "https://porter.revinate.com:443/hotels/32245"
          }
      ]
  },
  {
    "title": "Premium Service",
    "body": "Excelente atención, muy buen coffee break, muy cerca del parque Kennedy y buenas salas para eventos.",
    "author": "ALBERTO CARLO CAJAVILCA ORTIZ",
    "dateReview": 1559520000,
    "dateCollected": 1559618180,
    "updatedAt": 1559618182,
    "rating": 5,
    "reviewSite": {
        "name": "Google",
        "s3Url": "Falta2"
    },
    "links": [
        {
            "rel": "self",
            "href": "https://porter.revinate.com:443/reviews/646835846"
        },
        {
            "rel": "hotel",
            "href": "https://porter.revinate.com:443/hotels/32245"
        }
    ]
  },
  {
      "title": "Premium Service",
      "body": "Tuve en términos general una experiencia excelente en mi estadía. La habitación Imperial no tiene nada que agregar, fabulosa alternativa para esposos que requieran tener un cambio de espacio al de su hogar.",
      "author": "Freedom33519311790",
      "dateReview": 1559520000,
      "dateCollected": 1559624948,
      "updatedAt": 1559797408,
      "rating": 5,
      "reviewSite": {
          "name": "TripAdvisor",
          "s3Url": "https://s3.amazonaws.com/multimediadev.casa-andina.com/images/revinate/review-site/TripAdvisor.png"
      },
      "links": [
          {
              "rel": "self",
              "href": "https://porter.revinate.com:443/reviews/646857031"
          },
          {
              "rel": "hotel",
              "href": "https://porter.revinate.com:443/hotels/32245"
          }
      ]
  },
  {
      "title": "Bueno",
      "body": "Acogedor y bien situado, servicio agradable  y amabilidad.\nPudimos disfrutar poco de los servicios ya que la estancia fue corta, dos pernoctaciones de pocas horas cada una debido la la programación del viaje",
      "author": "Departure42737361639",
      "authorLocation": "Barcelona, Spain",
      "dateReview": 1559520000,
      "dateCollected": 1559624948,
      "updatedAt": 1559624949,
      "rating": 4,
      "reviewSite": {
          "name": "TripAdvisor",
          "s3Url": "https://s3.amazonaws.com/multimediadev.casa-andina.com/images/revinate/review-site/TripAdvisor.png"
      },
      "links": [
          {
              "rel": "self",
              "href": "https://porter.revinate.com:443/reviews/646857033"
          },
          {
              "rel": "hotel",
              "href": "https://porter.revinate.com:443/hotels/32245"
          }
      ]
  },
  {
    "title": "Bueno",
    "body": "Me encantó. Muy bien ubicado, cerca de centros comerciales, centros de artesanias y parques. Los desayunos y la comida del hotel muy rica y el personal muy amable.",
    "author": "Ruth Alvarado",
    "dateReview": 1559433600,
    "dateCollected": 1559527220,
    "updatedAt": 1559527220,
    "rating": 5,
    "reviewSite": {
        "name": "Google",
        "s3Url": "Falta2"
    },
    "links": [
        {
            "rel": "self",
            "href": "https://porter.revinate.com:443/reviews/646476830"
        },
        {
            "rel": "hotel",
            "href": "https://porter.revinate.com:443/hotels/32245"
        }
    ]
  },
  {
      "body": "Bonito hotel ubicado en el corazón de Miraflores. Antiguamente funcionaba aquí el famoso hotel Cesar. En sus instalaciones hay salas de reunión muy cómodas y espaciosas que son usadas por empresas privadas y ONGS nacionales y extranjeras. Tuve la oportunidad de grabar una exposición de UNESCO sobre educación donde asistieron representantes del ministerio de educación",
      "author": "Jorge Lopez",
      "dateReview": 1559347200,
      "dateCollected": 1559363065,
      "updatedAt": 1559363065,
      "rating": 5,
      "reviewSite": {
          "name": "Google",
          "s3Url": "Falta2"
      },
      "links": [
          {
              "rel": "self",
              "href": "https://porter.revinate.com:443/reviews/646010260"
          },
          {
              "rel": "hotel",
              "href": "https://porter.revinate.com:443/hotels/32245"
          }
      ]
  },
  {
      "body": "A comparacion de otras ocasiones han bajado en la variedad del bufet, si bien es cierto ahora encuentras, leche de avena,ajonjoli,coco,soya,vaca,almendras unos muss de de verdura verde excelente , han implementado la creacion de tu propio omelet para que te lo preparen, pero extrañe el lomito al jugo, y el chicharroncito, como siempre la atencion excelente. Aproveche la promocion de 2x1 asi que....toda la familia fue 15 personas",
      "author": "Gabriela m",
      "dateReview": 1559347200,
      "dateCollected": 1559449446,
      "updatedAt": 1559449446,
      "rating": 5,
      "reviewSite": {
          "name": "Google",
          "s3Url": "Falta2"
      },
      "links": [
          {
              "rel": "self",
              "href": "https://porter.revinate.com:443/reviews/646251753"
          },
          {
              "rel": "hotel",
              "href": "https://porter.revinate.com:443/hotels/32245"
          }
      ]
  },
  {
      "title": "De 10",
      "body": "Vengo muy a menudo a este hotel y es de 10 en todos los aspectos.\nDestaca por la gran amabilidad de TODOS los empleados, en especial MariSol de room service, una chica muy agradable, atenta, educada y servicial.\nFeliz siempre de volver a este hotel!\n\nCamas muy cómodas, comida espectacular, muy buena ubicación y a destacar siempre el trato recibido por parte del personal del hotel.\n\nMariSol de room service, Kevin de restaurante y Ángel de bar, personas INMEJORABLES!\nGracias! :)",
      "author": "nykitha",
      "authorLocation": "Madrid, Spain",
      "dateReview": 1559260800,
      "dateCollected": 1559352578,
      "updatedAt": 1559352580,
      "rating": 5,
      "reviewSite": {
          "name": "TripAdvisor",
          "s3Url": "https://s3.amazonaws.com/multimediadev.casa-andina.com/images/revinate/review-site/TripAdvisor.png"
      },
      "links": [
          {
              "rel": "self",
              "href": "https://porter.revinate.com:443/reviews/645971127"
          },
          {
              "rel": "hotel",
              "href": "https://porter.revinate.com:443/hotels/32245"
          }
      ]
  },
  {
      "title": "Excelente personal y hotel",
      "body": "Una especial mención a Marisolsin por su gran trabajo en el área de room service. Atenta, servicial y pendiente de la comodidad de los huéspedes en todo momento. Muchas gracias Marisolsin! Nos vemos pronto!",
      "author": "Sandra R",
      "dateReview": 1559260800,
      "dateCollected": 1559352578,
      "updatedAt": 1559352580,
      "rating": 5,
      "reviewSite": {
          "name": "TripAdvisor",
          "s3Url": "https://s3.amazonaws.com/multimediadev.casa-andina.com/images/revinate/review-site/TripAdvisor.png"
      },
      "links": [
          {
              "rel": "self",
              "href": "https://porter.revinate.com:443/reviews/645971128"
          },
          {
              "rel": "hotel",
              "href": "https://porter.revinate.com:443/hotels/32245"
          }
      ]
  },
  {
      "title": "excelente",
      "body": "Es un hotel con muy buena ubicación, instalaciones muy limpias y confortables.\nEl personal muy atento a las necesidades de los huéspedes, los horarios para el desayuno muy buenos y la variedad de estos también, buen surtido y buena calidad.",
      "author": "Roving02519658668",
      "authorLocation": "Cali, Colombia",
      "dateReview": 1559260800,
      "dateCollected": 1559352578,
      "updatedAt": 1559352580,
      "rating": 5,
      "reviewSite": {
          "name": "TripAdvisor",
          "s3Url": "https://s3.amazonaws.com/multimediadev.casa-andina.com/images/revinate/review-site/TripAdvisor.png"
      },
      "links": [
          {
              "rel": "self",
              "href": "https://porter.revinate.com:443/reviews/645971129"
          },
          {
              "rel": "hotel",
              "href": "https://porter.revinate.com:443/hotels/32245"
          }
      ]
  },
  {
      "title": "Opinión hotel",
      "body": "Increíble hotel!! Todo impecable. Habitaciones,instalaciones, personal, desayuno. Todo excelente. Sin duda volvería y lo recomiendo. Muy buena ubicacion con lugares muy lindos para comer por los alrededores.",
      "author": "Destination450025",
      "dateReview": 1559260800,
      "dateCollected": 1559352578,
      "updatedAt": 1559352580,
      "rating": 5,
      "reviewSite": {
          "name": "TripAdvisor",
          "s3Url": "https://s3.amazonaws.com/multimediadev.casa-andina.com/images/revinate/review-site/TripAdvisor.png"
      },
      "links": [
          {
              "rel": "self",
              "href": "https://porter.revinate.com:443/reviews/645971130"
          },
          {
              "rel": "hotel",
              "href": "https://porter.revinate.com:443/hotels/32245"
          }
      ]
  },
  {
      "title": "Excelente atención",
      "body": "Muy buena atención desde que llegamos al hotel. Los desayunos buffet muy completos gran variedad y opciones para todos, todo exquisito!. El único detalle la mala aislación de la habitación, en la noche escuchamos todo lo que conversaban en la habitación de al lado.",
      "author": "Carolina S",
      "authorLocation": "Coyhaique, Chile",
      "dateReview": 1559174400,
      "dateCollected": 1559278005,
      "updatedAt": 1559352580,
      "rating": 4,
      "reviewSite": {
          "name": "TripAdvisor",
          "s3Url": "https://s3.amazonaws.com/multimediadev.casa-andina.com/images/revinate/review-site/TripAdvisor.png"
      },
      "links": [
          {
              "rel": "self",
              "href": "https://porter.revinate.com:443/reviews/645733968"
          },
          {
              "rel": "hotel",
              "href": "https://porter.revinate.com:443/hotels/32245"
          }
      ]
  },
  {
      "title": "Súper agradable",
      "body": "Estuvimos dos días es este hotel al llegar a Perú y al irnos , esta muy bien y la atención fue de lo mejor por parte del botones llamado Josue se preocupó mucho por nosotros cuando nos íbamos ,porque no nos pasaban a buscar ya que teníamos contratado u tour y quería ayudarnos que nos llamaba y a la vuelta estaba él y se alegró mucho de volvernos a ver y que se había preocupado y se alegró de que todo el viaje nos hubiera ido genial ,da gusto encontrarse a gente tan amable y gentil.",
      "author": "F502QXjuliag",
      "dateReview": 1559001600,
      "dateCollected": 1559098969,
      "updatedAt": 1559352580,
      "rating": 5,
      "reviewSite": {
          "name": "TripAdvisor",
          "s3Url": "https://s3.amazonaws.com/multimediadev.casa-andina.com/images/revinate/review-site/TripAdvisor.png"
      },
      "links": [
          {
              "rel": "self",
              "href": "https://porter.revinate.com:443/reviews/645061939"
          },
          {
              "rel": "hotel",
              "href": "https://porter.revinate.com:443/hotels/32245"
          }
      ]
  },
  {
      "title": "Cordialidad",
      "body": "Muy buena estadía , cordialidad en las atenciones , buenas habitaciones y trato muy amable del personal en general. buenos precios y opciones de días y horarios para una estadía muy placentera  buena ubicacion en un barrio tranquilo y con buena movilidad",
      "author": "Curiosity65347957292",
      "dateReview": 1559001600,
      "dateCollected": 1559098969,
      "updatedAt": 1559352580,
      "rating": 5,
      "reviewSite": {
          "name": "TripAdvisor",
          "s3Url": "https://s3.amazonaws.com/multimediadev.casa-andina.com/images/revinate/review-site/TripAdvisor.png"
      },
      "links": [
          {
              "rel": "self",
              "href": "https://porter.revinate.com:443/reviews/645061940"
          },
          {
              "rel": "hotel",
              "href": "https://porter.revinate.com:443/hotels/32245"
          }
      ]
  },
  {
      "title": "Muy buen servicio, la habitación ya parece poco moderna. La tele muy chica. Lo demás muy bien.",
      "body": "Muy buen desayuno, como siempre. La comodidad de la cama, impecable. Poniendome exquisito, las cortinas no son modernas, les da un estilo muy antiguo. La lista de canales de tv es muy corta. Lo demás, excelente.",
      "author": "Wanderer60316974987",
      "authorLocation": "Lima, Peru",
      "dateReview": 1558915200,
      "dateCollected": 1559019785,
      "updatedAt": 1559352580,
      "rating": 4,
      "reviewSite": {
          "name": "TripAdvisor",
          "s3Url": "https://s3.amazonaws.com/multimediadev.casa-andina.com/images/revinate/review-site/TripAdvisor.png"
      },
      "links": [
          {
              "rel": "self",
              "href": "https://porter.revinate.com:443/reviews/644642216"
          },
          {
              "rel": "hotel",
              "href": "https://porter.revinate.com:443/hotels/32245"
          }
      ]
  },
  {
      "title": "Hotel antiguo con buenas instalaciones",
      "body": "Un hotel que aunque sus instalaciones y diseño son de una arquitectura antigua, cumple con todo los standares de ser un hotel bien cuidado, el servicio de primera, buena ubicación. \nDesayuno para todo los gustos, buen restaurant para la cena en caso de que por horario no poder ir a otros lugares a degustar la exquisita gastronomía peruana",
      "author": "XIMENA ELIANA SOTO",
      "authorLocation": "CHILE",
      "dateReview": 1558828800,
      "dateCollected": 1558907586,
      "updatedAt": 1558950017,
      "rating": 5,
      "reviewSite": {
          "name": "Revinate Surveys",
          "s3Url": "Falta5"
      },
      "links": [
          {
              "rel": "self",
              "href": "https://porter.revinate.com:443/reviews/644351797"
          },
          {
              "rel": "hotel",
              "href": "https://porter.revinate.com:443/hotels/32245"
          }
      ]
  },
  {
    "title": "Hotel antiguo con buenas instalaciones",
    "body": "Un hotel que aunque sus instalaciones y diseño son de una arquitectura antigua, cumple con todo los standares de ser un hotel bien cuidado, el servicio de primera, buena ubicación. \nDesayuno para todo los gustos, buen restaurant para la cena en caso de que por horario no poder ir a otros lugares a degustar la exquisita gastronomía peruana",
    "author": "XIMENA ELIANA SOTO",
    "authorLocation": "CHILE",
    "dateReview": 1558828800,
    "dateCollected": 1558907586,
    "updatedAt": 1558950017,
    "rating": 5,
    "reviewSite": {
        "name": "Revinate Surveys",
        "s3Url": "Falta5"
    },
    "links": [
        {
            "rel": "self",
            "href": "https://porter.revinate.com:443/reviews/644351797"
        },
        {
            "rel": "hotel",
            "href": "https://porter.revinate.com:443/hotels/32245"
        }
    ]
  },
  {
    "title": "Hotel antiguo con buenas instalaciones",
    "body": "Un hotel que aunque sus instalaciones y diseño son de una arquitectura antigua, cumple con todo los standares de ser un hotel bien cuidado, el servicio de primera, buena ubicación. \nDesayuno para todo los gustos, buen restaurant para la cena en caso de que por horario no poder ir a otros lugares a degustar la exquisita gastronomía peruana",
    "author": "XIMENA ELIANA SOTO",
    "authorLocation": "CHILE",
    "dateReview": 1558828800,
    "dateCollected": 1558907586,
    "updatedAt": 1558950017,
    "rating": 5,
    "reviewSite": {
        "name": "Revinate Surveys",
        "s3Url": "Falta5"
    },
    "links": [
        {
            "rel": "self",
            "href": "https://porter.revinate.com:443/reviews/644351797"
        },
        {
            "rel": "hotel",
            "href": "https://porter.revinate.com:443/hotels/32245"
        }
    ]
  },
  {
    "title": "Hotel antiguo con buenas instalaciones",
    "body": "Un hotel que aunque sus instalaciones y diseño son de una arquitectura antigua, cumple con todo los standares de ser un hotel bien cuidado, el servicio de primera, buena ubicación. \nDesayuno para todo los gustos, buen restaurant para la cena en caso de que por horario no poder ir a otros lugares a degustar la exquisita gastronomía peruana",
    "author": "XIMENA ELIANA SOTO",
    "authorLocation": "CHILE",
    "dateReview": 1558828800,
    "dateCollected": 1558907586,
    "updatedAt": 1558950017,
    "rating": 5,
    "reviewSite": {
        "name": "Revinate Surveys",
        "s3Url": "Falta5"
    },
    "links": [
        {
            "rel": "self",
            "href": "https://porter.revinate.com:443/reviews/644351797"
        },
        {
            "rel": "hotel",
            "href": "https://porter.revinate.com:443/hotels/32245"
        }
    ]
  },
  {
    "title": "Hotel antiguo con buenas instalaciones",
    "body": "Un hotel que aunque sus instalaciones y diseño son de una arquitectura antigua, cumple con todo los standares de ser un hotel bien cuidado, el servicio de primera, buena ubicación. \nDesayuno para todo los gustos, buen restaurant para la cena en caso de que por horario no poder ir a otros lugares a degustar la exquisita gastronomía peruana",
    "author": "XIMENA ELIANA SOTO",
    "authorLocation": "CHILE",
    "dateReview": 1558828800,
    "dateCollected": 1558907586,
    "updatedAt": 1558950017,
    "rating": 5,
    "reviewSite": {
        "name": "Revinate Surveys",
        "s3Url": "Falta5"
    },
    "links": [
        {
            "rel": "self",
            "href": "https://porter.revinate.com:443/reviews/644351797"
        },
        {
            "rel": "hotel",
            "href": "https://porter.revinate.com:443/hotels/32245"
        }
    ]
  }
]
