{
  "videoModifierClass": "",
  "videoAttributes": "controls",
  "videoSrc": "https://s3.amazonaws.com/multimediadev.casaandina.com/videos/casa-andina.mp4",
  "videoType": "video/mp4",
  "videoNoSupportText": "Tu navegador no tiene soporte para videos HTML5"
}
