{
  "formLogin": [
    {
      "classModifier": "g-login-block",
      "caBrand": [
        {
          "src": "../../images/ca-brand.svg",
          "alt": "Logo CA"
        }
      ],
      "loginForm": [
        {
          "userInput": [
            {
              "classModifier": "g-input-icon",
              "iconClassModifier": "la-user",
              "inputClassModifier": "g-input-error",
              "type": "text",
              "name": "nInputUser",
              "placeHolder": "Usuario"
            }
          ],
          "passwordInput": [
            {
              "classModifier": "g-input-icon",
              "iconClassModifier": "la-eye g-cl-green1",
              "type": "password",
              "name": "nInputPassword",
              "placeHolder": "Contraseña"
            }
          ],
          "switchInput": [
            {
              "className": "g-switch",
              "type": "checkbox",
              "name": "nInputSwitch",
              "labelText": "Recordar usuario"
            }
          ]
        }
      ],
      "text": [
        {
          "tag": "a",
          "modifierClass": "g-fs-15 g-fw-bold",
          "text": "¿Olvidaste la contraseña?"
        }
      ],
      "loginButton": [
        {
          "classModifier": "g-btn-primary g-block",
          "type": "button",
          "textButton": "Ingresar"
        }
      ]
    }
  ]
}
