{
  "bodyClass": "g-modal-open",
  "modifierClass": "sm",
  "modalHeader": [
    {
      "iconClass": "la-close",
      "modalTitle": [
        {
          "tag": "h2",
          "modifierClass": "c-heading-1",
          "text": "Agregar Nuevo Cluster"
        }
      ]
    }
  ],
  "mainNotification": [
    {
      "modifierClass": "g-main-notification-success",
      "icon": [
        {
          "class": "la la-check-circle"
        }
      ],
      "text": [
        {
          "tag": "span",
          "modifierClass": "",
          "text": "Se añadió cluster de forma correcta"
        }
      ]
    }
  ],
  "formGroupInput": [
    {
      "modifierClass": "mb-2",
      "column": [
        {
          "colClass": "col-auto g-w-100",
          "label": [
            {
              "modifierClass": "g-fw-bold",
              "name": "nombreCluster",
              "title": "Cluster:"
            }
          ]
        },
        {
          "colClass": "col",
          "input": [
            {
              "classModifier": "",
              "type": "text",
              "name": "nombreCluster",
              "placeHolder": "América del Sur"
            }
          ]
        }
      ]
    },
    {
      "modifierClass": "mb-2",
      "column": [
        {
          "colClass": "col-auto g-w-100",
          "label": [
            {
              "modifierClass": "g-fw-bold",
              "name": "paises",
              "title": "Países:"
            }
          ]
        },
        {
          "colClass": "col",
          "input": [
            {
              "classModifier": "",
              "type": "text",
              "name": "paises",
              "placeHolder": "Perú"
            }
          ]
        }
      ]
    }
  ],
  "tagsList": [
    {
      "modifierClass": "",
      "tagsListItem": [
        {
          "tagsListItemText": "Colombia",
          "tagslistItemIcon": [
            {
              "class": "la la-close"
            }
          ]
        },
        {
          "tagsListItemText": "Perú",
          "tagslistItemIcon": [
            {
              "class": "la la-close"
            }
          ]
        },
        {
          "tagsListItemText": "Brasil",
          "tagslistItemIcon": [
            {
              "class": "la la-close"
            }
          ]
        },
        {
          "tagsListItemText": "Ecuador",
          "tagslistItemIcon": [
            {
              "class": "la la-close"
            }
          ]
        }
      ]
    }
  ],
  "modalButton": [
    {
      "classModifier": "g-btn-outline g-btn-outline--gray g-btn-with-icon g-btn-icon-left",
      "type": "button",
      "textButton": "Cancelar",
      "classIcon": "la-long-arrow-left"
    },
    {
      "classModifier": "g-btn-primary g-btn-with-icon g-btn-icon-left",
      "type": "button",
      "textButton": "Guardar",
      "classIcon": "la-save"
    }
  ]
}
