{
  "bodyClass": "g-modal-open",
  "modifierClass": "md",
  "modalHeader": [
    {
      "iconClass": "la-close",
      "modalTitle": [
        {
          "tag": "h2",
          "modifierClass": "c-heading-1",
          "text": "Agregar Nueva Sala"
        }
      ]
    }
  ],
  "mainNotification": [
    {
      "modifierClass": "g-main-notification-success",
      "icon": [
        {
          "class": "la la-check-circle"
        }
      ],
      "text": [
        {
          "tag": "span",
          "modifierClass": "",
          "text": "Se añadió sala de forma correcta"
        }
      ]
    }
  ],
  "formGroupSelect": [
    {
      "modifierClass": "mb-2",
      "column": [
        {
          "colClass": "col-auto g-w-80",
          "label": [
            {
              "modifierClass": "g-fw-bold",
              "name": "hotel",
              "title": "Hotel:"
            }
          ]
        },
        {
          "colClass": "col",
          "select": [
            {
              "modifierClass": "",
              "icon": [
                {
                  "class": "la la-angle-down"
                }
              ],
              "nameSelect": "hotel",
              "options": [
                {
                  "value": "",
                  "text": "Seleccionar Hotel o Centro de Convenciones"
                },
                {
                  "value": "",
                  "text": "option 2"
                },
                {
                  "value": "",
                  "text": "option 3"
                }
              ]
            }
          ]
        }
      ]
    }
  ],
  "formGroupInput": [
    {
      "modifierClass": "mb-2",
      "column": [
        {
          "colClass": "col-auto g-w-80",
          "label": [
            {
              "modifierClass": "g-fw-bold",
              "name": "nombreSala",
              "title": "Sala:"
            }
          ]
        },
        {
          "colClass": "col",
          "input": [
            {
              "classModifier": "",
              "type": "text",
              "name": "nombreSala",
              "placeHolder": "Nombre de la Sala"
            }
          ]
        }
      ]
    }
  ],
  "multipleInputs": [
    {
      "col": [
        {
          "colClass": "col-3",
          "formGroupInputInner": [
            {
              "modifierClass": "mb-2",
              "column": [
                {
                  "colClass": "col-auto g-w-80",
                  "label": [
                    {
                      "modifierClass": "g-fw-bold",
                      "name": "area",
                      "title": "M2:"
                    }
                  ]
                },
                {
                  "colClass": "col",
                  "input": [
                    {
                      "classModifier": "mb-0",
                      "type": "text",
                      "name": "area",
                      "placeHolder": "Área (m2)"
                    }
                  ]
                }
              ]
            }
          ]
        },
        {
          "colClass": "col-3",
          "formGroupInputInner": [
            {
              "modifierClass": "mb-2",
              "column": [
                {
                  "colClass": "col-auto g-w-80",
                  "label": [
                    {
                      "modifierClass": "g-fw-bold",
                      "name": "largo",
                      "title": "Largo:"
                    }
                  ]
                },
                {
                  "colClass": "col",
                  "input": [
                    {
                      "classModifier": "mb-0",
                      "type": "text",
                      "name": "largo",
                      "placeHolder": "Largo (m)"
                    }
                  ]
                }
              ]
            }
          ]
        },
        {
          "colClass": "col-3",
          "formGroupInputInner": [
            {
              "modifierClass": "mb-2",
              "column": [
                {
                  "colClass": "col-auto g-w-80",
                  "label": [
                    {
                      "modifierClass": "g-fw-bold",
                      "name": "ancho",
                      "title": "Ancho:"
                    }
                  ]
                },
                {
                  "colClass": "col",
                  "input": [
                    {
                      "classModifier": "mb-0",
                      "type": "text",
                      "name": "ancho",
                      "placeHolder": "Ancho (m)"
                    }
                  ]
                }
              ]
            }
          ]
        },
        {
          "colClass": "col-3",
          "formGroupInputInner": [
            {
              "modifierClass": "mb-2",
              "column": [
                {
                  "colClass": "col-auto g-w-80",
                  "label": [
                    {
                      "modifierClass": "g-fw-bold",
                      "name": "alto",
                      "title": "Alto:"
                    }
                  ]
                },
                {
                  "colClass": "col",
                  "input": [
                    {
                      "classModifier": "mb-0",
                      "type": "text",
                      "name": "alto",
                      "placeHolder": "Alto (m)"
                    }
                  ]
                }
              ]
            }
          ]
        }
      ]
    },
    {
      "col": [
        {
          "colClass": "col-4",
          "formGroupInputInner": [
            {
              "modifierClass": "mb-2",
              "column": [
                {
                  "colClass": "col-auto g-w-80",
                  "label": [
                    {
                      "modifierClass": "g-fw-bold",
                      "name": "teatroAuditorio",
                      "title": "Teatro / Auditorio:"
                    }
                  ]
                },
                {
                  "colClass": "col",
                  "input": [
                    {
                      "classModifier": "mb-0",
                      "type": "text",
                      "name": "teatroAuditorio",
                      "placeHolder": "Aforo"
                    }
                  ]
                }
              ]
            }
          ]
        },
        {
          "colClass": "col-4",
          "formGroupInputInner": [
            {
              "modifierClass": "mb-2",
              "column": [
                {
                  "colClass": "col-auto g-w-80",
                  "label": [
                    {
                      "modifierClass": "g-fw-bold",
                      "name": "escuelaAula",
                      "title": "Escuela / Aula:"
                    }
                  ]
                },
                {
                  "colClass": "col",
                  "input": [
                    {
                      "classModifier": "mb-0",
                      "type": "text",
                      "name": "escuelaAula",
                      "placeHolder": "Aforo"
                    }
                  ]
                }
              ]
            }
          ]
        },
        {
          "colClass": "col-4",
          "formGroupInputInner": [
            {
              "modifierClass": "mb-2",
              "column": [
                {
                  "colClass": "col-auto g-w-80",
                  "label": [
                    {
                      "modifierClass": "g-fw-bold",
                      "name": "cenaBanquete",
                      "title": "Cena / Banquete:"
                    }
                  ]
                },
                {
                  "colClass": "col",
                  "input": [
                    {
                      "classModifier": "mb-0",
                      "type": "text",
                      "name": "cenaBanquete",
                      "placeHolder": "Aforo"
                    }
                  ]
                }
              ]
            }
          ]
        },
        {
          "colClass": "col-4",
          "formGroupInputInner": [
            {
              "modifierClass": "mb-2",
              "column": [
                {
                  "colClass": "col-auto g-w-80",
                  "label": [
                    {
                      "modifierClass": "g-fw-bold",
                      "name": "directorio",
                      "title": "Directorio / 'U':"
                    }
                  ]
                },
                {
                  "colClass": "col",
                  "input": [
                    {
                      "classModifier": "mb-0",
                      "type": "text",
                      "name": "directorio",
                      "placeHolder": "Aforo"
                    }
                  ]
                }
              ]
            }
          ]
        },
        {
          "colClass": "col-4",
          "formGroupInputInner": [
            {
              "modifierClass": "mb-2",
              "column": [
                {
                  "colClass": "col-auto g-w-80",
                  "label": [
                    {
                      "modifierClass": "g-fw-bold",
                      "name": "cocktail",
                      "title": "Cocktail:"
                    }
                  ]
                },
                {
                  "colClass": "col",
                  "input": [
                    {
                      "classModifier": "mb-0",
                      "type": "text",
                      "name": "cocktail",
                      "placeHolder": "Aforo"
                    }
                  ]
                }
              ]
            }
          ]
        }
      ]
    }
  ],
  "modalButton": [
    {
      "classModifier": "g-btn-outline g-btn-outline--gray g-btn-with-icon g-btn-icon-left",
      "type": "button",
      "textButton": "Cancelar",
      "classIcon": "la-long-arrow-left"
    },
    {
      "classModifier": "g-btn-primary g-btn-with-icon g-btn-icon-left",
      "type": "button",
      "textButton": "Guardar",
      "classIcon": "la-save"
    }
  ]
}
