{
  "bodyClass": "g-modal-open",
  "modifierClass": "lg",
  "modalHeader": [
    {
      "iconClass": "la-close",
      "modalTitle": [
        {
          "tag": "h2",
          "modifierClass": "c-heading-1 text-left",
          "text": "Nuevo Archivo"
        }
      ]
    }
  ],
  "mainNotification": [
    {
      "modifierClass": "g-main-notification-danger active",
      "icon": [
        {
          "class": "la la-warning"
        }
      ],
      "text": [
        {
          "tag": "span",
          "modifierClass": "",
          "text": "No se guardo correctamente"
        }
      ]
    }
  ],
  "modifierBodyClass": "pb-0 pr-1-5",
  "uploadImg": false,
  "uploadFile": [
    {
      "filePreviewClass": "",
      "filePreviewIcon": [
        {
          "class": "la la-file-pdf-o"
        }
      ],
      "filePreviewInfo": [
        {
          "tag": "span",
          "modifierClass": "",
          "text": "Nombre-del-archivo.pdf"
        }
      ]
    }
  ],
  "fileInfo": "<strong>Tamaño:</strong> 800x500",
  "imageInfo": [
    {
      "modifierClass": "mb-2",
      "column": [
        {
          "colClass": "col-12",
          "label": [
            {
              "modifierClass": "g-fw-bold",
              "name": "nombre",
              "title": "Nombre:"
            }
          ]
        },
        {
          "colClass": "col-12",
          "input": [
            {
              "classModifier": "",
              "type": "text",
              "name": "nombre",
              "placeHolder": "nombre-de-la-imagen.jpg"
            }
          ]
        }
      ]
    },
    {
      "modifierClass": "mb-2",
      "column": [
        {
          "colClass": "col-12",
          "label": [
            {
              "modifierClass": "g-fw-bold",
              "name": "alt",
              "title": "Título Alternativo:"
            }
          ]
        },
        {
          "colClass": "col-12",
          "input": [
            {
              "classModifier": "",
              "type": "text",
              "name": "alt",
              "placeHolder": ""
            }
          ]
        }
      ]
    },
    {
      "modifierClass": "mb-2",
      "column": [
        {
          "colClass": "col-12",
          "label": [
            {
              "modifierClass": "g-fw-bold",
              "name": "descripcion",
              "title": "Descripción:"
            }
          ]
        },
        {
          "colClass": "col-12",
          "input": [
            {
              "classModifier": "",
              "type": "text",
              "name": "descripcion",
              "placeHolder": ""
            }
          ]
        }
      ]
    }
  ],
  "imageSelectedButtons": [
    {
      "classModifier": "g-btn-primary g-block",
      "type": "button",
      "textButton": "Agregar"
    },
    {
      "classModifier": "g-btn-outline g-btn-outline--gray g-block",
      "type": "button",
      "textButton": "Cancelar"
    }
  ]
}
