{
  "modifierClass": "g-section--padding-60 g-bgc-gray7",
  "title": [
    {
      "tag": "h2",
      "modifierClass": "g-heading",
      "text": "Conoce nuestros restaurantes"
    }
  ],
  "figure": [
    {
      "colClass": "mb-4 mb-md-5",
      "modifierClass": "",
      "imgUrl": "https://placehold.it/920x530",
      "figcaption": [
        {
          "figcaptionClass": "s-figcaption-restaurant s-figcaption-restaurant--lg",
          "borderColor": "style='border-color: #002c55;'",
          "modifierClass": "s-box--big s-box--tr s-background-restaurant",
          "boxContentModifierClass": "pt-0 px-0 pb-4 pt-sm-2 px-sm-4",
          "img": [
            {
              "classModifier": "d-block mb-2",
              "src": "https://placehold.it/180x100",
              "alt": ""
            }
          ],
          "content": [
            {
              "tag": "p",
              "modifierClass": "mb-2",
              "inlineStyle": "",
              "text": "Alma ofrece una carta que combina tradición con los más exquisitos insumos locales en una propuesta moderna. Los huéspedes disfrutarán de un sabroso y variado desayuno buffet con frutas de estación, cereales, selectos jamones, quesos y huevos a su elección. Horario de Atención: 6:00 a.m. a 23:00 hrs."
            },
            {
              "tag": "span",
              "modifierClass": "g-fs-11 g-block",
              "inlineStyle": "",
              "text": "* No está permitido el ingreso de alimentos y bebidas. El descorche de bebidas tiene costo adicional (consultar en el hotel)"
            }
          ],
          "link": [
            {
              "link": "#",
              "modifierClass": "g-link-icon-right mt-3",
              "iconLeft": false,
              "text": "Ver Restaurante",
              "iconRight": [
                {
                  "class": "la la-arrow-right",
                  "inlineStyle": ""
                }
              ]
            }
          ]
        }
      ]
    },
    {
      "colClass": "mb-4 mb-md-5",
      "modifierClass": "s-figure-absolute--invert",
      "imgUrl": "https://placehold.it/920x530",
      "figcaption": [
        {
          "figcaptionClass": "s-figcaption-restaurant s-figcaption-restaurant--lg",
          "borderColor": "style='border-color: #ec082a;'",
          "modifierClass": "s-box--big s-box--tr s-background-restaurant",
          "boxContentModifierClass": "pt-0 px-0 pb-4 pt-sm-2 px-sm-4",
          "img": [
            {
              "classModifier": "d-block mb-2",
              "src": "https://placehold.it/180x100",
              "alt": ""
            }
          ],
          "content": [
            {
              "tag": "p",
              "modifierClass": "mb-2",
              "inlineStyle": "",
              "text": "Alma ofrece una carta que combina tradición con los más exquisitos insumos locales en una propuesta moderna. Los huéspedes disfrutarán de un sabroso y variado desayuno buffet con frutas de estación, cereales, selectos jamones, quesos y huevos a su elección. Horario de Atención: 6:00 a.m. a 23:00 hrs."
            },
            {
              "tag": "span",
              "modifierClass": "g-fs-11 g-block",
              "inlineStyle": "",
              "text": "* No está permitido el ingreso de alimentos y bebidas. El descorche de bebidas tiene costo adicional (consultar en el hotel)"
            }
          ],
          "link": [
            {
              "link": "#",
              "modifierClass": "g-link-icon-right mt-3",
              "iconLeft": false,
              "text": "Ver Restaurante",
              "iconRight": [
                {
                  "class": "la la-arrow-right",
                  "inlineStyle": ""
                }
              ]
            }
          ]
        }
      ]
    },
    {
      "colClass": "",
      "modifierClass": "",
      "imgUrl": "https://placehold.it/920x530",
      "figcaption": [
        {
          "figcaptionClass": "s-figcaption-restaurant s-figcaption-restaurant--lg",
          "borderColor": "style='border-color: #01a236;'",
          "modifierClass": "s-box--big s-box--tr s-background-restaurant",
          "boxContentModifierClass": "pt-0 px-0 pb-4 pt-sm-2 px-sm-4",
          "img": [
            {
              "classModifier": "d-block mb-2",
              "src": "https://placehold.it/180x100",
              "alt": ""
            }
          ],
          "content": [
            {
              "tag": "p",
              "modifierClass": "mb-2",
              "inlineStyle": "",
              "text": "Alma ofrece una carta que combina tradición con los más exquisitos insumos locales en una propuesta moderna. Los huéspedes disfrutarán de un sabroso y variado desayuno buffet con frutas de estación, cereales, selectos jamones, quesos y huevos a su elección. Horario de Atención: 6:00 a.m. a 23:00 hrs."
            },
            {
              "tag": "span",
              "modifierClass": "g-fs-11 g-block",
              "inlineStyle": "",
              "text": "* No está permitido el ingreso de alimentos y bebidas. El descorche de bebidas tiene costo adicional (consultar en el hotel)"
            }
          ],
          "link": [
            {
              "link": "#",
              "modifierClass": "g-link-icon-right mt-3",
              "iconLeft": false,
              "text": "Ver Restaurante",
              "iconRight": [
                {
                  "class": "la la-arrow-right",
                  "inlineStyle": ""
                }
              ]
            }
          ]
        }
      ]
    }
  ]
}
