{
  "modifierClass": "g-section--padding-60 g-bgc-gray7",
  "restaurantInfo": [
    {
      "restaurantLogo": [
        {
          "classModifier": "",
          "src": "https://placehold.it/100x100",
          "alt": ""
        }
      ],
      "text": [
        {
          "tag": "h5",
          "modifierClass": "s-subheading",
          "inlineStyle": "",
          "text": "Casa Andina Premium Miraflores"
        },
        {
          "tag": "h3",
          "modifierClass": "g-heading-rest--alma",
          "inlineStyle": "style='color: #002c55;'",
          "text": "Alma Bar restaurante"
        },
        {
          "tag": "p",
          "modifierClass": "g-text-with-line mb-2",
          "inlineStyle": "",
          "text": "Descubre los sabores de nuestra gastronomía en platos que destacan los insumos locales de nuestras regiones en cada Alma Bar Restaurante.<br><br><strong>Horario de atención:</strong> 6:00 a 23:00 hrs<br><strong>Dirección:</strong> Av. La Paz 463, Miraflores<br><strong>Correo:</strong> alma-lima@casa-andina.com"
        }
      ],
      "logos": [
        {
          "classModifier": "d-iniline-block m-2",
          "src": "https://placehold.it/100x80",
          "alt": ""
        },
        {
          "classModifier": "d-iniline-block m-2",
          "src": "https://placehold.it/100x80",
          "alt": ""
        }
      ],
      "figure": [
        {
          "modifierClass": "s-img-half s-img-bg s-img-bg-2 s-img-bg-sm-3 s-img-bg-md-100",
          "imgUrl": "https://placehold.it/710x440"
        }
      ]
    }
  ]
}
