{
  "classModifier": "g-dropDown--list",
  "listElements": [
    {
      "liClass": "",
      "checkbox": [
        {
          "className": "g-checkbox",
          "type": "checkbox",
          "name": "nInputCheckbox",
          "labelText": "Defaul text"
        }
      ]
    },
    {
      "liClass": "",
      "checkbox": [
        {
          "className": "g-checkbox",
          "type": "checkbox",
          "name": "nInputCheckbox",
          "labelText": "Defaul text"
        }
      ]
    },
    {
      "liClass": "",
      "checkbox": [
        {
          "className": "g-checkbox",
          "type": "checkbox",
          "name": "nInputCheckbox",
          "labelText": "Defaul text"
        }
      ]
    },
    {
      "liClass": "",
      "checkbox": [
        {
          "className": "g-checkbox",
          "type": "checkbox",
          "name": "nInputCheckbox",
          "labelText": "Defaul text"
        }
      ]
    },
    {
      "liClass": "",
      "checkbox": [
        {
          "className": "g-checkbox",
          "type": "checkbox",
          "name": "nInputCheckbox",
          "labelText": "Defaul text"
        }
      ]
    },
    {
      "liClass": "",
      "checkbox": [
        {
          "className": "g-checkbox",
          "type": "checkbox",
          "name": "nInputCheckbox",
          "labelText": "Defaul text"
        }
      ]
    }
  ]
}