{
  "classModifier": "g-dropDown--list",
  "listElements": [
    {
      "liClass": "",
      "url": "#",
      "text": "Casa Andina Premium Arequipa Plaza"
    },
    {
      "liClass": "",
      "url": "#",
      "text": "Casa Andina Premium Chiclayo"
    },
    {
      "liClass": "",
      "url": "#",
      "text": "Casa Andina Premium Miraflores"
    },
    {
      "liClass": "",
      "url": "#",
      "text": "Casa Andina Premium Moquegua"
    },
    {
      "liClass": "",
      "url": "#",
      "text": "Casa Andina Premium Pucallpa"
    },
    {
      "liClass": "",
      "url": "#",
      "text": "Casa Andina Premium Cusco"
    },
    {
      "liClass": "",
      "url": "#",
      "text": "Casa Andina Premium Chiclayo"
    },
    {
      "liClass": "",
      "url": "#",
      "text": "Casa Andina Premium Lima"
    }
  ]
}