{
  "classModifier": "g-input-icon-left",
  "iconClassModifier": "la-search",
  "inputClassModifier": "g-input-invisible",
  "type": "text",
  "name": "nInputSearch",
  "placeHolder": "Buscar página"
}