{
  "classModifier": "g-bgc-white pb-4",
  "table": [
    {
      "modifierClass": "",
      "tableModifierClass": "",
      "tableHead": [
        {
          "tableHeadItem": [
            {
              "tableHeadItemAttribute": "",
              "text": [
                {
                  "tag": "span",
                  "modifierClass": "",
                  "inlineStyle": "",
                  "text": "Salas"
                }
              ]
            },
            {
              "tableHeadItemAttribute": "",
              "iconTable": [
                {
                  "classModifier": "",
                  "icon": [
                    {
                      "class": "caicon-theater",
                      "inlineStyle": ""
                    }
                  ],
                  "text": [
                    {
                      "tag": "span",
                      "modifierClass": "",
                      "inlineStyle": "",
                      "text": "m2"
                    }
                  ]
                }
              ]
            },
            {
              "tableHeadItemAttribute": "",
              "iconTable": [
                {
                  "classModifier": "",
                  "icon": [
                    {
                      "class": "caicon-theater",
                      "inlineStyle": ""
                    }
                  ],
                  "text": [
                    {
                      "tag": "span",
                      "modifierClass": "",
                      "inlineStyle": "",
                      "text": "Largo"
                    }
                  ]
                }
              ]
            },
            {
              "tableHeadItemAttribute": "",
              "iconTable": [
                {
                  "classModifier": "",
                  "icon": [
                    {
                      "class": "caicon-theater",
                      "inlineStyle": ""
                    }
                  ],
                  "text": [
                    {
                      "tag": "span",
                      "modifierClass": "",
                      "inlineStyle": "",
                      "text": "Ancho"
                    }
                  ]
                }
              ]
            },
            {
              "tableHeadItemAttribute": "",
              "iconTable": [
                {
                  "classModifier": "",
                  "icon": [
                    {
                      "class": "caicon-theater",
                      "inlineStyle": ""
                    }
                  ],
                  "text": [
                    {
                      "tag": "span",
                      "modifierClass": "",
                      "inlineStyle": "",
                      "text": "Alto"
                    }
                  ]
                }
              ]
            },
            {
              "tableHeadItemAttribute": "",
              "iconTable": [
                {
                  "classModifier": "",
                  "icon": [
                    {
                      "class": "caicon-theater",
                      "inlineStyle": ""
                    }
                  ],
                  "text": [
                    {
                      "tag": "span",
                      "modifierClass": "",
                      "inlineStyle": "",
                      "text": "Teatro / Auditorio"
                    }
                  ]
                }
              ]
            },
            {
              "tableHeadItemAttribute": "",
              "iconTable": [
                {
                  "classModifier": "",
                  "icon": [
                    {
                      "class": "caicon-theater",
                      "inlineStyle": ""
                    }
                  ],
                  "text": [
                    {
                      "tag": "span",
                      "modifierClass": "",
                      "inlineStyle": "",
                      "text": "Escuela / Aula"
                    }
                  ]
                }
              ]
            },
            {
              "tableHeadItemAttribute": "",
              "iconTable": [
                {
                  "classModifier": "",
                  "icon": [
                    {
                      "class": "caicon-theater",
                      "inlineStyle": ""
                    }
                  ],
                  "text": [
                    {
                      "tag": "span",
                      "modifierClass": "",
                      "inlineStyle": "",
                      "text": "Cena / Banquete"
                    }
                  ]
                }
              ]
            },
            {
              "tableHeadItemAttribute": "",
              "iconTable": [
                {
                  "classModifier": "",
                  "icon": [
                    {
                      "class": "caicon-theater",
                      "inlineStyle": ""
                    }
                  ],
                  "text": [
                    {
                      "tag": "span",
                      "modifierClass": "",
                      "inlineStyle": "",
                      "text": "Directorio / 'U'"
                    }
                  ]
                }
              ]
            },
            {
              "tableHeadItemAttribute": "",
              "iconTable": [
                {
                  "classModifier": "",
                  "icon": [
                    {
                      "class": "caicon-theater",
                      "inlineStyle": ""
                    }
                  ],
                  "text": [
                    {
                      "tag": "span",
                      "modifierClass": "",
                      "inlineStyle": "",
                      "text": "Cocktail"
                    }
                  ]
                }
              ]
            }
          ]
        }
      ],
      "tableBody": [
        {
          "tableBodyRow": [
            {
              "tableBodyRowItem": [
                {
                  "tableBodyRowItemAttibute": "",
                  "text": [
                    {
                      "tag": "span",
                      "modifierClass": "",
                      "inlineStyle": "",
                      "text": "Directorio"
                    }
                  ]
                },
                {
                  "tableBodyRowItemAttibute": "",
                  "text": [
                    {
                      "tag": "span",
                      "modifierClass": "",
                      "inlineStyle": "",
                      "text": "31"
                    }
                  ]
                },
                {
                  "tableBodyRowItemAttibute": "",
                  "text": [
                    {
                      "tag": "span",
                      "modifierClass": "",
                      "inlineStyle": "",
                      "text": "5.5"
                    }
                  ]
                },
                {
                  "tableBodyRowItemAttibute": "",
                  "text": [
                    {
                      "tag": "span",
                      "modifierClass": "",
                      "inlineStyle": "",
                      "text": "5.5"
                    }
                  ]
                },
                {
                  "tableBodyRowItemAttibute": "",
                  "text": [
                    {
                      "tag": "span",
                      "modifierClass": "",
                      "inlineStyle": "",
                      "text": "5.5"
                    }
                  ]
                },
                {
                  "tableBodyRowItemAttibute": "",
                  "text": [
                    {
                      "tag": "span",
                      "modifierClass": "",
                      "inlineStyle": "",
                      "text": "5.5"
                    }
                  ]
                },
                {
                  "tableBodyRowItemAttibute": "",
                  "text": [
                    {
                      "tag": "span",
                      "modifierClass": "",
                      "inlineStyle": "",
                      "text": "5.5"
                    }
                  ]
                },
                {
                  "tableBodyRowItemAttibute": "",
                  "text": [
                    {
                      "tag": "span",
                      "modifierClass": "",
                      "inlineStyle": "",
                      "text": "5.5"
                    }
                  ]
                },
                {
                  "tableBodyRowItemAttibute": "",
                  "text": [
                    {
                      "tag": "span",
                      "modifierClass": "",
                      "inlineStyle": "",
                      "text": "5.5"
                    }
                  ]
                },
                {
                  "tableBodyRowItemAttibute": "",
                  "text": [
                    {
                      "tag": "span",
                      "modifierClass": "",
                      "inlineStyle": "",
                      "text": "5.5"
                    }
                  ]
                }
              ]
            }
          ]
        }
      ]
    }
  ],
  "button": [
    {
      "classModifier": "g-btn-primary g-block",
      "type": "button",
      "inlineStyle": "",
      "textButton": "Cotizar"
    }
  ]
}
