{
  "inputFormClass": "",
  "input": [
    {
      "classModifier": "g-input-invert",
      "type": "text",
      "name": "suscribete",
      "placeHolder": "Ingresa tu email"
    }
  ],
  "button": [
    {
      "classModifier": "g-btn-icon g-btn-primary",
      "type": "button",
      "textButton": "",
      "icon": "<i class='la la-long-arrow-right'></i>"
    }
  ]
}
