{
  "classModifier": "",
  "inputItem": [
    {
      "dateClass": "s-range--from",
      "input": [
        {
          "label": [
            {
              "classModifier": "g-text-uppercase g-text-bold",
              "name": "nFechaInicio",
              "title": "Fecha de Inicio"
            }
          ],
          "classModifier": "g-input-date",
          "icon": [
            {
              "class": "la la-angle-down"
            }
          ],
          "date": [
            {
              "numberDay": 20,
              "month": "May",
              "year": 19,
              "textDay": "Lunes"
            } 
          ]
        }
      ]
    },
    {
      "dateClass": "s-range--to",
      "input": [
        {
          "label": [
            {
              "classModifier": "g-text-uppercase g-text-bold",
              "name": "nFechaFin",
              "title": "Fecha de fin"
            }
          ],
          "classModifier": "g-input-date",
          "icon": [
            {
              "class": "la la-angle-down"
            }
          ],
          "date": [
            {
              "numberDay": 24,
              "month": "May",
              "year": 19,
              "textDay": "Viernes"
            } 
          ]
        }
      ]
    }
  ]
}