{
  "navTabsAndButton": [
    {
      "modifierClass": "",
      "col": [
        {
          "colClass": "col-auto",
          "navTabs": [
            {
              "tab": [
                {
                  "classModifier": "active",
                  "textTab": "General"
                },
                {
                  "classModifier": "",
                  "textTab": "Categorías"
                },
                {
                  "classModifier": "",
                  "textTab": "Monedas"
                },
                {
                  "classModifier": "",
                  "textTab": "Clusters"
                },
                {
                  "classModifier": "",
                  "textTab": "Servicios"
                },
                {
                  "classModifier": "",
                  "textTab": "Etiquetas"
                },
                {
                  "classModifier": "",
                  "textTab": "Beneficios online"
                },
                {
                  "classModifier": "",
                  "textTab": "Notificaciones"
                },
                {
                  "classModifier": "",
                  "textTab": "Salas"
                }
              ]
            }
          ]
        }
      ]
    }
  ],
  "principalTitle": [
    {
      "modifierCLass": "mb-2",
      "col": [
        {
          "colClass": "col-auto",
          "heading": [
            {
              "tag": "h1",
              "modifierClass": "c-heading-title",
              "text": "Configuraciones Generales"
            }
          ]
        }
      ]
    }
  ],
  "componentSection": [
    {
      "modifierClass": "mb-4",
      "componentTitle": [
        {
          "modifierClass": "mb-2",
          "title": [
            {
              "tag": "h3",
              "modifierClass": "g-fs-20 g-text-uppercase mb-0",
              "text": "Identidad del sitio"
            }
          ],
          "button": false
        }
      ],
      "componentFormCard": [
        {
          "componentForm": [
            {
              "modifierClass": "pt-3 pb-3 pl-6 pr-6 g-bgc-white mb-2",
              "row": [
                {
                  "col": [
                    {
                      "colClass": "col-12",
                      "componentFormFloat": [
                        {
                          "row": [
                            {
                              "col": [
                                {
                                  "colClass": "col-6 float-left",
                                  "formGroupInput": [
                                    {
                                      "modifierClass": "mb-2",
                                      "column": [
                                        {
                                          "colClass": "col-auto g-w-100",
                                          "label": [
                                            {
                                              "modifierClass": "g-fw-bold",
                                              "name": "title",
                                              "title": "Título del sitio:"
                                            }
                                          ]
                                        },
                                        {
                                          "colClass": "col",
                                          "input": [
                                            {
                                              "classModifier": "mb-0",
                                              "type": "text",
                                              "name": "title",
                                              "placeHolder": "Hoteles Casa Andina"
                                            }
                                          ]
                                        }
                                      ]
                                    }
                                  ]
                                },
                                {
                                  "colClass": "col-6 float-right",
                                  "browserPreview": [
                                    {
                                      "caption": [
                                        {
                                          "tag": "p",
                                          "modifierClass": "g-fw-bold mb-2",
                                          "text": "Vista de cómo se ve en el browser:"
                                        }
                                      ],
                                      "info": [
                                        {
                                          "tag": "h5",
                                          "modifierClass": "c-browser-preview-title",
                                          "text": "Hoteles Casa Andina"
                                        },
                                        {
                                          "tag": "span",
                                          "modifierClass": "c-browser-preview-link",
                                          "text": "Hoteles Casa Andina"
                                        },
                                        {
                                          "tag": "span",
                                          "modifierClass": "c-browser-preview-description",
                                          "text": "18 destinos y 29 hoteles Casa Andina esperándote con Desayuno Buffet incluido, free Wi-Fi, excelente ubicación y mucho más."
                                        }
                                      ]
                                    }
                                  ]
                                },
                                {
                                  "colClass": "col-6 float-left",
                                  "formGroupTextarea": [
                                    {
                                      "modifierClass": "mb-2",
                                      "column": [
                                        {
                                          "colClass": "col-auto g-w-100",
                                          "label": [
                                            {
                                              "modifierClass": "g-fw-bold mt-1",
                                              "name": "description",
                                              "title": "Breve Descripción:"
                                            }
                                          ]
                                        },
                                        {
                                          "colClass": "col",
                                          "textarea": [
                                            {
                                              "classModifier": "",
                                              "rows": 4,
                                              "placeHolder": "",
                                              "text": "18 destinos y 29 hoteles Casa Andina esperándote con Desayuno Buffet incluido, free Wi-Fi, excelente ubicación y mucho más."
                                            }
                                          ]
                                        }
                                      ]
                                    }
                                  ]
                                }
                              ]
                            }
                          ]
                        }
                      ]
                    }
                  ]
                }
              ]
            },
            {
              "modifierClass": "pt-3 pb-3 pl-6 pr-6 g-bgc-white",
              "row": [
                {
                  "col": [
                    {
                      "colClass": "col-12",
                      "componentFormBlock": [
                        {
                          "row": [
                            {
                              "col": [
                                {
                                  "colClass": "col-6",
                                  "formGroupImg": [
                                    {
                                      "modifierClass": "mb-2",
                                      "column": [
                                        {
                                          "colClass": "col-auto g-w-100",
                                          "label": [
                                            {
                                              "modifierClass": "g-fw-bold",
                                              "name": "icono",
                                              "title": "Ícono del sitio:"
                                            }
                                          ]
                                        },
                                        {
                                          "colClass": "col",
                                          "previewImg": [
                                            {
                                              "modifierClass": "g-img-preview--sm",
                                              "before": [
                                                {
                                                  "infoText": [
                                                    {
                                                      "tag": "h6",
                                                      "modifierClass": "",
                                                      "text": "512x512"
                                                    }
                                                  ],
                                                  "uploadButton": [
                                                    {
                                                      "modifierClass": "",
                                                      "icon": [
                                                        {
                                                          "class": "la la-upload"
                                                        }
                                                      ],
                                                      "text": [
                                                        {
                                                          "tag": "span",
                                                          "modifierClass": "",
                                                          "text": "Subir foto"
                                                        }
                                                      ]
                                                    }
                                                  ]
                                                }
                                              ],
                                              "after": false
                                            }
                                          ],
                                          "infoImg": [
                                            {
                                              "text": [
                                                {
                                                  "tag": "span",
                                                  "modifierClass": "d-block g-fs-14",
                                                  "text": "Los íconos del sitio son los que ves en las pestañas del navegador y barras de favoritos.<br><br> Los íconos del sitio deben ser cuadrados y de al menos <strong>512x512</strong> píxeles."
                                                }
                                              ]
                                            }
                                          ]
                                        }
                                      ]
                                    }
                                  ]
                                },
                                {
                                  "colClass": "col-6",
                                  "browserFavicon": [
                                    {
                                      "favicon": [
                                        {
                                          "imgClass": "",
                                          "src": "https://placehold.it/16x16",
                                          "alt": ""
                                        }
                                      ],
                                      "pageTitle": [
                                        {
                                          "tag": "span",
                                          "modifierClass": "",
                                          "text": "Hoteles Casa Andina"
                                        }
                                      ]
                                    }
                                  ]
                                }
                              ]
                            }
                          ]
                        }
                      ]
                    }
                  ]
                }
              ]
            }
          ],
          "bottomButtons": [
            {
              "modifierClass": "",
              "button": [
                {
                  "classModifier": "g-btn-outline g-btn-outline--gray g-btn-with-icon g-btn-icon-left",
                  "type": "button",
                  "textButton": "Cancelar",
                  "classIcon": "la-long-arrow-left"
                },
                {
                  "classModifier": "g-btn-primary g-btn-with-icon g-btn-icon-left",
                  "type": "button",
                  "textButton": "Guardar Cambios",
                  "classIcon": "la-save"
                }
              ]
            }
          ]
        }
      ]
    },
    {
      "modifierClass": "mb-4",
      "componentTitle": [
        {
          "modifierClass": "mb-2",
          "title": [
            {
              "tag": "h3",
              "modifierClass": "g-fs-20 g-text-uppercase mb-0",
              "text": "Reservas Roiback"
            }
          ],
          "button": false
        }
      ],
      "componentFormCard": [
        {
          "componentForm": [
            {
              "modifierClass": "pt-3 pb-3 pl-6 pr-6 g-bgc-white",
              "row": [
                {
                  "col": [
                    {
                      "colClass": "col-12",
                      "componentFormBlock": [
                        {
                          "row": [
                            {
                              "col": [
                                {
                                  "colClass": "col-12",
                                  "formGroupInput": [
                                    {
                                      "modifierClass": "mb-2",
                                      "column": [
                                        {
                                          "colClass": "col-auto g-w-100",
                                          "label": [
                                            {
                                              "modifierClass": "g-fw-bold",
                                              "name": "reservasEs",
                                              "title": "Reservas Español:"
                                            }
                                          ]
                                        },
                                        {
                                          "colClass": "col",
                                          "input": [
                                            {
                                              "classModifier": "mb-0",
                                              "type": "text",
                                              "name": "reservasEs",
                                              "placeHolder": "reservas.com/casa-andina.com"
                                            }
                                          ]
                                        }
                                      ]
                                    }
                                  ]
                                }
                              ]
                            },
                            {
                              "col": [
                                {
                                  "colClass": "col-12",
                                  "formGroupInput": [
                                    {
                                      "modifierClass": "mb-2",
                                      "column": [
                                        {
                                          "colClass": "col-auto g-w-100",
                                          "label": [
                                            {
                                              "modifierClass": "g-fw-bold",
                                              "name": "reservasEn",
                                              "title": "Reservas Ingles:"
                                            }
                                          ]
                                        },
                                        {
                                          "colClass": "col",
                                          "input": [
                                            {
                                              "classModifier": "mb-0",
                                              "type": "text",
                                              "name": "reservasEn",
                                              "placeHolder": "reservas.com/casa-andina.com"
                                            }
                                          ]
                                        }
                                      ]
                                    }
                                  ]
                                }
                              ]
                            },
                            {
                              "col": [
                                {
                                  "colClass": "col-12",
                                  "formGroupInput": [
                                    {
                                      "modifierClass": "mb-2",
                                      "column": [
                                        {
                                          "colClass": "col-auto g-w-100",
                                          "label": [
                                            {
                                              "modifierClass": "g-fw-bold",
                                              "name": "reservasPt",
                                              "title": "Reservas Portugués:"
                                            }
                                          ]
                                        },
                                        {
                                          "colClass": "col",
                                          "input": [
                                            {
                                              "classModifier": "mb-0",
                                              "type": "text",
                                              "name": "reservasPt",
                                              "placeHolder": "reservas.com/casa-andina.com"
                                            }
                                          ]
                                        }
                                      ]
                                    }
                                  ]
                                }
                              ]
                            }
                          ]
                        }
                      ]
                    }
                  ]
                }
              ]
            }
          ],
          "bottomButtons": [
            {
              "modifierClass": "",
              "button": [
                {
                  "classModifier": "g-btn-outline g-btn-outline--gray g-btn-with-icon g-btn-icon-left",
                  "type": "button",
                  "textButton": "Cancelar",
                  "classIcon": "la-long-arrow-left"
                },
                {
                  "classModifier": "g-btn-primary g-btn-with-icon g-btn-icon-left",
                  "type": "button",
                  "textButton": "Guardar Cambios",
                  "classIcon": "la-save"
                }
              ]
            }
          ]
        }
      ]
    },
    {
      "modifierClass": "mb-4",
      "componentTitle": [
        {
          "modifierClass": "mb-2",
          "title": [
            {
              "tag": "h3",
              "modifierClass": "g-fs-20 g-text-uppercase mb-0",
              "text": "Precio Hotel Roiback"
            }
          ],
          "button": false
        }
      ],
      "componentFormCard": [
        {
          "componentForm": [
            {
              "modifierClass": "pt-3 pb-3 pl-6 pr-6 g-bgc-white",
              "row": [
                {
                  "col": [
                    {
                      "colClass": "col-12",
                      "componentFormBlock": [
                        {
                          "row": [
                            {
                              "col": [
                                {
                                  "colClass": "col-12",
                                  "formGroupInput": [
                                    {
                                      "modifierClass": "mb-2",
                                      "column": [
                                        {
                                          "colClass": "col-auto g-w-100",
                                          "label": [
                                            {
                                              "modifierClass": "g-fw-bold",
                                              "name": "soles",
                                              "title": "Soles:"
                                            }
                                          ]
                                        },
                                        {
                                          "colClass": "col",
                                          "input": [
                                            {
                                              "classModifier": "mb-0",
                                              "type": "text",
                                              "name": "soles",
                                              "placeHolder": "reservas.com/casa-andina.com"
                                            }
                                          ]
                                        }
                                      ]
                                    }
                                  ]
                                }
                              ]
                            },
                            {
                              "col": [
                                {
                                  "colClass": "col-12",
                                  "formGroupInput": [
                                    {
                                      "modifierClass": "mb-2",
                                      "column": [
                                        {
                                          "colClass": "col-auto g-w-100",
                                          "label": [
                                            {
                                              "modifierClass": "g-fw-bold",
                                              "name": "dolares",
                                              "title": "Dólares:"
                                            }
                                          ]
                                        },
                                        {
                                          "colClass": "col",
                                          "input": [
                                            {
                                              "classModifier": "mb-0",
                                              "type": "text",
                                              "name": "dolares",
                                              "placeHolder": "reservas.com/casa-andina.com"
                                            }
                                          ]
                                        }
                                      ]
                                    }
                                  ]
                                }
                              ]
                            },
                            {
                              "col": [
                                {
                                  "colClass": "col-12",
                                  "formGroupInput": [
                                    {
                                      "modifierClass": "mb-2",
                                      "column": [
                                        {
                                          "colClass": "col-auto g-w-100",
                                          "label": [
                                            {
                                              "modifierClass": "g-fw-bold",
                                              "name": "reales",
                                              "title": "Reales:"
                                            }
                                          ]
                                        },
                                        {
                                          "colClass": "col",
                                          "input": [
                                            {
                                              "classModifier": "mb-0",
                                              "type": "text",
                                              "name": "reales",
                                              "placeHolder": "reservas.com/casa-andina.com"
                                            }
                                          ]
                                        }
                                      ]
                                    }
                                  ]
                                }
                              ]
                            }
                          ]
                        }
                      ]
                    }
                  ]
                }
              ]
            }
          ],
          "bottomButtons": [
            {
              "modifierClass": "",
              "button": [
                {
                  "classModifier": "g-btn-outline g-btn-outline--gray g-btn-with-icon g-btn-icon-left",
                  "type": "button",
                  "textButton": "Cancelar",
                  "classIcon": "la-long-arrow-left"
                },
                {
                  "classModifier": "g-btn-primary g-btn-with-icon g-btn-icon-left",
                  "type": "button",
                  "textButton": "Guardar Cambios",
                  "classIcon": "la-save"
                }
              ]
            }
          ]
        }
      ]
    },
    {
      "modifierClass": "mb-4",
      "componentTitle": [
        {
          "modifierClass": "mb-2",
          "title": [
            {
              "tag": "h3",
              "modifierClass": "g-fs-20 g-text-uppercase mb-0",
              "text": "Servicios Revinante"
            }
          ],
          "button": false
        }
      ],
      "componentFormCard": [
        {
          "componentForm": [
            {
              "modifierClass": "pt-3 pb-3 pl-6 pr-6 g-bgc-white",
              "row": [
                {
                  "col": [
                    {
                      "colClass": "col-12",
                      "componentFormBlock": [
                        {
                          "row": [
                            {
                              "col": [
                                {
                                  "colClass": "col-12",
                                  "formGroupInput": [
                                    {
                                      "modifierClass": "mb-2",
                                      "column": [
                                        {
                                          "colClass": "col-auto g-w-100",
                                          "label": [
                                            {
                                              "modifierClass": "g-fw-bold",
                                              "name": "rating",
                                              "title": "Rating:"
                                            }
                                          ]
                                        },
                                        {
                                          "colClass": "col",
                                          "input": [
                                            {
                                              "classModifier": "mb-0",
                                              "type": "text",
                                              "name": "rating",
                                              "placeHolder": "reservas.com/casa-andina.com"
                                            }
                                          ]
                                        }
                                      ]
                                    }
                                  ]
                                }
                              ]
                            },
                            {
                              "col": [
                                {
                                  "colClass": "col-12",
                                  "formGroupInput": [
                                    {
                                      "modifierClass": "mb-2",
                                      "column": [
                                        {
                                          "colClass": "col-auto g-w-100",
                                          "label": [
                                            {
                                              "modifierClass": "g-fw-bold",
                                              "name": "valoracion",
                                              "title": "Valoración:"
                                            }
                                          ]
                                        },
                                        {
                                          "colClass": "col",
                                          "input": [
                                            {
                                              "classModifier": "mb-0",
                                              "type": "text",
                                              "name": "valoracion",
                                              "placeHolder": "reservas.com/casa-andina.com"
                                            }
                                          ]
                                        }
                                      ]
                                    }
                                  ]
                                }
                              ]
                            }
                          ]
                        }
                      ]
                    }
                  ]
                }
              ]
            }
          ],
          "bottomButtons": [
            {
              "modifierClass": "",
              "button": [
                {
                  "classModifier": "g-btn-outline g-btn-outline--gray g-btn-with-icon g-btn-icon-left",
                  "type": "button",
                  "textButton": "Cancelar",
                  "classIcon": "la-long-arrow-left"
                },
                {
                  "classModifier": "g-btn-primary g-btn-with-icon g-btn-icon-left",
                  "type": "button",
                  "textButton": "Guardar Cambios",
                  "classIcon": "la-save"
                }
              ]
            }
          ]
        }
      ]
    },
    {
      "modifierClass": "mb-4",
      "componentTitle": [
        {
          "modifierClass": "mb-2",
          "title": [
            {
              "tag": "h3",
              "modifierClass": "g-fs-20 g-text-uppercase mb-0",
              "text": "Iconos de Métodos de Pago"
            }
          ],
          "button": false
        }
      ],
      "componentFormCard": [
        {
          "componentForm": [
            {
              "modifierClass": "pt-3 pb-3 pl-6 pr-6 g-bgc-white",
              "row": [
                {
                  "col": [
                    {
                      "colClass": "col-12",
                      "componentFormBlock": [
                        {
                          "row": [
                            {
                              "col": [
                                {
                                  "colClass": "col-12",
                                  "formGroupImg": [
                                    {
                                      "modifierClass": "mb-2",
                                      "column": [
                                        {
                                          "colClass": "col-auto g-w-100",
                                          "label": [
                                            {
                                              "modifierClass": "g-fw-bold",
                                              "name": "icono",
                                              "title": "Ícono del sitio:"
                                            }
                                          ]
                                        },
                                        {
                                          "colClass": "col",
                                          "previewImg": [
                                            {
                                              "modifierClass": "g-img-preview--sm",
                                              "before": [
                                                {
                                                  "infoText": [
                                                    {
                                                      "tag": "h6",
                                                      "modifierClass": "",
                                                      "text": "512x512"
                                                    }
                                                  ],
                                                  "uploadButton": [
                                                    {
                                                      "modifierClass": "",
                                                      "icon": [
                                                        {
                                                          "class": "la la-upload"
                                                        }
                                                      ],
                                                      "text": [
                                                        {
                                                          "tag": "span",
                                                          "modifierClass": "",
                                                          "text": "Subir foto"
                                                        }
                                                      ]
                                                    }
                                                  ]
                                                }
                                              ],
                                              "after": false
                                            },
                                            {
                                              "modifierClass": "g-img-preview--sm",
                                              "before": [
                                                {
                                                  "infoText": [
                                                    {
                                                      "tag": "h6",
                                                      "modifierClass": "",
                                                      "text": "512x512"
                                                    }
                                                  ],
                                                  "uploadButton": [
                                                    {
                                                      "modifierClass": "",
                                                      "icon": [
                                                        {
                                                          "class": "la la-upload"
                                                        }
                                                      ],
                                                      "text": [
                                                        {
                                                          "tag": "span",
                                                          "modifierClass": "",
                                                          "text": "Subir foto"
                                                        }
                                                      ]
                                                    }
                                                  ]
                                                }
                                              ],
                                              "after": false
                                            },
                                            {
                                              "modifierClass": "g-img-preview--sm",
                                              "before": [
                                                {
                                                  "infoText": [
                                                    {
                                                      "tag": "h6",
                                                      "modifierClass": "",
                                                      "text": "512x512"
                                                    }
                                                  ],
                                                  "uploadButton": [
                                                    {
                                                      "modifierClass": "",
                                                      "icon": [
                                                        {
                                                          "class": "la la-upload"
                                                        }
                                                      ],
                                                      "text": [
                                                        {
                                                          "tag": "span",
                                                          "modifierClass": "",
                                                          "text": "Subir foto"
                                                        }
                                                      ]
                                                    }
                                                  ]
                                                }
                                              ],
                                              "after": false
                                            },
                                            {
                                              "modifierClass": "g-img-preview--sm",
                                              "before": [
                                                {
                                                  "infoText": [
                                                    {
                                                      "tag": "h6",
                                                      "modifierClass": "",
                                                      "text": "512x512"
                                                    }
                                                  ],
                                                  "uploadButton": [
                                                    {
                                                      "modifierClass": "",
                                                      "icon": [
                                                        {
                                                          "class": "la la-upload"
                                                        }
                                                      ],
                                                      "text": [
                                                        {
                                                          "tag": "span",
                                                          "modifierClass": "",
                                                          "text": "Subir foto"
                                                        }
                                                      ]
                                                    }
                                                  ]
                                                }
                                              ],
                                              "after": false
                                            },
                                            {
                                              "modifierClass": "g-img-preview--sm",
                                              "before": [
                                                {
                                                  "infoText": [
                                                    {
                                                      "tag": "h6",
                                                      "modifierClass": "",
                                                      "text": "512x512"
                                                    }
                                                  ],
                                                  "uploadButton": [
                                                    {
                                                      "modifierClass": "",
                                                      "icon": [
                                                        {
                                                          "class": "la la-upload"
                                                        }
                                                      ],
                                                      "text": [
                                                        {
                                                          "tag": "span",
                                                          "modifierClass": "",
                                                          "text": "Subir foto"
                                                        }
                                                      ]
                                                    }
                                                  ]
                                                }
                                              ],
                                              "after": false
                                            },
                                            {
                                              "modifierClass": "g-img-preview--sm",
                                              "before": [
                                                {
                                                  "infoText": [
                                                    {
                                                      "tag": "h6",
                                                      "modifierClass": "",
                                                      "text": "512x512"
                                                    }
                                                  ],
                                                  "uploadButton": [
                                                    {
                                                      "modifierClass": "",
                                                      "icon": [
                                                        {
                                                          "class": "la la-upload"
                                                        }
                                                      ],
                                                      "text": [
                                                        {
                                                          "tag": "span",
                                                          "modifierClass": "",
                                                          "text": "Subir foto"
                                                        }
                                                      ]
                                                    }
                                                  ]
                                                }
                                              ],
                                              "after": false
                                            },
                                            {
                                              "modifierClass": "g-img-preview--sm",
                                              "before": [
                                                {
                                                  "infoText": [
                                                    {
                                                      "tag": "h6",
                                                      "modifierClass": "",
                                                      "text": "512x512"
                                                    }
                                                  ],
                                                  "uploadButton": [
                                                    {
                                                      "modifierClass": "",
                                                      "icon": [
                                                        {
                                                          "class": "la la-upload"
                                                        }
                                                      ],
                                                      "text": [
                                                        {
                                                          "tag": "span",
                                                          "modifierClass": "",
                                                          "text": "Subir foto"
                                                        }
                                                      ]
                                                    }
                                                  ]
                                                }
                                              ],
                                              "after": false
                                            },
                                            {
                                              "modifierClass": "g-img-preview--sm",
                                              "before": [
                                                {
                                                  "infoText": [
                                                    {
                                                      "tag": "h6",
                                                      "modifierClass": "",
                                                      "text": "512x512"
                                                    }
                                                  ],
                                                  "uploadButton": [
                                                    {
                                                      "modifierClass": "",
                                                      "icon": [
                                                        {
                                                          "class": "la la-upload"
                                                        }
                                                      ],
                                                      "text": [
                                                        {
                                                          "tag": "span",
                                                          "modifierClass": "",
                                                          "text": "Subir foto"
                                                        }
                                                      ]
                                                    }
                                                  ]
                                                }
                                              ],
                                              "after": false
                                            },
                                            {
                                              "modifierClass": "g-img-preview--sm",
                                              "before": [
                                                {
                                                  "infoText": [
                                                    {
                                                      "tag": "h6",
                                                      "modifierClass": "",
                                                      "text": "512x512"
                                                    }
                                                  ],
                                                  "uploadButton": [
                                                    {
                                                      "modifierClass": "",
                                                      "icon": [
                                                        {
                                                          "class": "la la-upload"
                                                        }
                                                      ],
                                                      "text": [
                                                        {
                                                          "tag": "span",
                                                          "modifierClass": "",
                                                          "text": "Subir foto"
                                                        }
                                                      ]
                                                    }
                                                  ]
                                                }
                                              ],
                                              "after": false
                                            }
                                          ],
                                          "infoImg": [
                                            {
                                              "text": [
                                                {
                                                  "tag": "span",
                                                  "modifierClass": "d-block g-fs-14",
                                                  "text": "Esos íconos deberán ser cuadrados y de al menos <strong>16x16</strong> píxeles."
                                                }
                                              ]
                                            }
                                          ]
                                        }
                                      ]
                                    }
                                  ]
                                }
                              ]
                            }
                          ]
                        }
                      ]
                    }
                  ]
                }
              ]
            }
          ],
          "bottomButtons": [
            {
              "modifierClass": "",
              "button": [
                {
                  "classModifier": "g-btn-outline g-btn-outline--gray g-btn-with-icon g-btn-icon-left",
                  "type": "button",
                  "textButton": "Cancelar",
                  "classIcon": "la-long-arrow-left"
                },
                {
                  "classModifier": "g-btn-primary g-btn-with-icon g-btn-icon-left",
                  "type": "button",
                  "textButton": "Guardar Cambios",
                  "classIcon": "la-save"
                }
              ]
            }
          ]
        }
      ]
    },
    {
      "modifierClass": "mb-4",
      "componentTitle": [
        {
          "modifierClass": "mb-2",
          "title": [
            {
              "tag": "h3",
              "modifierClass": "g-fs-20 g-text-uppercase mb-0",
              "text": "Redes Sociales"
            }
          ],
          "button": false
        }
      ],
      "componentFormCard": [
        {
          "componentForm": [
            {
              "modifierClass": "pt-3 pb-3 pl-6 pr-6 g-bgc-white",
              "row": [
                {
                  "col": [
                    {
                      "colClass": "col-12",
                      "componentFormBlock": [
                        {
                          "row": [
                            {
                              "col": [
                                {
                                  "colClass": "col-12",
                                  "formGroupInput": [
                                    {
                                      "modifierClass": "mb-2",
                                      "column": [
                                        {
                                          "colClass": "col-auto g-w-100",
                                          "label": [
                                            {
                                              "modifierClass": "g-fw-bold",
                                              "name": "facebook",
                                              "title": "Facebook:"
                                            }
                                          ]
                                        },
                                        {
                                          "colClass": "col",
                                          "input": [
                                            {
                                              "classModifier": "mb-0",
                                              "type": "text",
                                              "name": "facebook",
                                              "placeHolder": "facebook.com/casa-andina.com"
                                            }
                                          ]
                                        }
                                      ]
                                    }
                                  ]
                                }
                              ]
                            },
                            {
                              "col": [
                                {
                                  "colClass": "col-12",
                                  "formGroupInput": [
                                    {
                                      "modifierClass": "mb-2",
                                      "column": [
                                        {
                                          "colClass": "col-auto g-w-100",
                                          "label": [
                                            {
                                              "modifierClass": "g-fw-bold",
                                              "name": "twitter",
                                              "title": "Twitter:"
                                            }
                                          ]
                                        },
                                        {
                                          "colClass": "col",
                                          "input": [
                                            {
                                              "classModifier": "mb-0",
                                              "type": "text",
                                              "name": "twitter",
                                              "placeHolder": "twitter.com/casa-andina.com"
                                            }
                                          ]
                                        }
                                      ]
                                    }
                                  ]
                                }
                              ]
                            },
                            {
                              "col": [
                                {
                                  "colClass": "col-12",
                                  "formGroupInput": [
                                    {
                                      "modifierClass": "mb-2",
                                      "column": [
                                        {
                                          "colClass": "col-auto g-w-100",
                                          "label": [
                                            {
                                              "modifierClass": "g-fw-bold",
                                              "name": "instagram",
                                              "title": "Instagram:"
                                            }
                                          ]
                                        },
                                        {
                                          "colClass": "col",
                                          "input": [
                                            {
                                              "classModifier": "mb-0",
                                              "type": "text",
                                              "name": "instagram",
                                              "placeHolder": "instagram.com/casa-andina.com"
                                            }
                                          ]
                                        }
                                      ]
                                    }
                                  ]
                                }
                              ]
                            },
                            {
                              "col": [
                                {
                                  "colClass": "col-12",
                                  "formGroupInput": [
                                    {
                                      "modifierClass": "mb-2",
                                      "column": [
                                        {
                                          "colClass": "col-auto g-w-100",
                                          "label": [
                                            {
                                              "modifierClass": "g-fw-bold",
                                              "name": "youtube",
                                              "title": "Youtube:"
                                            }
                                          ]
                                        },
                                        {
                                          "colClass": "col",
                                          "input": [
                                            {
                                              "classModifier": "mb-0",
                                              "type": "text",
                                              "name": "youtube",
                                              "placeHolder": "youtube.com/casa-andina.com"
                                            }
                                          ]
                                        }
                                      ]
                                    }
                                  ]
                                }
                              ]
                            },
                            {
                              "col": [
                                {
                                  "colClass": "col-12",
                                  "formGroupInput": [
                                    {
                                      "modifierClass": "mb-2",
                                      "column": [
                                        {
                                          "colClass": "col-auto g-w-100",
                                          "label": [
                                            {
                                              "modifierClass": "g-fw-bold",
                                              "name": "flicker",
                                              "title": "Flicker:"
                                            }
                                          ]
                                        },
                                        {
                                          "colClass": "col",
                                          "input": [
                                            {
                                              "classModifier": "mb-0",
                                              "type": "text",
                                              "name": "flicker",
                                              "placeHolder": "flicker.com/casa-andina.com"
                                            }
                                          ]
                                        }
                                      ]
                                    }
                                  ]
                                }
                              ]
                            }
                          ]
                        }
                      ]
                    }
                  ]
                }
              ]
            }
          ],
          "bottomButtons": [
            {
              "modifierClass": "",
              "button": [
                {
                  "classModifier": "g-btn-outline g-btn-outline--gray g-btn-with-icon g-btn-icon-left",
                  "type": "button",
                  "textButton": "Cancelar",
                  "classIcon": "la-long-arrow-left"
                },
                {
                  "classModifier": "g-btn-primary g-btn-with-icon g-btn-icon-left",
                  "type": "button",
                  "textButton": "Guardar Cambios",
                  "classIcon": "la-save"
                }
              ]
            }
          ]
        }
      ]
    }
  ]
}
