{
  "modifierClass": "g-section--padding-90 g-bgc-gray1",
  "title": [
    {
      "tag": "h2",
      "modifierClass": "g-heading g-cl-white",
      "text": "Oportunidades para aventurarte"
    }
  ],
  "carousel": [
    {
      "controls": [
        {
          "classControlModifier": "",
          "iconLeftClass": "la-angle-left",
          "iconRightClass": "la-angle-right",
          "startNumber": "01",
          "finalNumber": "03"
        }
      ],
      "carouselItem": [
        {
          "classItemModifier": "carousel-item--lg active",
          "card": [
            {
              "classModifier": "s-card-wrapper--lg",
              "fog": [
                {
                  "classModifier": "",
                  "link": [
                    {
                      "link": "#",
                      "modifierClass": "g-link-icon-right",
                      "iconLeft": false,
                      "text": "Ver promoción",
                      "iconRight": [
                        {
                          "class": "la la-arrow-right"
                        }
                      ]
                    }
                  ],
                  "button": [
                    {
                      "classModifier": "g-btn-primary g-btn-fat g-block mt-2-5",
                      "type": "button",
                      "textButton": "Reservar"
                    }
                  ],
                  "share": [
                    {
                      "classModifier": "mt-2",
                      "text": [
                        {
                          "tag": "span",
                          "modifierClass": " g-text-uppercase",
                          "text": "Compartir:"
                        }
                      ],
                      "nav": [
                        {
                          "items": [
                            {
                              "liClass": "g-nav-item",
                              "link": "#",
                              "iconClass": "la la-facebook-official"
                            },
                            {
                              "liClass": "g-nav-item",
                              "link": "#",
                              "iconClass": "la la-twitter"
                            },
                            {
                              "liClass": "g-nav-item",
                              "link": "#",
                              "iconClass": "la la-instagram"
                            }
                          ]
                        }
                      ]
                    }
                  ]
                }
              ],
              "tag": [
                {
                  "classModifier": "g-tag-type",
                  "inlineStyle": "style='background-color: #ff4200;'",
                  "text": [
                    {
                      "tag": "span",
                      "modifierClass": false,
                      "text": "Standard"
                    }
                  ]
                }
              ],
              "tagSale": false,
              "urlImage": "../../images/bkg-card.jpg",
              "info": [
                {
                  "salePlaceText": [
                    {
                      "tag": "span",
                      "modifierClass": "",
                      "text": "Casa Andina Standard Miraflores San Antonio"
                    }
                  ],
                  "saleInfoText": [
                    {
                      "tag": "p",
                      "modifierClass": "",
                      "text": "Reserva 3 días y te bonificamos el día 4"
                    }
                  ],
                  "experienceInfoText": false
                }
              ]
            }
          ]
        },
        {
          "classItemModifier": "carousel-item--md active",
          "card": [
            {
              "classModifier": "s-card-wrapper--md",
              "fog": [
                {
                  "classModifier": "",
                  "link": [
                    {
                      "link": "#",
                      "modifierClass": "g-link-icon-right",
                      "iconLeft": false,
                      "text": "Ver promoción",
                      "iconRight": [
                        {
                          "class": "la la-arrow-right"
                        }
                      ]
                    }
                  ],
                  "button": [
                    {
                      "classModifier": "g-btn-primary g-btn-fat g-block mt-2-5",
                      "type": "button",
                      "textButton": "Reservar"
                    }
                  ],
                  "share": [
                    {
                      "classModifier": "mt-2",
                      "text": [
                        {
                          "tag": "span",
                          "modifierClass": " g-text-uppercase",
                          "text": "Compartir:"
                        }
                      ],
                      "nav": [
                        {
                          "items": [
                            {
                              "liClass": "g-nav-item",
                              "link": "#",
                              "iconClass": "la la-facebook-official"
                            },
                            {
                              "liClass": "g-nav-item",
                              "link": "#",
                              "iconClass": "la la-twitter"
                            },
                            {
                              "liClass": "g-nav-item",
                              "link": "#",
                              "iconClass": "la la-instagram"
                            }
                          ]
                        }
                      ]
                    }
                  ]
                }
              ],
              "tag": [
                {
                  "classModifier": "g-tag-type",
                  "inlineStyle": "style='background-color: #008eaa;'",
                  "text": [
                    {
                      "tag": "span",
                      "modifierClass": false,
                      "text": "Select"
                    }
                  ]
                }
              ],
              "tagSale": [
                {
                  "classModifier": "g-tag-sale",
                  "text": [
                    {
                      "tag": "p",
                      "modifierClass": "",
                      "text": "<span>%20</span><span>DCTO.</span>"
                    }
                  ]
                }
              ],
              "urlImage": "../../images/bkg-card.jpg",
              "info": [
                {
                  "salePlaceText": [
                    {
                      "tag": "span",
                      "modifierClass": "",
                      "text": "Casa Andina Select Arequipa Plaza"
                    }
                  ],
                  "saleInfoText": [
                    {
                      "tag": "p",
                      "modifierClass": "",
                      "text": "Para reservas por adelantado"
                    }
                  ],
                  "experienceInfoText": false
                }
              ]
            }
          ]
        },
        {
          "classItemModifier": "carousel-item--xs active",
          "card": [
            {
              "classModifier": "s-card-wrapper--xs",
              "fog": [
                {
                  "classModifier": "",
                  "link": [
                    {
                      "link": "#",
                      "modifierClass": "g-link-icon-right",
                      "iconLeft": false,
                      "text": "Ver promoción",
                      "iconRight": [
                        {
                          "class": "la la-arrow-right"
                        }
                      ]
                    }
                  ],
                  "button": [
                    {
                      "classModifier": "g-btn-primary g-btn-fat g-block mt-2-5",
                      "type": "button",
                      "textButton": "Reservar"
                    }
                  ],
                  "share": [
                    {
                      "classModifier": "mt-2",
                      "text": [
                        {
                          "tag": "span",
                          "modifierClass": " g-text-uppercase",
                          "text": "Compartir:"
                        }
                      ],
                      "nav": [
                        {
                          "items": [
                            {
                              "liClass": "g-nav-item",
                              "link": "#",
                              "iconClass": "la la-facebook-official"
                            },
                            {
                              "liClass": "g-nav-item",
                              "link": "#",
                              "iconClass": "la la-twitter"
                            },
                            {
                              "liClass": "g-nav-item",
                              "link": "#",
                              "iconClass": "la la-instagram"
                            }
                          ]
                        }
                      ]
                    }
                  ]
                }
              ],
              "tag": [
                {
                  "classModifier": "g-tag-type",
                  "inlineStyle": "style='background-color: #002855;'",
                  "text": [
                    {
                      "tag": "span",
                      "modifierClass": false,
                      "text": "Premium"
                    }
                  ]
                }
              ],
              "tagSale": false,
              "urlImage": "../../images/bkg-card.jpg",
              "info": [
                {
                  "salePlaceText": [
                    {
                      "tag": "span",
                      "modifierClass": "",
                      "text": "Casa Andina Premium Arequipa"
                    }
                  ],
                  "saleInfoText": [
                    {
                      "tag": "p",
                      "modifierClass": "",
                      "text": "Pucallpa te ofrece un 15% off"
                    }
                  ],
                  "experienceInfoText": false
                }
              ]
            }
          ]
        },
        {
          "classItemModifier": "carousel-item--xs active",
          "card": [
            {
              "classModifier": "s-card-wrapper--xs",
              "fog": [
                {
                  "classModifier": "",
                  "link": [
                    {
                      "link": "#",
                      "modifierClass": "g-link-icon-right",
                      "iconLeft": false,
                      "text": "Ver promoción",
                      "iconRight": [
                        {
                          "class": "la la-arrow-right"
                        }
                      ]
                    }
                  ],
                  "button": [
                    {
                      "classModifier": "g-btn-primary g-btn-fat g-block mt-2-5",
                      "type": "button",
                      "textButton": "Reservar"
                    }
                  ],
                  "share": [
                    {
                      "classModifier": "mt-2",
                      "text": [
                        {
                          "tag": "span",
                          "modifierClass": " g-text-uppercase",
                          "text": "Compartir:"
                        }
                      ],
                      "nav": [
                        {
                          "items": [
                            {
                              "liClass": "g-nav-item",
                              "link": "#",
                              "iconClass": "la la-facebook-official"
                            },
                            {
                              "liClass": "g-nav-item",
                              "link": "#",
                              "iconClass": "la la-twitter"
                            },
                            {
                              "liClass": "g-nav-item",
                              "link": "#",
                              "iconClass": "la la-instagram"
                            }
                          ]
                        }
                      ]
                    }
                  ]
                }
              ],
              "tag": [
                {
                  "classModifier": "g-tag-type",
                  "inlineStyle": "style='background-color: #ff4200;'",
                  "text": [
                    {
                      "tag": "span",
                      "modifierClass": false,
                      "text": "Standard"
                    }
                  ]
                }
              ],
              "tagSale": false,
              "urlImage": "../../images/bkg-card.jpg",
              "info": [
                {
                  "salePlaceText": [
                    {
                      "tag": "span",
                      "modifierClass": "",
                      "text": "Casa Andina Standard Talara"
                    }
                  ],
                  "saleInfoText": [
                    {
                      "tag": "p",
                      "modifierClass": "",
                      "text": "SPA & Gimnasio Libre"
                    }
                  ],
                  "experienceInfoText": false
                }
              ]
            }
          ]
        }
      ]
    }
  ],
  "sectionLink": [
    {
      "link": "#",
      "modifierClass": "g-link-icon-right",
      "iconLeft": false,
      "text": "Más Promociones",
      "iconRight": [
        {
          "class": "la la-arrow-right"
        }
      ]
    }
  ]
}
