{
  "header": [
    {
      "logo": [
        {
          "src": "../../images/ca-brand-white.png",
          "alt": "Logo Casa Andina"
        }
      ],
      "profileInfo": [
        {
          "iconClass": "la la-user",
          "name": "Jose Herrera Nevado",
          "role": "Administrador"
        }
      ],
      "profileLogout": [
        {
          "url": "#",
          "iconClass": "la la-sign-out",
          "text": "Cerrar sesión"
        }
      ]
    }
  ],
  "sidebar": [
    {
      "mainMenu": [
        {
          "itemMenu": [
            {
              "anchor": [
                {
                  "url": "#",
                  "modifierClass": "active",
                  "icon": [
                    {
                      "class": "la la-home"
                    }
                  ],
                  "text": "Home"
                }
              ]
            },
            {
              "anchor": [
                {
                  "url": "#",
                  "modifierClass": "",
                  "icon": [
                    {
                      "class": "la la-list"
                    }
                  ],
                  "text": "Menu"
                }
              ]
            },
            {
              "anchor": [
                {
                  "url": "#",
                  "modifierClass": "",
                  "icon": [
                    {
                      "class": "la la-file-text"
                    }
                  ],
                  "text": "Páginas"
                }
              ]
            },
            {
              "anchor": [
                {
                  "url": "#",
                  "modifierClass": "",
                  "icon": [
                    {
                      "class": "la la-laptop"
                    }
                  ],
                  "text": "Administrar usuarios y roles"
                }
              ]
            },
            {
              "anchor": [
                {
                  "url": "#",
                  "modifierClass": "",
                  "icon": [
                    {
                      "class": "la la-file-code-o"
                    }
                  ],
                  "text": "Páginas Error"
                }
              ]
            },
            {
              "anchor": [
                {
                  "url": "#",
                  "modifierClass": "",
                  "icon": [
                    {
                      "class": "la la-users"
                    }
                  ],
                  "text": "Suscriptores"
                }
              ]
            },
            {
              "anchor": [
                {
                  "url": "#",
                  "modifierClass": "",
                  "icon": [
                    {
                      "class": "la la-tags"
                    }
                  ],
                  "text": "Promociones"
                }
              ]
            },
            {
              "anchor": [
                {
                  "url": "#",
                  "modifierClass": "",
                  "icon": [
                    {
                      "class": "la la-building"
                    }
                  ],
                  "text": "Hoteles"
                }
              ]
            },
            {
              "anchor": [
                {
                  "url": "#",
                  "modifierClass": "",
                  "icon": [
                    {
                      "class": "la la-map-marker"
                    }
                  ],
                  "text": "Destinos"
                }
              ]
            },
            {
              "anchor": [
                {
                  "url": "#",
                  "modifierClass": "",
                  "icon": [
                    {
                      "class": "la la-cutlery"
                    }
                  ],
                  "text": "Restaurantes"
                }
              ]
            },
            {
              "anchor": [
                {
                  "url": "#",
                  "modifierClass": "",
                  "icon": [
                    {
                      "class": "la la-glass"
                    }
                  ],
                  "text": "Eventos"
                }
              ]
            },
            {
              "anchor": [
                {
                  "url": "#",
                  "modifierClass": "",
                  "icon": [
                    {
                      "class": "la la-image"
                    }
                  ],
                  "text": "Multimedia"
                }
              ]
            }
          ]
        }
      ]
    }
  ],
  "mainNotification": [
    {
      "modifierClass": "g-main-notification-success active",
      "icon": [
        {
          "class": "la la-check-circle"
        }
      ],
      "text": [
        {
          "tag": "span",
          "modifierClass": "",
          "text": "Se añadio usuario de manera correcta"
        }
      ]
    }
  ],
  "configuracionGeneralTab": [
    {
      "navTabsAndButton": [
        {
          "modifierClass": "",
          "col": [
            {
              "colClass": "col-auto",
              "navTabs": [
                {
                  "tab": [
                    {
                      "classModifier": "",
                      "textTab": "General"
                    },
                    {
                      "classModifier": "",
                      "textTab": "Categorías"
                    },
                    {
                      "classModifier": "",
                      "textTab": "Monedas"
                    },
                    {
                      "classModifier": "",
                      "textTab": "Clusters"
                    },
                    {
                      "classModifier": "",
                      "textTab": "Servicios"
                    },
                    {
                      "classModifier": "active",
                      "textTab": "Etiquetas"
                    },
                    {
                      "classModifier": "",
                      "textTab": "Beneficios online"
                    },
                    {
                      "classModifier": "",
                      "textTab": "Notificaciones"
                    },
                    {
                      "classModifier": "",
                      "textTab": "Salas"
                    }
                  ]
                }
              ]
            }
          ]
        }
      ],
      "principalTitle": [
        {
          "modifierCLass": "mb-2",
          "col": [
            {
              "colClass": "col-auto",
              "heading": [
                {
                  "tag": "h1",
                  "modifierClass": "c-heading-title",
                  "text": "Configuración de Etiquetas"
                }
              ]
            }
          ]
        }
      ],
      "componentTitle": [
        {
          "modifierClass": "mb-2",
          "title": [
            {
              "tag": "h3",
              "modifierClass": "g-fs-20 g-text-uppercase mb-0",
              "text": "Descriptores"
            }
          ],
          "button": [
            {
              "classModifier": "g-btn-outline g-btn-outline--blue g-btn-with-icon g-btn-icon-left",
              "type": "button",
              "textButton": "Agregar Etiqueta",
              "classIcon": "la-plus-circle"
            }
          ]
        }
      ],
      "pageSummary": [
        {
          "column": [
            {
              "colClass": "col-4",
              "cardPageInfo": [
                {
                  "pageImage": [
                    {
                      "imgClass": "g-img-fluid",
                      "src": "https://placehold.it/100x60",
                      "alt": ""
                    }
                  ],
                  "pageTitle": [
                    {
                      "tag": "h4",
                      "modifierClass": "g-fs-15 mb-0",
                      "text": "Casa Andina Premium"
                    }
                  ]
                }
              ]
            },
            {
              "colClass": "col-3",
              "cardInfo": [
                {
                  "title": "Color",
                  "infoWithColorBox": [
                    {
                      "modifierClass": "",
                      "colorBox": [
                        {
                          "colorBoxBackground": "style='background-color: #002855;'"
                        }
                      ],
                      "text": "#002855"
                    }
                  ]
                }
              ]
            },
            {
              "colClass": "col-2",
              "cardInfo": [
                {
                  "title": "Título",
                  "infoText": [
                    {
                      "tag": "span",
                      "modifierClass": "",
                      "text": "PREMIUM"
                    }
                  ]
                }
              ]
            },
            {
              "colClass": "col-3 text-right",
              "squareBtn": [
                {
                  "type": "button",
                  "classModifier": "",
                  "iconClass": "la la-edit",
                  "text": "Editar"
                },
                {
                  "type": "button",
                  "classModifier": "",
                  "iconClass": "la la-trash",
                  "text": "Eliminar"
                }
              ]
            }
          ]
        },
        {
          "column": [
            {
              "colClass": "col-4",
              "cardPageInfo": [
                {
                  "pageImage": [
                    {
                      "imgClass": "g-img-fluid",
                      "src": "https://placehold.it/100x60",
                      "alt": ""
                    }
                  ],
                  "pageTitle": [
                    {
                      "tag": "h4",
                      "modifierClass": "g-fs-15 mb-0",
                      "text": "Casa Andina Select"
                    }
                  ]
                }
              ]
            },
            {
              "colClass": "col-3",
              "cardInfo": [
                {
                  "title": "Color",
                  "infoWithColorBox": [
                    {
                      "modifierClass": "",
                      "colorBox": [
                        {
                          "colorBoxBackground": "style='background-color: #008eaa;'"
                        }
                      ],
                      "text": "#008eaa"
                    }
                  ]
                }
              ]
            },
            {
              "colClass": "col-2",
              "cardInfo": [
                {
                  "title": "Título",
                  "infoText": [
                    {
                      "tag": "span",
                      "modifierClass": "",
                      "text": "SELECT"
                    }
                  ]
                }
              ]
            },
            {
              "colClass": "col-3 text-right",
              "squareBtn": [
                {
                  "type": "button",
                  "classModifier": "",
                  "iconClass": "la la-edit",
                  "text": "Editar"
                },
                {
                  "type": "button",
                  "classModifier": "",
                  "iconClass": "la la-trash",
                  "text": "Eliminar"
                }
              ]
            }
          ]
        }
      ]
    }
  ]
}
