{
  "header": [
    {
      "logo": [
        {
          "src": "../../images/ca-brand-white.png",
          "alt": "Logo Casa Andina"
        }
      ],
      "profileInfo": [
        {
          "iconClass": "la la-user",
          "name": "Jose Herrera Nevado",
          "role": "Administrador"
        }
      ],
      "profileLogout": [
        {
          "url": "#",
          "iconClass": "la la-sign-out",
          "text": "Cerrar sesión"
        }
      ]
    }
  ],
  "sidebar": [
    {
      "mainMenu": [
        {
          "itemMenu": [
            {
              "anchor": [
                {
                  "url": "#",
                  "modifierClass": "active",
                  "icon": [
                    {
                      "class": "la la-home"
                    }
                  ],
                  "text": "Home"
                }
              ]
            },
            {
              "anchor": [
                {
                  "url": "#",
                  "modifierClass": "",
                  "icon": [
                    {
                      "class": "la la-list"
                    }
                  ],
                  "text": "Menu"
                }
              ]
            },
            {
              "anchor": [
                {
                  "url": "#",
                  "modifierClass": "",
                  "icon": [
                    {
                      "class": "la la-file-text"
                    }
                  ],
                  "text": "Páginas"
                }
              ]
            },
            {
              "anchor": [
                {
                  "url": "#",
                  "modifierClass": "",
                  "icon": [
                    {
                      "class": "la la-laptop"
                    }
                  ],
                  "text": "Administrar usuarios y roles"
                }
              ]
            },
            {
              "anchor": [
                {
                  "url": "#",
                  "modifierClass": "",
                  "icon": [
                    {
                      "class": "la la-file-code-o"
                    }
                  ],
                  "text": "Páginas Error"
                }
              ]
            },
            {
              "anchor": [
                {
                  "url": "#",
                  "modifierClass": "",
                  "icon": [
                    {
                      "class": "la la-users"
                    }
                  ],
                  "text": "Suscriptores"
                }
              ]
            },
            {
              "anchor": [
                {
                  "url": "#",
                  "modifierClass": "",
                  "icon": [
                    {
                      "class": "la la-tags"
                    }
                  ],
                  "text": "Promociones"
                }
              ]
            },
            {
              "anchor": [
                {
                  "url": "#",
                  "modifierClass": "",
                  "icon": [
                    {
                      "class": "la la-building"
                    }
                  ],
                  "text": "Hoteles"
                }
              ]
            },
            {
              "anchor": [
                {
                  "url": "#",
                  "modifierClass": "",
                  "icon": [
                    {
                      "class": "la la-map-marker"
                    }
                  ],
                  "text": "Destinos"
                }
              ]
            },
            {
              "anchor": [
                {
                  "url": "#",
                  "modifierClass": "",
                  "icon": [
                    {
                      "class": "la la-cutlery"
                    }
                  ],
                  "text": "Restaurantes"
                }
              ]
            },
            {
              "anchor": [
                {
                  "url": "#",
                  "modifierClass": "",
                  "icon": [
                    {
                      "class": "la la-glass"
                    }
                  ],
                  "text": "Eventos"
                }
              ]
            },
            {
              "anchor": [
                {
                  "url": "#",
                  "modifierClass": "",
                  "icon": [
                    {
                      "class": "la la-image"
                    }
                  ],
                  "text": "Multimedia"
                }
              ]
            }
          ]
        }
      ]
    }
  ],
  "mainNotification": [
    {
      "modifierClass": "g-main-notification-success active",
      "icon": [
        {
          "class": "la la-check-circle"
        }
      ],
      "text": [
        {
          "tag": "span",
          "modifierClass": "",
          "text": "Se añadio usuario de manera correcta"
        }
      ]
    }
  ],
  "configuracionGeneralTab": [
    {
      "navTabsAndButton": [
        {
          "modifierClass": "",
          "col": [
            {
              "colClass": "col-auto",
              "navTabs": [
                {
                  "tab": [
                    {
                      "classModifier": "",
                      "textTab": "General"
                    },
                    {
                      "classModifier": "",
                      "textTab": "Categorías"
                    },
                    {
                      "classModifier": "",
                      "textTab": "Monedas"
                    },
                    {
                      "classModifier": "",
                      "textTab": "Clusters"
                    },
                    {
                      "classModifier": "",
                      "textTab": "Servicios"
                    },
                    {
                      "classModifier": "",
                      "textTab": "Etiquetas"
                    },
                    {
                      "classModifier": "active",
                      "textTab": "Beneficios online"
                    },
                    {
                      "classModifier": "",
                      "textTab": "Notificaciones"
                    },
                    {
                      "classModifier": "",
                      "textTab": "Salas"
                    }
                  ]
                }
              ]
            }
          ]
        }
      ],
      "principalTitle": [
        {
          "modifierCLass": "mb-2",
          "col": [
            {
              "colClass": "col-auto",
              "heading": [
                {
                  "tag": "h1",
                  "modifierClass": "c-heading-title",
                  "text": "Configuración de Beneficios"
                }
              ]
            }
          ]
        }
      ],
      "componentSection": [
        {
          "modifierClass": "mb-4",
          "componentTitle": false,
          "componentFormCard": [
            {
              "componentForm": [
                {
                  "modifierClass": "pt-3 pb-3 pl-6 pr-6 g-bgc-white mb-2",
                  "row": [
                    {
                      "col": [
                        {
                          "colClass": "col-12",
                          "componentFormBlock": [
                            {
                              "row": [
                                {
                                  "col": [
                                    {
                                      "colClass": "col-6",
                                      "formGroupInput": [
                                        {
                                          "modifierClass": "mb-2",
                                          "column": [
                                            {
                                              "colClass": "col-auto g-w-100",
                                              "label": [
                                                {
                                                  "modifierClass": "g-fw-bold",
                                                  "name": "textoLink",
                                                  "title": "Texto link:"
                                                }
                                              ]
                                            },
                                            {
                                              "colClass": "col",
                                              "input": [
                                                {
                                                  "classModifier": "mb-0",
                                                  "type": "text",
                                                  "name": "textoLink",
                                                  "placeHolder": "Ir a nuestro Blog"
                                                }
                                              ]
                                            }
                                          ]
                                        }
                                      ]
                                    },
                                    {
                                      "colClass": "col-6",
                                      "formGroupSelect": [
                                        {
                                          "modifierClass": "mb-2",
                                          "column": [
                                            {
                                              "colClass": "col-auto g-w-100",
                                              "label": [
                                                {
                                                  "modifierClass": "g-fw-bold",
                                                  "name": "pagina",
                                                  "title": "Página:"
                                                }
                                              ]
                                            },
                                            {
                                              "colClass": "col",
                                              "select": [
                                                {
                                                  "modifierClass": "",
                                                  "icon": [
                                                    {
                                                      "class": "la la-angle-down"
                                                    }
                                                  ],
                                                  "nameSelect": "pagina",
                                                  "options": [
                                                    {
                                                      "value": "",
                                                      "text": "Seleccionar Página"
                                                    },
                                                    {
                                                      "value": "",
                                                      "text": "option 2"
                                                    },
                                                    {
                                                      "value": "",
                                                      "text": "option 3"
                                                    }
                                                  ]
                                                }
                                              ]
                                            }
                                          ]
                                        }
                                      ]
                                    }
                                  ]
                                }
                              ]
                            }
                          ]
                        }
                      ]
                    }
                  ]
                }
              ],
              "componentList": [
                {
                  "item": [
                    {
                      "itemClass": "active",
                      "componentListHeader": [
                        {
                          "text": "Beneficio 1"
                        }
                      ],
                      "componentListBody": [
                        {
                          "row": [
                            {
                              "col": [
                                {
                                  "colClass": "col-6",
                                  "formGroupSelect": [
                                    {
                                      "modifierClass": "mb-2",
                                      "column": [
                                        {
                                          "colClass": "col-auto g-w-100",
                                          "label": [
                                            {
                                              "modifierClass": "g-fw-bold",
                                              "name": "icono",
                                              "title": "Icono:"
                                            }
                                          ]
                                        },
                                        {
                                          "colClass": "col",
                                          "select": [
                                            {
                                              "modifierClass": "",
                                              "icon": [
                                                {
                                                  "class": "la la-angle-down"
                                                }
                                              ],
                                              "nameSelect": "icono",
                                              "options": [
                                                {
                                                  "value": "",
                                                  "text": "Icono 1"
                                                },
                                                {
                                                  "value": "",
                                                  "text": "Icono 2"
                                                },
                                                {
                                                  "value": "",
                                                  "text": "Icono 3"
                                                }
                                              ]
                                            }
                                          ]
                                        }
                                      ]
                                    }
                                  ]
                                },
                                {
                                  "colClass": "col-6",
                                  "formGroupInput": [
                                    {
                                      "modifierClass": "mb-2",
                                      "column": [
                                        {
                                          "colClass": "col-auto g-w-100",
                                          "label": [
                                            {
                                              "modifierClass": "g-fw-bold",
                                              "name": "tituloEs",
                                              "title": "Título ES:"
                                            }
                                          ]
                                        },
                                        {
                                          "colClass": "col",
                                          "input": [
                                            {
                                              "classModifier": "mb-0",
                                              "type": "text",
                                              "name": "tituloEs",
                                              "placeHolder": "10% dcto. en nuestros restaurantes"
                                            }
                                          ]
                                        }
                                      ]
                                    }
                                  ]
                                },
                                {
                                  "colClass": "col-6",
                                  "formGroupInput": [
                                    {
                                      "modifierClass": "mb-2",
                                      "column": [
                                        {
                                          "colClass": "col-auto g-w-100",
                                          "label": [
                                            {
                                              "modifierClass": "g-fw-bold",
                                              "name": "tituloEn",
                                              "title": "Título EN:"
                                            }
                                          ]
                                        },
                                        {
                                          "colClass": "col",
                                          "input": [
                                            {
                                              "classModifier": "mb-0",
                                              "type": "text",
                                              "name": "tituloEn",
                                              "placeHolder": "10% dcto. en nuestros restaurantes"
                                            }
                                          ]
                                        }
                                      ]
                                    }
                                  ]
                                },
                                {
                                  "colClass": "col-6",
                                  "formGroupInput": [
                                    {
                                      "modifierClass": "mb-2",
                                      "column": [
                                        {
                                          "colClass": "col-auto g-w-100",
                                          "label": [
                                            {
                                              "modifierClass": "g-fw-bold",
                                              "name": "tituloPr",
                                              "title": "Título PR:"
                                            }
                                          ]
                                        },
                                        {
                                          "colClass": "col",
                                          "input": [
                                            {
                                              "classModifier": "mb-0",
                                              "type": "text",
                                              "name": "tituloPr",
                                              "placeHolder": "10% dcto. en nuestros restaurantes"
                                            }
                                          ]
                                        }
                                      ]
                                    }
                                  ]
                                }
                              ]
                            }
                          ]
                        }
                      ]
                    },
                    {
                      "itemClass": "",
                      "componentListHeader": [
                        {
                          "text": "Beneficio 2"
                        }
                      ],
                      "componentListBody": false
                    },
                    {
                      "itemClass": "",
                      "componentListHeader": [
                        {
                          "text": "Beneficio 3"
                        }
                      ],
                      "componentListBody": false
                    },
                    {
                      "itemClass": "",
                      "componentListHeader": [
                        {
                          "text": "Beneficio 4"
                        }
                      ],
                      "componentListBody": false
                    },
                    {
                      "itemClass": "",
                      "componentListHeader": [
                        {
                          "text": "Beneficio 5"
                        }
                      ],
                      "componentListBody": false
                    }
                  ]
                }
              ],
              "bottomButtons": [
                {
                  "modifierClass": "",
                  "button": [
                    {
                      "classModifier": "g-btn-outline g-btn-outline--gray g-btn-with-icon g-btn-icon-left",
                      "type": "button",
                      "textButton": "Cancelar",
                      "classIcon": "la-long-arrow-left"
                    },
                    {
                      "classModifier": "g-btn-primary g-btn-with-icon g-btn-icon-left",
                      "type": "button",
                      "textButton": "Guardar Cambios",
                      "classIcon": "la-save"
                    }
                  ]
                }
              ]
            }
          ]
        }
      ]
    }
  ]
}
