{
  "header": [
    {
      "logo": [
        {
          "src": "../../images/ca-brand-white.png",
          "alt": "Logo Casa Andina"
        }
      ],
      "profileInfo": [
        {
          "iconClass": "la la-user",
          "name": "Jose Herrera Nevado",
          "role": "Administrador"
        }
      ],
      "profileLogout": [
        {
          "url": "#",
          "iconClass": "la la-sign-out",
          "text": "Cerrar sesión"
        }
      ]
    }
  ],
  "sidebar": [
    {
      "mainMenu": [
        {
          "itemMenu": [
            {
              "anchor": [
                {
                  "url": "#",
                  "modifierClass": "active",
                  "icon": [
                    {
                      "class": "la la-home"
                    }
                  ],
                  "text": "Home"
                }
              ]
            },
            {
              "anchor": [
                {
                  "url": "#",
                  "modifierClass": "",
                  "icon": [
                    {
                      "class": "la la-list"
                    }
                  ],
                  "text": "Menu"
                }
              ]
            },
            {
              "anchor": [
                {
                  "url": "#",
                  "modifierClass": "",
                  "icon": [
                    {
                      "class": "la la-file-text"
                    }
                  ],
                  "text": "Páginas"
                }
              ]
            },
            {
              "anchor": [
                {
                  "url": "#",
                  "modifierClass": "",
                  "icon": [
                    {
                      "class": "la la-laptop"
                    }
                  ],
                  "text": "Administrar usuarios y roles"
                }
              ]
            },
            {
              "anchor": [
                {
                  "url": "#",
                  "modifierClass": "",
                  "icon": [
                    {
                      "class": "la la-file-code-o"
                    }
                  ],
                  "text": "Páginas Error"
                }
              ]
            },
            {
              "anchor": [
                {
                  "url": "#",
                  "modifierClass": "",
                  "icon": [
                    {
                      "class": "la la-users"
                    }
                  ],
                  "text": "Suscriptores"
                }
              ]
            },
            {
              "anchor": [
                {
                  "url": "#",
                  "modifierClass": "",
                  "icon": [
                    {
                      "class": "la la-tags"
                    }
                  ],
                  "text": "Promociones"
                }
              ]
            },
            {
              "anchor": [
                {
                  "url": "#",
                  "modifierClass": "",
                  "icon": [
                    {
                      "class": "la la-building"
                    }
                  ],
                  "text": "Hoteles"
                }
              ]
            },
            {
              "anchor": [
                {
                  "url": "#",
                  "modifierClass": "",
                  "icon": [
                    {
                      "class": "la la-map-marker"
                    }
                  ],
                  "text": "Destinos"
                }
              ]
            },
            {
              "anchor": [
                {
                  "url": "#",
                  "modifierClass": "",
                  "icon": [
                    {
                      "class": "la la-cutlery"
                    }
                  ],
                  "text": "Restaurantes"
                }
              ]
            },
            {
              "anchor": [
                {
                  "url": "#",
                  "modifierClass": "",
                  "icon": [
                    {
                      "class": "la la-glass"
                    }
                  ],
                  "text": "Eventos"
                }
              ]
            },
            {
              "anchor": [
                {
                  "url": "#",
                  "modifierClass": "",
                  "icon": [
                    {
                      "class": "la la-image"
                    }
                  ],
                  "text": "Multimedia"
                }
              ]
            }
          ]
        }
      ]
    }
  ],
  "mainNotification": [
    {
      "modifierClass": "g-main-notification-success active",
      "icon": [
        {
          "class": "la la-check-circle"
        }
      ],
      "text": [
        {
          "tag": "span",
          "modifierClass": "",
          "text": "Se añadio usuario de manera correcta"
        }
      ]
    }
  ],
  "configuracionGeneralTab": [
    {
      "navTabsAndButton": [
        {
          "modifierClass": "",
          "col": [
            {
              "colClass": "col-auto",
              "navTabs": [
                {
                  "tab": [
                    {
                      "classModifier": "",
                      "textTab": "General"
                    },
                    {
                      "classModifier": "active",
                      "textTab": "Categorías"
                    },
                    {
                      "classModifier": "",
                      "textTab": "Monedas"
                    },
                    {
                      "classModifier": "",
                      "textTab": "Clusters"
                    },
                    {
                      "classModifier": "",
                      "textTab": "Servicios"
                    },
                    {
                      "classModifier": "",
                      "textTab": "Etiquetas"
                    },
                    {
                      "classModifier": "",
                      "textTab": "Beneficios online"
                    },
                    {
                      "classModifier": "",
                      "textTab": "Notificaciones"
                    },
                    {
                      "classModifier": "",
                      "textTab": "Salas"
                    }
                  ]
                }
              ]
            }
          ]
        }
      ],
      "principalTitle": [
        {
          "modifierCLass": "mb-2",
          "col": [
            {
              "colClass": "col-auto",
              "heading": [
                {
                  "tag": "h1",
                  "modifierClass": "c-heading-title",
                  "text": "Configuración de Categorías"
                }
              ]
            }
          ]
        }
      ],
      "componentSection": [
        {
          "modifierClass": "mb-4",
          "componentTitle": [
            {
              "modifierClass": "mb-2",
              "title": [
                {
                  "tag": "h3",
                  "modifierClass": "g-fs-20 g-text-uppercase mb-0",
                  "text": "Categorías"
                }
              ],
              "button": false
            }
          ],
          "componentFormCard": [
            {
              "topButtons": [
                {
                  "modifierClass": "",
                  "button": [
                    {
                      "classModifier": "g-btn-outline g-btn-outline--blue g-btn-icon-left",
                      "type": "button",
                      "textButton": "Agregar Categoría",
                      "classIcon": "la-plus-circle"
                    }
                  ]
                }
              ],
              "componentForm": [
                {
                  "modifierClass": "pt-3 pb-3 pl-6 pr-6 g-bgc-white",
                  "row": [
                    {
                      "col": [
                        {
                          "colClass": "col-12",
                          "componentFormBlock": [
                            {
                              "row": [
                                {
                                  "col": [
                                    {
                                      "colClass": "col-12",
                                      "tagsList": [
                                        {
                                          "modifierClass": "",
                                          "tagsListItem": [
                                            {
                                              "tagsListItemText": "Nuestros Hoteles",
                                              "tagslistItemIcon": [
                                                {
                                                  "class": "la la-close"
                                                }
                                              ]
                                            },
                                            {
                                              "tagsListItemText": "Destinos",
                                              "tagslistItemIcon": [
                                                {
                                                  "class": "la la-close"
                                                }
                                              ]
                                            },
                                            {
                                              "tagsListItemText": "Promociones",
                                              "tagslistItemIcon": [
                                                {
                                                  "class": "la la-close"
                                                }
                                              ]
                                            },
                                            {
                                              "tagsListItemText": "Restaurantes",
                                              "tagslistItemIcon": [
                                                {
                                                  "class": "la la-close"
                                                }
                                              ]
                                            },
                                            {
                                              "tagsListItemText": "Empresas",
                                              "tagslistItemIcon": [
                                                {
                                                  "class": "la la-close"
                                                }
                                              ]
                                            }
                                          ]
                                        }
                                      ]
                                    }
                                  ]
                                }
                              ]
                            }
                          ]
                        }
                      ]
                    }
                  ]
                }
              ]
            }
          ]
        }
      ]
    }
  ]
}
