{
  "classModifier": "g-section--main-banner",
  "tagMainBanner": [
    {
      "classModifier": "g-tag-image d-none d-xl-block",
      "text": false,
      "image": [
        {
          "classModifier": "g-img-fluid",
          "src": "../../images-site/ca-brand-default.png",
          "alt": "Alt default"
        }
      ]
    }
  ],
  "mainBanner": [
    {
      "classModifier": "g-main-banner--detail",
      "bannerItem": [
        {
          "classItemModifier": "active",
          "image": [
            {
              "classModifier": "",
              "backgroundImage": "../../images-site/main-banner.png"
            }
          ],
          "video": false,
          "bannerInfo": [
            {
              "classModifier": "banner-item-inner--left",
              "textBanner": [
                {
                  "tag": "h1",
                  "modifierClass": "g-block",
                  "text": "Destino lleno de matices y sabores<br><span>Lima</span>"
                }
              ],
              "btnBanner": [
                {
                  "btnSingle": false,
                  "btnDropDown": false
                }
              ]
            }
          ]
        },
        {
          "classItemModifier": "",
          "image": [
            {
              "classModifier": "",
              "backgroundImage": "../../images-site/main-banner.png"
            }
          ],
          "video": false,
          "bannerInfo": [
            {
              "classModifier": "",
              "textBanner": [
                {
                  "tag": "h1",
                  "modifierClass": "g-text-uppercase g-block",
                  "text": "Más que un viaje, una experiencia<br><span>memorable</span>"
                }
              ],
              "btnBanner": [
                {
                  "btnSingle": false,
                  "btnDropDown": false
                }
              ]
            }
          ]
        }
      ]
    }
  ]
}
