{
  "modifierClass": "g-bgc-gray7",
  "tabVerMapa": [
    {
      "mapWithDetail": [
        {
          "modifierClass": "",
          "map": [
            {
              "modifierClass": "",
              "img": [
                {
                  "classModifier": "g-img-fluid",
                  "src": "../../images/mapa.svg",
                  "alt": ""
                }
              ],
              "mapItem": [
                {
                  "modifierClass": "s-map-item--tum",
                  "mapLink": [
                    {
                      "modifierClass": "",
                      "icon": [
                        {
                          "class": "caicon-ca",
                          "inlineStyle": "style='color: #008eaa;'"
                        }
                      ]
                    }
                  ],
                  "name": [
                    {
                      "tag": "span",
                      "modifierClass": "",
                      "text": "Tumbes"
                    }
                  ]
                },
                {
                  "modifierClass": "s-map-item--tal",
                  "mapLink": [
                    {
                      "modifierClass": "",
                      "icon": [
                        {
                          "class": "caicon-ca",
                          "inlineStyle": "style='color: #ff4200;'"
                        }
                      ]
                    }
                  ],
                  "name": [
                    {
                      "tag": "span",
                      "modifierClass": "",
                      "text": "Talara"
                    }
                  ]
                },
                {
                  "modifierClass": "s-map-item--piu",
                  "mapLink": [
                    {
                      "modifierClass": "",
                      "icon": [
                        {
                          "class": "caicon-ca",
                          "inlineStyle": "style='color: #ff4200;'"
                        }
                      ]
                    },
                    {
                      "modifierClass": "",
                      "icon": [
                        {
                          "class": "caicon-ca",
                          "inlineStyle": "style='color: #002855;'"
                        }
                      ]
                    }
                  ],
                  "name": [
                    {
                      "tag": "span",
                      "modifierClass": "",
                      "text": "Piura"
                    }
                  ]
                },
                {
                  "modifierClass": "s-map-item--cix",
                  "mapLink": [
                    {
                      "modifierClass": "",
                      "icon": [
                        {
                          "class": "caicon-ca",
                          "inlineStyle": "style='color: #008eaa;'"
                        }
                      ]
                    }
                  ],
                  "name": [
                    {
                      "tag": "span",
                      "modifierClass": "",
                      "text": "Chiclayo"
                    }
                  ]
                },
                {
                  "modifierClass": "s-map-item--tru",
                  "mapLink": [
                    {
                      "modifierClass": "",
                      "icon": [
                        {
                          "class": "caicon-ca",
                          "inlineStyle": "style='color: #ff4200;'"
                        }
                      ]
                    },
                    {
                      "modifierClass": "",
                      "icon": [
                        {
                          "class": "caicon-ca",
                          "inlineStyle": "style='color: #002855;'"
                        }
                      ]
                    }
                  ],
                  "name": [
                    {
                      "tag": "span",
                      "modifierClass": "",
                      "text": "Trujillo"
                    }
                  ]
                },
                {
                  "modifierClass": "s-map-item--puc",
                  "mapLink": [
                    {
                      "modifierClass": "",
                      "icon": [
                        {
                          "class": "caicon-ca",
                          "inlineStyle": "style='color: #008eaa;'"
                        }
                      ]
                    }
                  ],
                  "name": [
                    {
                      "tag": "span",
                      "modifierClass": "",
                      "text": "Pucallpa"
                    }
                  ]
                },
                {
                  "modifierClass": "s-map-item--san",
                  "mapLink": [
                    {
                      "modifierClass": "",
                      "icon": [
                        {
                          "class": "caicon-ca",
                          "inlineStyle": "style='color: #008eaa;'"
                        }
                      ]
                    }
                  ],
                  "name": [
                    {
                      "tag": "span",
                      "modifierClass": "",
                      "text": "San Isidro *"
                    }
                  ]
                },
                {
                  "modifierClass": "s-map-item--mir",
                  "mapLink": [
                    {
                      "modifierClass": "",
                      "icon": [
                        {
                          "class": "caicon-ca",
                          "inlineStyle": "style='color: #ff4200;'"
                        }
                      ]
                    },
                    {
                      "modifierClass": "",
                      "icon": [
                        {
                          "class": "caicon-ca",
                          "inlineStyle": "style='color: #008eaa;'"
                        }
                      ]
                    },
                    {
                      "modifierClass": "active",
                      "icon": [
                        {
                          "class": "caicon-ca",
                          "inlineStyle": "style='color: #002855;'"
                        }
                      ]
                    }
                  ],
                  "name": [
                    {
                      "tag": "span",
                      "modifierClass": "",
                      "text": "Miraflores"
                    }
                  ]
                },
                {
                  "modifierClass": "s-map-item--mac",
                  "mapLink": [
                    {
                      "modifierClass": "",
                      "icon": [
                        {
                          "class": "caicon-ca",
                          "inlineStyle": "style='color: #ff4200;'"
                        }
                      ]
                    }
                  ],
                  "name": [
                    {
                      "tag": "span",
                      "modifierClass": "",
                      "text": "Machu Picchu"
                    }
                  ]
                },
                {
                  "modifierClass": "s-map-item--cus",
                  "mapLink": [
                    {
                      "modifierClass": "",
                      "icon": [
                        {
                          "class": "caicon-ca",
                          "inlineStyle": "style='color: #ff4200;'"
                        }
                      ]
                    },
                    {
                      "modifierClass": "",
                      "icon": [
                        {
                          "class": "caicon-ca",
                          "inlineStyle": "style='color: #002855;'"
                        }
                      ]
                    }
                  ],
                  "name": [
                    {
                      "tag": "span",
                      "modifierClass": "",
                      "text": "Cusco"
                    }
                  ]
                },
                {
                  "modifierClass": "s-map-item--chi",
                  "mapLink": [
                    {
                      "modifierClass": "",
                      "icon": [
                        {
                          "class": "caicon-ca",
                          "inlineStyle": "style='color: #ff4200;'"
                        }
                      ]
                    }
                  ],
                  "name": [
                    {
                      "tag": "span",
                      "modifierClass": "",
                      "text": "Chincha"
                    }
                  ]
                },
                {
                  "modifierClass": "s-map-item--val",
                  "mapLink": [
                    {
                      "modifierClass": "",
                      "icon": [
                        {
                          "class": "caicon-ca",
                          "inlineStyle": "style='color: #002855;'"
                        }
                      ]
                    }
                  ],
                  "name": [
                    {
                      "tag": "span",
                      "modifierClass": "",
                      "text": "Valle Sagrado"
                    }
                  ]
                },
                {
                  "modifierClass": "s-map-item--pun",
                  "mapLink": [
                    {
                      "modifierClass": "",
                      "icon": [
                        {
                          "class": "caicon-ca",
                          "inlineStyle": "style='color: #ff4200;'"
                        }
                      ]
                    },
                    {
                      "modifierClass": "",
                      "icon": [
                        {
                          "class": "caicon-ca",
                          "inlineStyle": "style='color: #002855;'"
                        }
                      ]
                    }
                  ],
                  "name": [
                    {
                      "tag": "span",
                      "modifierClass": "",
                      "text": "Puno"
                    }
                  ]
                },
                {
                  "modifierClass": "s-map-item--col",
                  "mapLink": [
                    {
                      "modifierClass": "",
                      "icon": [
                        {
                          "class": "caicon-ca",
                          "inlineStyle": "style='color: #ff4200;'"
                        }
                      ]
                    }
                  ],
                  "name": [
                    {
                      "tag": "span",
                      "modifierClass": "",
                      "text": "Colca"
                    }
                  ]
                },
                {
                  "modifierClass": "s-map-item--aqp",
                  "mapLink": [
                    {
                      "modifierClass": "",
                      "icon": [
                        {
                          "class": "caicon-ca",
                          "inlineStyle": "style='color: #ff4200;'"
                        }
                      ]
                    },
                    {
                      "modifierClass": "",
                      "icon": [
                        {
                          "class": "caicon-ca",
                          "inlineStyle": "style='color: #008eaa;'"
                        }
                      ]
                    },
                    {
                      "modifierClass": "",
                      "icon": [
                        {
                          "class": "caicon-ca",
                          "inlineStyle": "style='color: #002855;'"
                        }
                      ]
                    }
                  ],
                  "name": [
                    {
                      "tag": "span",
                      "modifierClass": "",
                      "text": "Arequipa"
                    }
                  ]
                },
                {
                  "modifierClass": "s-map-item--moq",
                  "mapLink": [
                    {
                      "modifierClass": "",
                      "icon": [
                        {
                          "class": "caicon-ca",
                          "inlineStyle": "style='color: #008eaa;'"
                        }
                      ]
                    }
                  ],
                  "name": [
                    {
                      "tag": "span",
                      "modifierClass": "",
                      "text": "Moquegua"
                    }
                  ]
                },
                {
                  "modifierClass": "s-map-item--tac",
                  "mapLink": [
                    {
                      "modifierClass": "",
                      "icon": [
                        {
                          "class": "caicon-ca",
                          "inlineStyle": "style='color: #008eaa;'"
                        }
                      ]
                    }
                  ],
                  "name": [
                    {
                      "tag": "span",
                      "modifierClass": "",
                      "text": "Tacna"
                    }
                  ]
                }
              ]
            }
          ],
          "mapDetail": [
            {
              "modifierClass": "",
              "title": [
                {
                  "tag": "h2",
                  "modifierClass": "g-heading",
                  "text": "Directorio de hoteles Casa Andina"
                }
              ],
              "text": [
                {
                  "tag": "p",
                  "modifierClass": "g-fs-15 g-fs-md-18 g-fw-light mb-2",
                  "text": "Para facilitar tu búsqueda, selecciona el destino de tu interés."
                }
              ]
            }
          ]
        }
      ]
    }
  ]
}
