{
  "row": [
    {
      "col": [
        {
          "colClass": "col-12",
          "headingText": [
            {
              "tag": "h5",
              "modifierClass": "g-fs-18",
              "text": "Foto de fondo"
            }
          ]
        }
      ]
    },
    {
      "col": [
        {
          "colClass": "col-6 float-left",
          "previewImg": [
            {
              "modifierClass": "g-img-preview--lg",
              "before": [
                {
                  "infoText": [
                    {
                      "tag": "h6",
                      "modifierClass": "",
                      "text": "500x500"
                    }
                  ],
                  "uploadButton": [
                    {
                      "modifierClass": "",
                      "icon": [
                        {
                          "class": "la la-upload"
                        }
                      ],
                      "text": [
                        {
                          "tag": "span",
                          "modifierClass": "",
                          "text": "Subir foto"
                        }
                      ]
                    }
                  ],
                  "indicatorSlider": [
                    {
                      "modifierClass": "",
                      "wrapperModifierClass": "",
                      "item": [
                        {
                          "itemModifierClass": "lg active"
                        },
                        {
                          "itemModifierClass": "md"
                        },
                        {
                          "itemModifierClass": "xs"
                        },
                        {
                          "itemModifierClass": "xs"
                        }
                      ]
                    }
                  ]
                }
              ],
              "after": false
            }
          ]
        },
        {
          "colClass": "col-6 float-left",
          "headingText": [
            {
              "tag": "h5",
              "modifierClass": "g-fs-18",
              "text": "Elegir promociones"
            }
          ]
        },
        {
          "colClass": "col-6 float-left",
          "checkbox": [
            {
              "className": "g-radio mb-2 mr-3",
              "type": "radio",
              "name": "eligePromo",
              "labelText": "Campaña"
            },
            {
              "className": "g-radio mb-2 mr-3",
              "type": "radio",
              "name": "eligePromo",
              "labelText": "Hoteles"
            },
            {
              "className": "g-radio mb-2 mr-3",
              "type": "radio",
              "name": "eligePromo",
              "labelText": "Restaurantes"
            }
          ]
        },
        {
          "colClass": "col-6 float-left",
          "formGroupSelect": [
            {
              "modifierClass": "mb-2",
              "column": [
                {
                  "colClass": "col-auto g-w-100",
                  "label": [
                    {
                      "modifierClass": "g-fw-bold g-fs-15",
                      "name": "elegirDescriptor",
                      "title": "Elegir Descriptor"
                    }
                  ]
                },
                {
                  "colClass": "col",
                  "select": [
                    {
                      "modifierClass": "",
                      "icon": [
                        {
                          "class": "la la-angle-down"
                        }
                      ],
                      "nameSelect": "elegirDescriptor",
                      "options": [
                        {
                          "value": "",
                          "text": "Standard"
                        },
                        {
                          "value": "",
                          "text": "Select"
                        },
                        {
                          "value": "",
                          "text": "Premium"
                        }
                      ]
                    }
                  ]
                }
              ]
            }
          ]
        },
        {
          "colClass": "col-6 float-left",
          "formGroupSelect": [
            {
              "modifierClass": "mb-2",
              "column": [
                {
                  "colClass": "col-auto g-w-100",
                  "label": [
                    {
                      "modifierClass": "g-fw-bold g-fs-15",
                      "name": "elegirPromocion",
                      "title": "Elegir Promociones"
                    }
                  ]
                },
                {
                  "colClass": "col",
                  "select": [
                    {
                      "modifierClass": "",
                      "icon": [
                        {
                          "class": "la la-angle-down"
                        }
                      ],
                      "nameSelect": "elegirPromocion",
                      "options": [
                        {
                          "value": "",
                          "text": "Opción 1"
                        },
                        {
                          "value": "",
                          "text": "Opción 2"
                        },
                        {
                          "value": "",
                          "text": "Opción 3"
                        }
                      ]
                    }
                  ]
                }
              ]
            }
          ]
        }
      ]
    }
  ]
}
