{
  "item": [
    {
      "itemClass": "active",
      "componentListHeader": [
        {
          "text": "Banner 1"
        }
      ],
      "componentListBody": [
        {
          "row": [
            {
              "col": [
                {
                  "colClass": "col-12",
                  "formGroupInput": [
                    {
                      "modifierClass": "mb-2",
                      "column": [
                        {
                          "colClass": "col-auto g-w-100",
                          "label": [
                            {
                              "modifierClass": "g-fw-bold g-fs-15",
                              "name": "description",
                              "title": "Descripción:"
                            }
                          ]
                        },
                        {
                          "colClass": "col",
                          "input": [
                            {
                              "classModifier": "mb-0",
                              "type": "text",
                              "name": "description",
                              "placeHolder": "Ingresa aquí el contenido"
                            }
                          ]
                        }
                      ]
                    }
                  ]
                }
              ]
            },
            {
              "col": [
                {
                  "colClass": "col-6",
                  "formGroupInput": [
                    {
                      "modifierClass": "mb-2",
                      "column": [
                        {
                          "colClass": "col-auto g-w-100",
                          "label": [
                            {
                              "modifierClass": "g-fw-bold g-fs-15",
                              "name": "description",
                              "title": "Descripción:"
                            }
                          ]
                        },
                        {
                          "colClass": "col",
                          "input": [
                            {
                              "classModifier": "mb-0",
                              "type": "text",
                              "name": "description",
                              "placeHolder": "Ingresa aquí el contenido"
                            }
                          ]
                        },
                        {
                          "colClass": "col-12",
                          "text": [
                            {
                              "tag": "span",
                              "modifierClass": "g-fs-12 d-block mt-1 text-right",
                              "text": "(8/15 caracteres máx.)."
                            }
                          ]
                        }
                      ]
                    }
                  ]
                },
                {
                  "colClass": "col-6",
                  "formGroupInput": [
                    {
                      "modifierClass": "mb-1",
                      "column": [
                        {
                          "colClass": "col-auto g-w-100",
                          "label": [
                            {
                              "modifierClass": "g-fw-bold g-fs-15",
                              "name": "description",
                              "title": "Descripción:"
                            }
                          ]
                        },
                        {
                          "colClass": "col",
                          "input": [
                            {
                              "classModifier": "mb-0",
                              "type": "text",
                              "name": "description",
                              "placeHolder": "Ingresa aquí el contenido"
                            }
                          ]
                        }
                      ]
                    }
                  ]
                }
              ]
            },
            {
              "col": [
                {
                  "colClass": "col-6",
                  "formGroupInput": [
                    {
                      "modifierClass": "mb-2",
                      "column": [
                        {
                          "colClass": "col-auto g-w-100",
                          "label": [
                            {
                              "modifierClass": "g-fw-bold g-fs-15",
                              "name": "description",
                              "title": "Descripción:"
                            }
                          ]
                        },
                        {
                          "colClass": "col",
                          "input": [
                            {
                              "classModifier": "mb-0",
                              "type": "text",
                              "name": "description",
                              "placeHolder": "Ingresa aquí el contenido"
                            }
                          ]
                        }
                      ]
                    }
                  ]
                },
                {
                  "colClass": "col-6",
                  "formGroupInput": [
                    {
                      "modifierClass": "mb-1",
                      "column": [
                        {
                          "colClass": "col-auto g-w-100",
                          "label": [
                            {
                              "modifierClass": "g-fw-bold g-fs-15",
                              "name": "description",
                              "title": "Descripción:"
                            }
                          ]
                        },
                        {
                          "colClass": "col",
                          "input": [
                            {
                              "classModifier": "mb-0",
                              "type": "text",
                              "name": "description",
                              "placeHolder": "Ingresa aquí el contenido"
                            }
                          ]
                        }
                      ]
                    }
                  ]
                }
              ]
            },
            {
              "col": [
                {
                  "colClass": "col-12",
                  "checkbox": [
                    {
                      "className": "g-checkbox mb-2",
                      "type": "checkbox",
                      "name": "addbtn",
                      "labelText": "Agregar boton"
                    }
                  ]
                }
              ]
            },
            {
              "col": [
                {
                  "colClass": "col-12",
                  "divider": [
                    {
                      "modifierClass": "mt-1 mb-2"
                    }
                  ]
                }
              ]
            },
            {
              "col": [
                {
                  "colClass": "col-12",
                  "formGroupSelect": [
                    {
                      "modifierClass": "mb-2",
                      "column": [
                        {
                          "colClass": "col-auto g-w-100",
                          "label": [
                            {
                              "modifierClass": "g-fw-bold g-fs-15",
                              "name": "Categoría",
                              "title": "Categoría:"
                            }
                          ]
                        },
                        {
                          "colClass": "col",
                          "select": [
                            {
                              "modifierClass": "mb-0",
                              "option": [
                                {
                                  "optionText": "option 1"
                                },
                                {
                                  "optionText": "option 2"
                                },
                                {
                                  "optionText": "option 3"
                                }
                              ]
                            }
                          ]
                        }
                      ]
                    }
                  ]
                }
              ]
            },
            {
              "col": [
                {
                  "colClass": "col-12",
                  "formGroupAlign": [
                    {
                      "modifierClass": "mb-2",
                      "column": [
                        {
                          "colClass": "col-auto g-w-100",
                          "label": [
                            {
                              "modifierClass": "g-fw-bold g-fs-15",
                              "name": "description",
                              "title": "Estilo:"
                            }
                          ]
                        },
                        {
                          "colClass": "col",
                          "alignButtons": [
                            {
                              "buttons": [
                                {
                                  "name": "align",
                                  "iconClass": "la-align-left"
                                },
                                {
                                  "name": "align",
                                  "iconClass": "la-align-center"
                                },
                                {
                                  "name": "align",
                                  "iconClass": "la-align-right"
                                }
                              ]
                            }
                          ]
                        }
                      ]
                    }
                  ]
                }
              ]
            },
            {
              "col": [
                {
                  "colClass": "col-12",
                  "formGroupImg": [
                    {
                      "modifierClass": "mb-2",
                      "column": [
                        {
                          "colClass": "col-auto g-w-100",
                          "label": [
                            {
                              "modifierClass": "g-fw-bold g-fs-15",
                              "name": "description",
                              "title": "Foto fondo:"
                            }
                          ]
                        },
                        {
                          "colClass": "col",
                          "previewImg": [
                            {
                              "modifierClass": "",
                              "before": [
                                {
                                  "icon": [
                                    {
                                      "class": "la la-cloud-upload"
                                    }
                                  ],
                                  "text": [
                                    {
                                      "tag": "span",
                                      "modifierClass": "",
                                      "text": "Subir foto"
                                    }
                                  ]
                                }
                              ],
                              "after": false
                            }
                          ],
                          "infoImg": [
                            {
                              "text": [
                                {
                                  "tag": "span",
                                  "modifierClass": "d-block g-fs-14",
                                  "text": "<strong>Medidas</strong>: 250 x 120px"
                                },
                                {
                                  "tag": "span",
                                  "modifierClass": "d-block g-fs-14",
                                  "text": "<strong>Peso máx.</strong>: 2mb"
                                }
                              ]
                            }
                          ]
                        }
                      ]
                    }
                  ]
                }
              ]
            },
            {
              "col": [
                {
                  "colClass": "col-12",
                  "formGroupImg": [
                    {
                      "modifierClass": "mb-2",
                      "column": [
                        {
                          "colClass": "col-auto g-w-100",
                          "label": [
                            {
                              "modifierClass": "g-fw-bold g-fs-15",
                              "name": "description",
                              "title": "Foto fondo:"
                            }
                          ]
                        },
                        {
                          "colClass": "col",
                          "previewImg": [
                            {
                              "modifierClass": "",
                              "before": false,
                              "after": [
                                {
                                  "img": "../../images/preview-img.jpg",
                                  "buttonClose": [
                                    {
                                      "modifierClass": "",
                                      "iconClass": "la-close"
                                    }
                                  ]
                                }
                              ]
                            }
                          ],
                          "infoImg": [
                            {
                              "text": [
                                {
                                  "tag": "span",
                                  "modifierClass": "d-block g-fs-14",
                                  "text": "<strong>Medidas</strong>: 250 x 120px"
                                },
                                {
                                  "tag": "span",
                                  "modifierClass": "d-block g-fs-14",
                                  "text": "<strong>Peso máx.</strong>: 2mb"
                                }
                              ]
                            }
                          ]
                        }
                      ]
                    }
                  ]
                }
              ]
            },
            {
              "col": [
                {
                  "colClass": "col-12",
                  "formGroupTextarea": [
                    {
                      "modifierClass": "mb-2",
                      "column": [
                        {
                          "colClass": "col-auto g-w-100",
                          "label": [
                            {
                              "modifierClass": "g-fw-bold g-fs-15",
                              "name": "description",
                              "title": "Descripción:"
                            }
                          ]
                        },
                        {
                          "colClass": "col",
                          "textarea": [
                            {
                              "classModifier": "mb-0",
                              "rows": 3,
                              "placeHolder": "Ingresar descripción",
                              "text": "Suscribete a bolmail y recibe toda la información financiera en tu mail."
                            }
                          ]
                        },
                        {
                          "colClass": "col-12",
                          "text": [
                            {
                              "tag": "span",
                              "modifierClass": "g-fs-12 d-block mt-1 text-right",
                              "text": "(150/200 caracteres máx)."
                            }
                          ]
                        }
                      ]
                    }
                  ]
                }
              ]
            }
          ]
        }
      ]
    }
  ]
}
