{
  "modifierClass": "",
  "row": [
    {
      "col": [
        {
          "colClass": "col-12",
          "formGroup": [
            {
              "modifierClass": "mb-2",
              "label": [
                {
                  "modifierClass": "g-text-uppercase g-fw-medium g-fs-13 mb-1",
                  "name": "pageName",
                  "title": "Nombre de la página"
                }
              ],
              "input": [
                {
                  "classModifier": "mb-0",
                  "type": "text",
                  "name": "pageName",
                  "placeHolder": "General"
                }
              ]
            }
          ]
        }
      ]
    },
    {
      "col": [
        {
          "colClass": "col-4",
          "formGroupSelect": [
            {
              "modifierClass": "",
              "column": [
                {
                  "colClass": "col-auto g-w-100",
                  "label": [
                    {
                      "modifierClass": "g-fw-bold g-fs-15",
                      "name": "Categoría",
                      "title": "Categoría:"
                    }
                  ]
                },
                {
                  "colClass": "col",
                  "select": [
                    {
                      "modifierClass": "mb-0",
                      "option": [
                        {
                          "optionText": "option 1"
                        },
                        {
                          "optionText": "option 2"
                        },
                        {
                          "optionText": "option 3"
                        }
                      ]
                    }
                  ]
                }
              ]
            }
          ]
        },
        {
          "colClass": "col-8",
          "formGroupInline": [
            {
              "modifierClass": "",
              "column": [
                {
                  "colClass": "col-auto",
                  "label": [
                    {
                      "modifierClass": "g-fw-bold g-fs-12 mb-0",
                      "name": "pageUrl",
                      "title": "Enlace permanente: <a href='https://www.bvl.com.pe/mercado/'>https://www.bvl.com.pe/mercado/</a>"
                    }
                  ]
                },
                {
                  "colClass": "col-5",
                  "input": [
                    {
                      "classModifier": "mb-0",
                      "type": "text",
                      "name": "pageUrl",
                      "placeHolder": "la-nueva-bolsa"
                    }
                  ]
                }
              ]
            }
          ]
        }
      ]
    }
  ]
}
