{
  "modifierClass": "",
  "editorPageInfo": [
    {
      "modifierClass": "mb-5",
      "row": [
        {
          "col": [
            {
              "colClass": "col-4",
              "formGroupSelect": [
                {
                  "modifierClass": "mb-2",
                  "column": [
                    {
                      "colClass": "col-auto g-w-100",
                      "label": [
                        {
                          "modifierClass": "g-fw-bold",
                          "name": "Categoría",
                          "title": "Categoría de menú:"
                        }
                      ]
                    },
                    {
                      "colClass": "col",
                      "select": [
                        {
                          "modifierClass": "g-select-box",
                          "icon": [
                            {
                              "class": "la la-angle-down"
                            }
                          ],
                          "nameSelect": "name",
                          "options": [
                            {
                              "value": "",
                              "text": "Secciones"
                            },
                            {
                              "value": "",
                              "text": "option 2"
                            },
                            {
                              "value": "",
                              "text": "option 3"
                            }
                          ]
                        }
                      ]
                    }
                  ]
                }
              ]
            },
            {
              "colClass": "col-4",
              "formGroupSelect": [
                {
                  "modifierClass": "mb-2",
                  "column": [
                    {
                      "colClass": "col-auto g-w-100",
                      "label": [
                        {
                          "modifierClass": "g-fw-bold",
                          "name": "destino",
                          "title": "Destino:"
                        }
                      ]
                    },
                    {
                      "colClass": "col",
                      "select": [
                        {
                          "modifierClass": "g-select-box",
                          "icon": [
                            {
                              "class": "la la-angle-down"
                            }
                          ],
                          "nameSelect": "name",
                          "options": [
                            {
                              "value": "",
                              "text": "Secciones"
                            },
                            {
                              "value": "",
                              "text": "option 2"
                            },
                            {
                              "value": "",
                              "text": "option 3"
                            }
                          ]
                        }
                      ]
                    }
                  ]
                }
              ]
            },
            {
              "colClass": "col-4",
              "formGroupSelect": [
                {
                  "modifierClass": "mb-2",
                  "column": [
                    {
                      "colClass": "col-auto g-w-100",
                      "label": [
                        {
                          "modifierClass": "g-fw-bold",
                          "name": "descriptor",
                          "title": "Descriptor:"
                        }
                      ]
                    },
                    {
                      "colClass": "col",
                      "select": [
                        {
                          "modifierClass": "g-select-box",
                          "icon": [
                            {
                              "class": "la la-angle-down"
                            }
                          ],
                          "nameSelect": "name",
                          "options": [
                            {
                              "value": "",
                              "text": "Secciones"
                            },
                            {
                              "value": "",
                              "text": "option 2"
                            },
                            {
                              "value": "",
                              "text": "option 3"
                            }
                          ]
                        }
                      ]
                    }
                  ]
                }
              ]
            }
          ]
        },
        {
          "col": [
            {
              "colClass": "col-12 text-right",
              "formCheckbox": [
                {
                  "className": "g-checkbox ml-3 mb-2",
                  "type": "checkbox",
                  "name": "alerta",
                  "labelText": "Alerta pop-up"
                },
                {
                  "className": "g-checkbox ml-3 mb-2",
                  "type": "checkbox",
                  "name": "paginaLibre",
                  "labelText": "Página libre"
                },
                {
                  "className": "g-checkbox ml-3 mb-2",
                  "type": "checkbox",
                  "name": "borrador",
                  "labelText": "Publicar en borrador"
                }
              ]
            }
          ]
        },
        {
          "col": [
            {
              "colClass": "col-12",
              "formGroupInline": [
                {
                  "modifierClass": "",
                  "column": [
                    {
                      "colClass": "col-auto",
                      "label": [
                        {
                          "modifierClass": "g-fw-bold",
                          "name": "pageUrl",
                          "title": "Enlace permanente: <a href='https://casa-andina.com.pe/es/seccion/' class='g-anchor'>https://casa-andina.com.pe/es/seccion/</a>"
                        }
                      ]
                    },
                    {
                      "colClass": "col-4",
                      "input": [
                        {
                          "classModifier": "g-input-box",
                          "type": "text",
                          "name": "pageUrl",
                          "placeHolder": "la-nueva-bolsa"
                        }
                      ]
                    },
                    {
                      "colClass": "col-12",
                      "text": [
                        {
                          "tag": "span",
                          "modifierClass": "g-fs-14 g-block mt-1",
                          "text": "Esta URL es única para cada página, no olvides colocar la extensión por cada idioma."
                        }
                      ]
                    }
                  ]
                }
              ]
            }
          ]
        }
      ]
    }
  ],
  "componentSection": [
    {
      "modifierClass": "mb-4",
      "componentTitle": [
        {
          "modifierClass": "mb-2",
          "title": [
            {
              "tag": "h3",
              "modifierClass": "g-fs-20 g-text-uppercase mb-0",
              "text": "Slider Principal"
            }
          ],
          "button": false
        }
      ],
      "componentFormCard": [
        {
          "addItem": [
            {
              "modifierClass": "",
              "button": [
                {
                  "classModifier": "g-btn-primary g-btn-with-icon g-btn-icon-left",
                  "type": "button",
                  "textButton": "Agregar Slide",
                  "classIcon": "la-plus-circle"
                }
              ]
            }
          ],
          "componentSliderTab": [
            {
              "modifierClass": "mb-4",
              "tabFormNav": [
                {
                  "modifierClass": "",
                  "item": [
                    {
                      "stateClass": "active",
                      "text": "Slide 1",
                      "icon": [
                        {
                          "class": "la la-times-circle"
                        }
                      ]
                    },
                    {
                      "stateClass": "",
                      "text": "Slide 2",
                      "icon": [
                        {
                          "class": "la la-times-circle"
                        }
                      ]
                    },
                    {
                      "stateClass": "",
                      "text": "Slide 3",
                      "icon": [
                        {
                          "class": "la la-times-circle"
                        }
                      ]
                    }
                  ]
                }
              ],
              "componentForm": [
                {
                  "modifierClass": "pt-2 pb-2 pl-6 pr-6 g-bgc-white",
                  "row": [
                    {
                      "col": [
                        {
                          "colClass": "col-12 mb-2",
                          "componentFormBlock": [
                            {
                              "row": [
                                {
                                  "col": [
                                    {
                                      "colClass": "col-12",
                                      "formGroupInput": [
                                        {
                                          "modifierClass": "mb-2",
                                          "column": [
                                            {
                                              "colClass": "col-auto g-w-100",
                                              "label": [
                                                {
                                                  "modifierClass": "g-fw-bold g-fs-15",
                                                  "name": "description",
                                                  "title": "Descripción:"
                                                }
                                              ]
                                            },
                                            {
                                              "colClass": "col",
                                              "input": [
                                                {
                                                  "classModifier": "mb-0",
                                                  "type": "text",
                                                  "name": "description",
                                                  "placeHolder": "Ingresa aquí el contenido"
                                                }
                                              ]
                                            }
                                          ]
                                        }
                                      ]
                                    }
                                  ]
                                },
                                {
                                  "col": [
                                    {
                                      "colClass": "col-6",
                                      "formGroupInput": [
                                        {
                                          "modifierClass": "mb-2",
                                          "column": [
                                            {
                                              "colClass": "col-auto g-w-100",
                                              "label": [
                                                {
                                                  "modifierClass": "g-fw-bold g-fs-15",
                                                  "name": "description",
                                                  "title": "Descripción:"
                                                }
                                              ]
                                            },
                                            {
                                              "colClass": "col",
                                              "input": [
                                                {
                                                  "classModifier": "mb-0",
                                                  "type": "text",
                                                  "name": "description",
                                                  "placeHolder": "Ingresa aquí el contenido"
                                                }
                                              ]
                                            },
                                            {
                                              "colClass": "col-12",
                                              "text": [
                                                {
                                                  "tag": "span",
                                                  "modifierClass": "g-fs-12 d-block mt-1 text-right",
                                                  "text": "(8/15 caracteres máx.)."
                                                }
                                              ]
                                            }
                                          ]
                                        }
                                      ]
                                    },
                                    {
                                      "colClass": "col-6",
                                      "formGroupInput": [
                                        {
                                          "modifierClass": "mb-1",
                                          "column": [
                                            {
                                              "colClass": "col-auto g-w-100",
                                              "label": [
                                                {
                                                  "modifierClass": "g-fw-bold g-fs-15",
                                                  "name": "description",
                                                  "title": "Descripción:"
                                                }
                                              ]
                                            },
                                            {
                                              "colClass": "col",
                                              "input": [
                                                {
                                                  "classModifier": "mb-0",
                                                  "type": "text",
                                                  "name": "description",
                                                  "placeHolder": "Ingresa aquí el contenido"
                                                }
                                              ]
                                            }
                                          ]
                                        }
                                      ]
                                    }
                                  ]
                                },
                                {
                                  "col": [
                                    {
                                      "colClass": "col-6",
                                      "formGroupInput": [
                                        {
                                          "modifierClass": "mb-2",
                                          "column": [
                                            {
                                              "colClass": "col-auto g-w-100",
                                              "label": [
                                                {
                                                  "modifierClass": "g-fw-bold g-fs-15",
                                                  "name": "description",
                                                  "title": "Descripción:"
                                                }
                                              ]
                                            },
                                            {
                                              "colClass": "col",
                                              "input": [
                                                {
                                                  "classModifier": "mb-0",
                                                  "type": "text",
                                                  "name": "description",
                                                  "placeHolder": "Ingresa aquí el contenido"
                                                }
                                              ]
                                            }
                                          ]
                                        }
                                      ]
                                    },
                                    {
                                      "colClass": "col-6",
                                      "formGroupInput": [
                                        {
                                          "modifierClass": "mb-1",
                                          "column": [
                                            {
                                              "colClass": "col-auto g-w-100",
                                              "label": [
                                                {
                                                  "modifierClass": "g-fw-bold g-fs-15",
                                                  "name": "description",
                                                  "title": "Descripción:"
                                                }
                                              ]
                                            },
                                            {
                                              "colClass": "col",
                                              "input": [
                                                {
                                                  "classModifier": "mb-0",
                                                  "type": "text",
                                                  "name": "description",
                                                  "placeHolder": "Ingresa aquí el contenido"
                                                }
                                              ]
                                            }
                                          ]
                                        }
                                      ]
                                    }
                                  ]
                                },
                                {
                                  "col": [
                                    {
                                      "colClass": "col-12",
                                      "checkbox": [
                                        {
                                          "className": "g-checkbox mb-2",
                                          "type": "checkbox",
                                          "name": "addbtn",
                                          "labelText": "Agregar boton"
                                        }
                                      ]
                                    }
                                  ]
                                },
                                {
                                  "col": [
                                    {
                                      "colClass": "col-12",
                                      "divider": [
                                        {
                                          "modifierClass": "mt-1 mb-2"
                                        }
                                      ]
                                    }
                                  ]
                                },
                                {
                                  "col": [
                                    {
                                      "colClass": "col-12",
                                      "formGroupSelect": [
                                        {
                                          "modifierClass": "mb-2",
                                          "column": [
                                            {
                                              "colClass": "col-auto g-w-100",
                                              "label": [
                                                {
                                                  "modifierClass": "g-fw-bold g-fs-15",
                                                  "name": "Categoría",
                                                  "title": "Categoría:"
                                                }
                                              ]
                                            },
                                            {
                                              "colClass": "col",
                                              "select": [
                                                {
                                                  "modifierClass": "mb-0",
                                                  "option": [
                                                    {
                                                      "optionText": "option 1"
                                                    },
                                                    {
                                                      "optionText": "option 2"
                                                    },
                                                    {
                                                      "optionText": "option 3"
                                                    }
                                                  ]
                                                }
                                              ]
                                            }
                                          ]
                                        }
                                      ]
                                    }
                                  ]
                                },
                                {
                                  "col": [
                                    {
                                      "colClass": "col-12",
                                      "formGroupAlign": [
                                        {
                                          "modifierClass": "mb-2",
                                          "column": [
                                            {
                                              "colClass": "col-auto g-w-100",
                                              "label": [
                                                {
                                                  "modifierClass": "g-fw-bold g-fs-15",
                                                  "name": "description",
                                                  "title": "Estilo:"
                                                }
                                              ]
                                            },
                                            {
                                              "colClass": "col",
                                              "alignButtons": [
                                                {
                                                  "buttons": [
                                                    {
                                                      "name": "align",
                                                      "iconClass": "la-align-left"
                                                    },
                                                    {
                                                      "name": "align",
                                                      "iconClass": "la-align-center"
                                                    },
                                                    {
                                                      "name": "align",
                                                      "iconClass": "la-align-right"
                                                    }
                                                  ]
                                                }
                                              ]
                                            }
                                          ]
                                        }
                                      ]
                                    }
                                  ]
                                },
                                {
                                  "col": [
                                    {
                                      "colClass": "col-12",
                                      "formGroupImg": [
                                        {
                                          "modifierClass": "mb-2",
                                          "column": [
                                            {
                                              "colClass": "col-auto g-w-100",
                                              "label": [
                                                {
                                                  "modifierClass": "g-fw-bold g-fs-15",
                                                  "name": "description",
                                                  "title": "Foto fondo:"
                                                }
                                              ]
                                            },
                                            {
                                              "colClass": "col",
                                              "previewImg": [
                                                {
                                                  "modifierClass": "",
                                                  "before": [
                                                    {
                                                      "icon": [
                                                        {
                                                          "class": "la la-cloud-upload"
                                                        }
                                                      ],
                                                      "text": [
                                                        {
                                                          "tag": "span",
                                                          "modifierClass": "",
                                                          "text": "Subir foto"
                                                        }
                                                      ]
                                                    }
                                                  ],
                                                  "after": false
                                                }
                                              ],
                                              "infoImg": [
                                                {
                                                  "text": [
                                                    {
                                                      "tag": "span",
                                                      "modifierClass": "d-block g-fs-14",
                                                      "text": "<strong>Medidas</strong>: 250 x 120px"
                                                    },
                                                    {
                                                      "tag": "span",
                                                      "modifierClass": "d-block g-fs-14",
                                                      "text": "<strong>Peso máx.</strong>: 2mb"
                                                    }
                                                  ]
                                                }
                                              ]
                                            }
                                          ]
                                        }
                                      ]
                                    }
                                  ]
                                },
                                {
                                  "col": [
                                    {
                                      "colClass": "col-12",
                                      "formGroupImg": [
                                        {
                                          "modifierClass": "mb-2",
                                          "column": [
                                            {
                                              "colClass": "col-auto g-w-100",
                                              "label": [
                                                {
                                                  "modifierClass": "g-fw-bold g-fs-15",
                                                  "name": "description",
                                                  "title": "Foto fondo:"
                                                }
                                              ]
                                            },
                                            {
                                              "colClass": "col",
                                              "previewImg": [
                                                {
                                                  "modifierClass": "",
                                                  "before": false,
                                                  "after": [
                                                    {
                                                      "img": "../../images/preview-img.jpg",
                                                      "buttonClose": [
                                                        {
                                                          "modifierClass": "",
                                                          "iconClass": "la-close"
                                                        }
                                                      ]
                                                    }
                                                  ]
                                                }
                                              ],
                                              "infoImg": [
                                                {
                                                  "text": [
                                                    {
                                                      "tag": "span",
                                                      "modifierClass": "d-block g-fs-14",
                                                      "text": "<strong>Medidas</strong>: 250 x 120px"
                                                    },
                                                    {
                                                      "tag": "span",
                                                      "modifierClass": "d-block g-fs-14",
                                                      "text": "<strong>Peso máx.</strong>: 2mb"
                                                    }
                                                  ]
                                                }
                                              ]
                                            }
                                          ]
                                        }
                                      ]
                                    }
                                  ]
                                },
                                {
                                  "col": [
                                    {
                                      "colClass": "col-12",
                                      "formGroupTextarea": [
                                        {
                                          "modifierClass": "mb-2",
                                          "column": [
                                            {
                                              "colClass": "col-auto g-w-100",
                                              "label": [
                                                {
                                                  "modifierClass": "g-fw-bold g-fs-15",
                                                  "name": "description",
                                                  "title": "Descripción:"
                                                }
                                              ]
                                            },
                                            {
                                              "colClass": "col",
                                              "textarea": [
                                                {
                                                  "classModifier": "mb-0",
                                                  "rows": 3,
                                                  "placeHolder": "Ingresar descripción",
                                                  "text": "Suscribete a bolmail y recibe toda la información financiera en tu mail."
                                                }
                                              ]
                                            },
                                            {
                                              "colClass": "col-12",
                                              "text": [
                                                {
                                                  "tag": "span",
                                                  "modifierClass": "g-fs-12 d-block mt-1 text-right",
                                                  "text": "(150/200 caracteres máx)."
                                                }
                                              ]
                                            }
                                          ]
                                        }
                                      ]
                                    }
                                  ]
                                }
                              ]
                            }
                          ]
                        }
                      ]
                    },
                    {
                      "col": [
                        {
                          "colClass": "col-12 text-right mb-2",
                          "addItem": [
                            {
                              "link": "#",
                              "modifierClass": "",
                              "iconLeft": [
                                {
                                  "class": "la la-plus-circle"
                                }
                              ],
                              "text": "Agregar banner",
                              "iconRight": false
                            }
                          ]
                        }
                      ]
                    }
                  ]
                }
              ]
            }
          ]
        }
      ]
    },
    {
      "modifierClass": "",
      "componentTitle": [
        {
          "modifierClass": "mb-2",
          "title": [
            {
              "tag": "h3",
              "modifierClass": "g-fs-20 g-text-uppercase mb-0",
              "text": "Slider Principal"
            }
          ],
          "button": false
        }
      ],
      "componentFormCard": [
        {
          "componentForm": [
            {
              "modifierClass": "pt-2 pb-2 pl-6 pr-6 g-bgc-white",
              "row": [
                {
                  "col": [
                    {
                      "colClass": "col-12 mb-2",
                      "componentFormBlock": [
                        {
                          "row": [
                            {
                              "col": [
                                {
                                  "colClass": "col-12",
                                  "formGroupInput": [
                                    {
                                      "modifierClass": "mb-2",
                                      "column": [
                                        {
                                          "colClass": "col-auto g-w-100",
                                          "label": [
                                            {
                                              "modifierClass": "g-fw-bold g-fs-15",
                                              "name": "description",
                                              "title": "Descripción:"
                                            }
                                          ]
                                        },
                                        {
                                          "colClass": "col",
                                          "input": [
                                            {
                                              "classModifier": "mb-0",
                                              "type": "text",
                                              "name": "description",
                                              "placeHolder": "Ingresa aquí el contenido"
                                            }
                                          ]
                                        }
                                      ]
                                    }
                                  ]
                                }
                              ]
                            },
                            {
                              "col": [
                                {
                                  "colClass": "col-6",
                                  "formGroupInput": [
                                    {
                                      "modifierClass": "mb-2",
                                      "column": [
                                        {
                                          "colClass": "col-auto g-w-100",
                                          "label": [
                                            {
                                              "modifierClass": "g-fw-bold g-fs-15",
                                              "name": "description",
                                              "title": "Descripción:"
                                            }
                                          ]
                                        },
                                        {
                                          "colClass": "col",
                                          "input": [
                                            {
                                              "classModifier": "mb-0",
                                              "type": "text",
                                              "name": "description",
                                              "placeHolder": "Ingresa aquí el contenido"
                                            }
                                          ]
                                        },
                                        {
                                          "colClass": "col-12",
                                          "text": [
                                            {
                                              "tag": "span",
                                              "modifierClass": "g-fs-12 d-block mt-1 text-right",
                                              "text": "(8/15 caracteres máx.)."
                                            }
                                          ]
                                        }
                                      ]
                                    }
                                  ]
                                },
                                {
                                  "colClass": "col-6",
                                  "formGroupInput": [
                                    {
                                      "modifierClass": "mb-1",
                                      "column": [
                                        {
                                          "colClass": "col-auto g-w-100",
                                          "label": [
                                            {
                                              "modifierClass": "g-fw-bold g-fs-15",
                                              "name": "description",
                                              "title": "Descripción:"
                                            }
                                          ]
                                        },
                                        {
                                          "colClass": "col",
                                          "input": [
                                            {
                                              "classModifier": "mb-0",
                                              "type": "text",
                                              "name": "description",
                                              "placeHolder": "Ingresa aquí el contenido"
                                            }
                                          ]
                                        }
                                      ]
                                    }
                                  ]
                                }
                              ]
                            },
                            {
                              "col": [
                                {
                                  "colClass": "col-6",
                                  "formGroupInput": [
                                    {
                                      "modifierClass": "mb-2",
                                      "column": [
                                        {
                                          "colClass": "col-auto g-w-100",
                                          "label": [
                                            {
                                              "modifierClass": "g-fw-bold g-fs-15",
                                              "name": "description",
                                              "title": "Descripción:"
                                            }
                                          ]
                                        },
                                        {
                                          "colClass": "col",
                                          "input": [
                                            {
                                              "classModifier": "mb-0",
                                              "type": "text",
                                              "name": "description",
                                              "placeHolder": "Ingresa aquí el contenido"
                                            }
                                          ]
                                        }
                                      ]
                                    }
                                  ]
                                },
                                {
                                  "colClass": "col-6",
                                  "formGroupInput": [
                                    {
                                      "modifierClass": "mb-1",
                                      "column": [
                                        {
                                          "colClass": "col-auto g-w-100",
                                          "label": [
                                            {
                                              "modifierClass": "g-fw-bold g-fs-15",
                                              "name": "description",
                                              "title": "Descripción:"
                                            }
                                          ]
                                        },
                                        {
                                          "colClass": "col",
                                          "input": [
                                            {
                                              "classModifier": "mb-0",
                                              "type": "text",
                                              "name": "description",
                                              "placeHolder": "Ingresa aquí el contenido"
                                            }
                                          ]
                                        }
                                      ]
                                    }
                                  ]
                                }
                              ]
                            },
                            {
                              "col": [
                                {
                                  "colClass": "col-12",
                                  "checkbox": [
                                    {
                                      "className": "g-checkbox mb-2",
                                      "type": "checkbox",
                                      "name": "addbtn",
                                      "labelText": "Agregar boton"
                                    }
                                  ]
                                }
                              ]
                            },
                            {
                              "col": [
                                {
                                  "colClass": "col-12",
                                  "divider": [
                                    {
                                      "modifierClass": "mt-1 mb-2"
                                    }
                                  ]
                                }
                              ]
                            },
                            {
                              "col": [
                                {
                                  "colClass": "col-12",
                                  "formGroupSelect": [
                                    {
                                      "modifierClass": "mb-2",
                                      "column": [
                                        {
                                          "colClass": "col-auto g-w-100",
                                          "label": [
                                            {
                                              "modifierClass": "g-fw-bold g-fs-15",
                                              "name": "Categoría",
                                              "title": "Categoría:"
                                            }
                                          ]
                                        },
                                        {
                                          "colClass": "col",
                                          "select": [
                                            {
                                              "modifierClass": "mb-0",
                                              "option": [
                                                {
                                                  "optionText": "option 1"
                                                },
                                                {
                                                  "optionText": "option 2"
                                                },
                                                {
                                                  "optionText": "option 3"
                                                }
                                              ]
                                            }
                                          ]
                                        }
                                      ]
                                    }
                                  ]
                                }
                              ]
                            },
                            {
                              "col": [
                                {
                                  "colClass": "col-12",
                                  "formGroupAlign": [
                                    {
                                      "modifierClass": "mb-2",
                                      "column": [
                                        {
                                          "colClass": "col-auto g-w-100",
                                          "label": [
                                            {
                                              "modifierClass": "g-fw-bold g-fs-15",
                                              "name": "description",
                                              "title": "Estilo:"
                                            }
                                          ]
                                        },
                                        {
                                          "colClass": "col",
                                          "alignButtons": [
                                            {
                                              "buttons": [
                                                {
                                                  "name": "align",
                                                  "iconClass": "la-align-left"
                                                },
                                                {
                                                  "name": "align",
                                                  "iconClass": "la-align-center"
                                                },
                                                {
                                                  "name": "align",
                                                  "iconClass": "la-align-right"
                                                }
                                              ]
                                            }
                                          ]
                                        }
                                      ]
                                    }
                                  ]
                                }
                              ]
                            },
                            {
                              "col": [
                                {
                                  "colClass": "col-12",
                                  "formGroupImg": [
                                    {
                                      "modifierClass": "mb-2",
                                      "column": [
                                        {
                                          "colClass": "col-auto g-w-100",
                                          "label": [
                                            {
                                              "modifierClass": "g-fw-bold g-fs-15",
                                              "name": "description",
                                              "title": "Foto fondo:"
                                            }
                                          ]
                                        },
                                        {
                                          "colClass": "col",
                                          "previewImg": [
                                            {
                                              "modifierClass": "",
                                              "before": [
                                                {
                                                  "icon": [
                                                    {
                                                      "class": "la la-cloud-upload"
                                                    }
                                                  ],
                                                  "text": [
                                                    {
                                                      "tag": "span",
                                                      "modifierClass": "",
                                                      "text": "Subir foto"
                                                    }
                                                  ]
                                                }
                                              ],
                                              "after": false
                                            }
                                          ],
                                          "infoImg": [
                                            {
                                              "text": [
                                                {
                                                  "tag": "span",
                                                  "modifierClass": "d-block g-fs-14",
                                                  "text": "<strong>Medidas</strong>: 250 x 120px"
                                                },
                                                {
                                                  "tag": "span",
                                                  "modifierClass": "d-block g-fs-14",
                                                  "text": "<strong>Peso máx.</strong>: 2mb"
                                                }
                                              ]
                                            }
                                          ]
                                        }
                                      ]
                                    }
                                  ]
                                }
                              ]
                            },
                            {
                              "col": [
                                {
                                  "colClass": "col-12",
                                  "formGroupImg": [
                                    {
                                      "modifierClass": "mb-2",
                                      "column": [
                                        {
                                          "colClass": "col-auto g-w-100",
                                          "label": [
                                            {
                                              "modifierClass": "g-fw-bold g-fs-15",
                                              "name": "description",
                                              "title": "Foto fondo:"
                                            }
                                          ]
                                        },
                                        {
                                          "colClass": "col",
                                          "previewImg": [
                                            {
                                              "modifierClass": "",
                                              "before": false,
                                              "after": [
                                                {
                                                  "img": "../../images/preview-img.jpg",
                                                  "buttonClose": [
                                                    {
                                                      "modifierClass": "",
                                                      "iconClass": "la-close"
                                                    }
                                                  ]
                                                }
                                              ]
                                            }
                                          ],
                                          "infoImg": [
                                            {
                                              "text": [
                                                {
                                                  "tag": "span",
                                                  "modifierClass": "d-block g-fs-14",
                                                  "text": "<strong>Medidas</strong>: 250 x 120px"
                                                },
                                                {
                                                  "tag": "span",
                                                  "modifierClass": "d-block g-fs-14",
                                                  "text": "<strong>Peso máx.</strong>: 2mb"
                                                }
                                              ]
                                            }
                                          ]
                                        }
                                      ]
                                    }
                                  ]
                                }
                              ]
                            },
                            {
                              "col": [
                                {
                                  "colClass": "col-12",
                                  "formGroupTextarea": [
                                    {
                                      "modifierClass": "mb-2",
                                      "column": [
                                        {
                                          "colClass": "col-auto g-w-100",
                                          "label": [
                                            {
                                              "modifierClass": "g-fw-bold g-fs-15",
                                              "name": "description",
                                              "title": "Descripción:"
                                            }
                                          ]
                                        },
                                        {
                                          "colClass": "col",
                                          "textarea": [
                                            {
                                              "classModifier": "mb-0",
                                              "rows": 3,
                                              "placeHolder": "Ingresar descripción",
                                              "text": "Suscribete a bolmail y recibe toda la información financiera en tu mail."
                                            }
                                          ]
                                        },
                                        {
                                          "colClass": "col-12",
                                          "text": [
                                            {
                                              "tag": "span",
                                              "modifierClass": "g-fs-12 d-block mt-1 text-right",
                                              "text": "(150/200 caracteres máx)."
                                            }
                                          ]
                                        }
                                      ]
                                    }
                                  ]
                                }
                              ]
                            }
                          ]
                        }
                      ]
                    }
                  ]
                },
                {
                  "col": [
                    {
                      "colClass": "col-12 text-right mb-2",
                      "addItem": [
                        {
                          "link": "#",
                          "modifierClass": "",
                          "iconLeft": [
                            {
                              "class": "la la-plus-circle"
                            }
                          ],
                          "text": "Agregar banner",
                          "iconRight": false
                        }
                      ]
                    }
                  ]
                }
              ]
            }
          ]
        }
      ]
    }
  ]
}
