{
  "modifierClass": "",
  "editorFormHeader": [
    {
      "modifierClass": "",
      "headerTab": [
        {
          "modifierClass": "",
          "item": [
            {
              "stateClass": "active",
              "text": "Español"
            },
            {
              "stateClass": "",
              "text": "Inglés"
            },
            {
              "stateClass": "",
              "text": "Portugués"
            }
          ]
        }
      ]
    }
  ],
  "editorFormBody": [
    {
      "modifierClass": ""
    }
  ]
}
