{
  "classModifier": "g-box--count g-box-shadow1",
  "count": [
    {
      "classModifier": "",
      "title": [
        {
          "tag": "h4",
          "modifierClass": "g-fs-16 g-text-center g-text-uppercase mb-1",
          "text": "Faltan"
        }
      ],
      "count": [
        {
          "day": [
            {
              "classModifier": "s-count--numbers-day",
              "number": "01",
              "text": [
                {
                  "tag": "span",
                  "modifierClass": "g-cl-primary g-fs-16 g-text-uppercase",
                  "text": "Días"
                }
              ]
            }
          ],
          "hour": [
            {
              "classModifier": "s-count--numbers-hour",
              "number": "05",
              "text": [
                {
                  "tag": "span",
                  "modifierClass": "g-cl-primary g-fs-16 g-text-uppercase",
                  "text": "Hr"
                }
              ]
            }
          ],
          "min": [
            {
              "classModifier": "s-count--numbers-min",
              "number": "23",
              "text": [
                {
                  "tag": "span",
                  "modifierClass": "g-cl-primary g-fs-16 g-text-uppercase",
                  "text": "Min"
                }
              ]
            }
          ],
          "seg": [
            {
              "classModifier": "s-count--numbers-seg",
              "number": "40",
              "text": [
                {
                  "tag": "span",
                  "modifierClass": "g-cl-primary g-fs-16 g-text-uppercase",
                  "text": "Seg"
                }
              ]
            }
          ]
        }
      ]
    }
  ]
}
