{
  "bodyClass": "g-modal-open",
  "modifierClass": "lg",
  "modalHeader": [
    {
      "iconClass": "la-close",
      "modalTitle": [
        {
          "tag": "h2",
          "modifierClass": "c-heading-1 text-left",
          "text": "Seleccionar Imagen"
        }
      ]
    }
  ],
  "mainNotification": [
    {
      "modifierClass": "g-main-notification-danger active",
      "icon": [
        {
          "class": "la la-warning"
        }
      ],
      "text": [
        {
          "tag": "span",
          "modifierClass": "",
          "text": "No se guardo correctamente"
        }
      ]
    }
  ],
  "modifierBodyClass": "pb-2 pr-1-5",
  "modalButtons": [
    {
      "modifierClass": "mb-2",
      "col": [
        {
          "colClass": "col",
          "btnWithIcon": [
            {
              "classModifier": "g-btn-primary g-btn-icon-left",
              "type": "button",
              "textButton": "Agregar Nueva",
              "classIcon": "la-plus-circle"
            }
          ]
        },
        {
          "colClass": "col-auto text-right",
          "btnSelect": [
            {
              "classModifier": "active",
              "textButton": "Todas las fechas",
              "monthsList": [
                {
                  "modifierClass": "active",
                  "dropdownListItem": [
                    {
                      "listItemText": [
                        {
                          "tag": "span",
                          "modifierClass": "",
                          "text": "2019:"
                        }
                      ],
                      "tagsList": [
                        {
                          "modifierClass": "",
                          "tagsListItem": [
                            {
                              "tagsListItemText": "enero"
                            },
                            {
                              "tagsListItemText": "febrero"
                            },
                            {
                              "tagsListItemText": "marzo"
                            },
                            {
                              "tagsListItemText": "abril"
                            },
                            {
                              "tagsListItemText": "mayo"
                            },
                            {
                              "tagsListItemText": "junio"
                            },
                            {
                              "tagsListItemText": "julio"
                            },
                            {
                              "tagsListItemText": "agosto"
                            },
                            {
                              "tagsListItemText": "septiembre"
                            },
                            {
                              "tagsListItemText": "octubre"
                            },
                            {
                              "tagsListItemText": "noviembre"
                            },
                            {
                              "tagsListItemText": "diciembre"
                            }
                          ]
                        }
                      ]
                    },
                    {
                      "listItemText": [
                        {
                          "tag": "span",
                          "modifierClass": "",
                          "text": "2018:"
                        }
                      ],
                      "tagsList": [
                        {
                          "modifierClass": "",
                          "tagsListItem": [
                            {
                              "tagsListItemText": "enero"
                            },
                            {
                              "tagsListItemText": "febrero"
                            },
                            {
                              "tagsListItemText": "marzo"
                            },
                            {
                              "tagsListItemText": "abril"
                            },
                            {
                              "tagsListItemText": "mayo"
                            },
                            {
                              "tagsListItemText": "junio"
                            },
                            {
                              "tagsListItemText": "julio"
                            },
                            {
                              "tagsListItemText": "agosto"
                            },
                            {
                              "tagsListItemText": "septiembre"
                            },
                            {
                              "tagsListItemText": "octubre"
                            },
                            {
                              "tagsListItemText": "noviembre"
                            },
                            {
                              "tagsListItemText": "diciembre"
                            }
                          ]
                        }
                      ]
                    }
                  ]
                }
              ]
            }
          ]
        }
      ]
    }
  ],
  "modifierContentImagesClass": "g-card-wrapper-images",
  "images": [
    {
      "modifierClass": "g-img-preview-select active",
      "before": false,
      "after": [
        {
          "img": "https://placehold.it/600x300"
        }
      ]
    },
    {
      "modifierClass": "g-img-preview-select",
      "before": false,
      "after": [
        {
          "img": "https://placehold.it/600x300"
        }
      ]
    },
    {
      "modifierClass": "g-img-preview-select",
      "before": false,
      "after": [
        {
          "img": "https://placehold.it/600x300"
        }
      ]
    },
    {
      "modifierClass": "g-img-preview-select",
      "before": false,
      "after": [
        {
          "img": "https://placehold.it/600x300"
        }
      ]
    },
    {
      "modifierClass": "g-img-preview-select",
      "before": false,
      "after": [
        {
          "img": "https://placehold.it/600x300"
        }
      ]
    },
    {
      "modifierClass": "g-img-preview-select",
      "before": false,
      "after": [
        {
          "img": "https://placehold.it/600x300"
        }
      ]
    },
    {
      "modifierClass": "g-img-preview-select",
      "before": false,
      "after": [
        {
          "img": "https://placehold.it/600x300"
        }
      ]
    },
    {
      "modifierClass": "g-img-preview-select",
      "before": false,
      "after": [
        {
          "img": "https://placehold.it/600x300"
        }
      ]
    },
    {
      "modifierClass": "g-img-preview-select",
      "before": false,
      "after": [
        {
          "img": "https://placehold.it/600x300"
        }
      ]
    },
    {
      "modifierClass": "g-img-preview-select",
      "before": false,
      "after": [
        {
          "img": "https://placehold.it/600x300"
        }
      ]
    },
    {
      "modifierClass": "g-img-preview-select",
      "before": false,
      "after": [
        {
          "img": "https://placehold.it/600x300"
        }
      ]
    },
    {
      "modifierClass": "g-img-preview-select",
      "before": false,
      "after": [
        {
          "img": "https://placehold.it/600x300"
        }
      ]
    },
    {
      "modifierClass": "g-img-preview-select",
      "before": false,
      "after": [
        {
          "img": "https://placehold.it/600x300"
        }
      ]
    },
    {
      "modifierClass": "g-img-preview-select",
      "before": false,
      "after": [
        {
          "img": "https://placehold.it/600x300"
        }
      ]
    },
    {
      "modifierClass": "g-img-preview-select",
      "before": false,
      "after": [
        {
          "img": "https://placehold.it/600x300"
        }
      ]
    },
    {
      "modifierClass": "g-img-preview-select",
      "before": false,
      "after": [
        {
          "img": "https://placehold.it/600x300"
        }
      ]
    }
  ],
  "imageSelected": [
    {
      "modifierClass": "",
      "before": false,
      "after": [
        {
          "img": "https://placehold.it/600x300"
        }
      ]
    }
  ],
  "imageInfo": [
    {
      "modifierClass": "mb-2",
      "column": [
        {
          "colClass": "col-12",
          "label": [
            {
              "modifierClass": "g-fw-bold",
              "name": "nombre",
              "title": "Nombre:"
            }
          ]
        },
        {
          "colClass": "col-12",
          "input": [
            {
              "classModifier": "",
              "type": "text",
              "name": "nombre",
              "placeHolder": "nombre-de-la-imagen.jpg"
            }
          ]
        }
      ]
    },
    {
      "modifierClass": "mb-2",
      "column": [
        {
          "colClass": "col-12",
          "label": [
            {
              "modifierClass": "g-fw-bold",
              "name": "alt",
              "title": "Título Alternativo:"
            }
          ]
        },
        {
          "colClass": "col-12",
          "input": [
            {
              "classModifier": "",
              "type": "text",
              "name": "alt",
              "placeHolder": ""
            }
          ]
        }
      ]
    },
    {
      "modifierClass": "mb-2",
      "column": [
        {
          "colClass": "col-12",
          "label": [
            {
              "modifierClass": "g-fw-bold",
              "name": "descripcion",
              "title": "Descripción:"
            }
          ]
        },
        {
          "colClass": "col-12",
          "input": [
            {
              "classModifier": "",
              "type": "text",
              "name": "descripcion",
              "placeHolder": ""
            }
          ]
        }
      ]
    }
  ],
  "imageSelectedButtons": [
    {
      "classModifier": "g-btn-primary g-block",
      "type": "button",
      "textButton": "Seleccionar"
    },
    {
      "classModifier": "g-btn-outline g-btn-outline--red g-block",
      "type": "button",
      "textButton": "Eliminar"
    }
  ]
}
