{
  "classModifier": "g-tag-image d-none d-xl-block",
  "text": false,
  "image": [
    {
      "classModifier": "g-img-fluid",
      "src": "../../images/ca-brand-default.png",
      "alt": "Alt default"
    }
  ]
}
