{
  "bodyClass": "g-modal-open",
  "modifierClass": "md",
  "modalHeader": [
    {
      "iconClass": "la-close",
      "modalTitle": [
        {
          "tag": "h2",
          "modifierClass": "c-heading-1 text-left",
          "text": "Añadir Usuario"
        }
      ]
    }
  ],
  "mainNotification": [
    {
      "modifierClass": "g-main-notification-success",
      "icon": [
        {
          "class": "la la-check-circle"
        }
      ],
      "text": [
        {
          "tag": "span",
          "modifierClass": "",
          "text": "Se añadio usuario de manera correcta active"
        }
      ]
    }
  ],
  "textModal": [
    {
      "tag": "p",
      "modifierClass": "mb-2",
      "text": "Añade los usuarios que desees para que participen del gestor."
    }
  ],
  "formGroupInput": false,
  "grayCard": [
    {
      "grayCardClass": "mb-1",
      "col": [
        {
          "colClass": "col-6",
          "text": [
            {
              "tag": "span",
              "modifierClass": "",
              "text": "<strong>Nombre:</strong> José Nevado"
            }
          ]
        },
        {
          "colClass": "col-6",
          "text": [
            {
              "tag": "span",
              "modifierClass": "",
              "text": "<strong>Correo:</strong> <a href='mailto:ose@casa-andina.com'>jose@casa-andina.com</a>"
            }
          ]
        }
      ]
    },
    {
      "col": [
        {
          "colClass": "col-12",
          "text": [
            {
              "tag": "span",
              "modifierClass": "d-block mb-2 g-fw-bold",
              "text": "Ahora Asignale un rol"
            }
          ]
        },
        {
          "colClass": "col-12",
          "permissionRadio": [
            {
              "radioInput": [
                {
                  "className": "g-radio",
                  "type": "radio",
                  "name": "nInputPermission",
                  "labelText": "Administrador"
                }
              ],
              "permissionText": [
                {
                  "tag": "span",
                  "modifierClass": "g-fs-12",
                  "text": "Editar páginas, crear post, bandeja de entrada, editar componentes."
                }
              ]
            },
            {
              "radioInput": [
                {
                  "className": "g-radio",
                  "type": "radio",
                  "name": "nInputPermission",
                  "labelText": "Editor"
                }
              ],
              "permissionText": [
                {
                  "tag": "span",
                  "modifierClass": "g-fs-12",
                  "text": "Editar páginas, crear post, bandeja de entrada."
                }
              ]
            }
          ]
        }
      ]
    }
  ],
  "modalButton": [
    {
      "classModifier": "g-btn-outline g-btn-outline--gray g-btn-with-icon g-btn-icon-left",
      "type": "button",
      "textButton": "Anterior",
      "classIcon": "la-long-arrow-left"
    },
    {
      "classModifier": "g-btn-primary g-btn-with-icon g-btn-icon-left",
      "type": "button",
      "textButton": "Guardar",
      "classIcon": "la-save"
    }
  ]
}
