{
  "controls": [
    {
      "classControlModifier": "carousel-control--black",
      "iconLeftClass": "la-angle-left",
      "iconRightClass": "la-angle-right",
      "startNumber": "01",
      "finalNumber": "03"
    }
  ],
  "wrapperModifierClass": "g-carousel-content-wrapper--flex",
  "carouselItem": [
    {
      "classItemModifier": "carousel-item--xs active",
      "opinionBox": [
        {
          "classModifier": "s-box--tr s-box--shadow",
          "boxContentModifierClass": "p-1",
          "image": [
            {
              "classModifier": "mb-2",
              "src": "https://placehold.it/90x30",
              "alt": "Alt default"
            }
          ],
          "title": [
            {
              "tag": "h4",
              "modifierClass": "g-fs-20 g-fw-medium",
              "text": "Lugar calido y con una vista espectacular."
            }
          ],
          "raiting": [
            {
              "classModifier": "mb-2"
            }
          ],
          "comment": [
            {
              "tag": "p",
              "modifierClass": "",
              "text": "Good: Me gustó mucho la comodidad de la habitación y la ducha española. Disfrute mucho de la piscina porque había sol. La atención de la recepcionista fue muy amable y de todo el personal."
            }
          ],
          "date": [
            {
              "tag": "span",
              "modifierClass": "g-fs-15",
              "text": "Omar, Mar 31, 2019"
            }
          ]
        }
      ]
    },
    {
      "classItemModifier": "carousel-item--xs active",
      "opinionBox": [
        {
          "classModifier": "s-box--tr s-box--shadow",
          "boxContentModifierClass": "p-1",
          "image": [
            {
              "classModifier": "mb-2",
              "src": "https://placehold.it/90x30",
              "alt": "Alt default"
            }
          ],
          "title": [
            {
              "tag": "h4",
              "modifierClass": "g-fs-20 g-fw-medium",
              "text": "Lugar calido y con una vista espectacular."
            }
          ],
          "raiting": [
            {
              "classModifier": "mb-2"
            }
          ],
          "comment": [
            {
              "tag": "p",
              "modifierClass": "",
              "text": "Good: Me gustó mucho la comodidad de la habitación y la ducha española. Disfrute mucho de la piscina porque había sol. La atención de la recepcionista fue muy amable y de todo el personal."
            }
          ],
          "date": [
            {
              "tag": "span",
              "modifierClass": "g-fs-15",
              "text": "Omar, Mar 31, 2019"
            }
          ]
        }
      ]
    },
    {
      "classItemModifier": "carousel-item--xs active",
      "opinionBox": [
        {
          "classModifier": "s-box--tr s-box--shadow",
          "boxContentModifierClass": "p-1",
          "image": [
            {
              "classModifier": "mb-2",
              "src": "https://placehold.it/90x30",
              "alt": "Alt default"
            }
          ],
          "title": [
            {
              "tag": "h4",
              "modifierClass": "g-fs-20 g-fw-medium",
              "text": "Lugar calido y con una vista espectacular."
            }
          ],
          "raiting": [
            {
              "classModifier": "mb-2"
            }
          ],
          "comment": [
            {
              "tag": "p",
              "modifierClass": "",
              "text": "Good: Me gustó mucho la comodidad de la habitación y la ducha española. Disfrute mucho de la piscina porque había sol. La atención de la recepcionista fue muy amable y de todo el personal."
            }
          ],
          "date": [
            {
              "tag": "span",
              "modifierClass": "g-fs-15",
              "text": "Omar, Mar 31, 2019"
            }
          ]
        }
      ]
    },
    {
      "classItemModifier": "carousel-item--xs active",
      "opinionBox": [
        {
          "classModifier": "s-box--tr s-box--shadow",
          "boxContentModifierClass": "p-1",
          "image": [
            {
              "classModifier": "mb-2",
              "src": "https://placehold.it/90x30",
              "alt": "Alt default"
            }
          ],
          "title": [
            {
              "tag": "h4",
              "modifierClass": "g-fs-20 g-fw-medium",
              "text": "Lugar calido y con una vista espectacular."
            }
          ],
          "raiting": [
            {
              "classModifier": "mb-2"
            }
          ],
          "comment": [
            {
              "tag": "p",
              "modifierClass": "",
              "text": "Good: Me gustó mucho la comodidad de la habitación y la ducha española. Disfrute mucho de la piscina porque había sol. La atención de la recepcionista fue muy amable y de todo el personal."
            }
          ],
          "date": [
            {
              "tag": "span",
              "modifierClass": "g-fs-15",
              "text": "Omar, Mar 31, 2019"
            }
          ]
        }
      ]
    }
  ]
}
