{
  "modifierClass": "",
  "item": [
    {
      "text": "Zorritos Tumbes"
    },
    {
      "text": "Talara"
    },
    {
      "text": "Piura"
    },
    {
      "text": "Chiclayo"
    },
    {
      "text": "Trujillo"
    }
  ]
}
