{
  "modifierClass": "g-section--padding-60 g-bgc-gray1",
  "title": [
    {
      "tag": "h2",
      "classModifier": "g-cl-white",
      "headingText": "Nuestras salas"
    }
  ],
  "button": [
    {
      "classModifier": "g-btn-outline g-btn-icon mb-1",
      "type": "button",
      "inlineStyle": "",
      "textButton": "",
      "icon": "<i class='la la-filter'></i>"
    }
  ],
  "filter": [
    {
      "classModifier": "g-box-shadow3",
      "btnDestino": [
        {
          "classModifier": "g-block",
          "button": [
            {
              "classModifier": "g-btn-primary g-btn-outline g-btn-with-icon--dropdown g-block",
              "type": "button",
              "textButton": "Destino (1)",
              "classIcon": "la la-angle-down"
            }
          ],
          "list": false,
          "listCheckbox": [
            {
              "classModifier": "g-dropDown--list",
              "listElements": [
                {
                  "liClass": "",
                  "checkbox": [
                    {
                      "className": "g-checkbox",
                      "type": "checkbox",
                      "name": "nInputCheckbox",
                      "labelText": "Defaul text"
                    }
                  ]
                },
                {
                  "liClass": "",
                  "checkbox": [
                    {
                      "className": "g-checkbox",
                      "type": "checkbox",
                      "name": "nInputCheckbox",
                      "labelText": "Defaul text"
                    }
                  ]
                },
                {
                  "liClass": "",
                  "checkbox": [
                    {
                      "className": "g-checkbox",
                      "type": "checkbox",
                      "name": "nInputCheckbox",
                      "labelText": "Defaul text"
                    }
                  ]
                },
                {
                  "liClass": "",
                  "checkbox": [
                    {
                      "className": "g-checkbox",
                      "type": "checkbox",
                      "name": "nInputCheckbox",
                      "labelText": "Defaul text"
                    }
                  ]
                },
                {
                  "liClass": "",
                  "checkbox": [
                    {
                      "className": "g-checkbox",
                      "type": "checkbox",
                      "name": "nInputCheckbox",
                      "labelText": "Defaul text"
                    }
                  ]
                },
                {
                  "liClass": "",
                  "checkbox": [
                    {
                      "className": "g-checkbox",
                      "type": "checkbox",
                      "name": "nInputCheckbox",
                      "labelText": "Defaul text"
                    }
                  ]
                }
              ]
            }
          ],
          "assessmentBox": false
        }
      ],
      "btnLugar": [
        {
          "classModifier": "g-block",
          "button": [
            {
              "classModifier": "g-btn-primary g-btn-outline g-btn-with-icon--dropdown g-block",
              "type": "button",
              "textButton": "Hoteles y centros de convenciones (1)",
              "classIcon": "la la-angle-down"
            }
          ],
          "list": false,
          "listCheckbox": [
            {
              "classModifier": "g-dropDown--list",
              "listElements": [
                {
                  "liClass": "",
                  "checkbox": [
                    {
                      "className": "g-checkbox",
                      "type": "checkbox",
                      "name": "nInputCheckbox",
                      "labelText": "Defaul text"
                    }
                  ]
                },
                {
                  "liClass": "",
                  "checkbox": [
                    {
                      "className": "g-checkbox",
                      "type": "checkbox",
                      "name": "nInputCheckbox",
                      "labelText": "Defaul text"
                    }
                  ]
                },
                {
                  "liClass": "",
                  "checkbox": [
                    {
                      "className": "g-checkbox",
                      "type": "checkbox",
                      "name": "nInputCheckbox",
                      "labelText": "Defaul text"
                    }
                  ]
                },
                {
                  "liClass": "",
                  "checkbox": [
                    {
                      "className": "g-checkbox",
                      "type": "checkbox",
                      "name": "nInputCheckbox",
                      "labelText": "Defaul text"
                    }
                  ]
                },
                {
                  "liClass": "",
                  "checkbox": [
                    {
                      "className": "g-checkbox",
                      "type": "checkbox",
                      "name": "nInputCheckbox",
                      "labelText": "Defaul text"
                    }
                  ]
                },
                {
                  "liClass": "",
                  "checkbox": [
                    {
                      "className": "g-checkbox",
                      "type": "checkbox",
                      "name": "nInputCheckbox",
                      "labelText": "Defaul text"
                    }
                  ]
                }
              ]
            }
          ],
          "assessmentBox": false
        }
      ],
      "btnCapacidad": [
        {
          "classModifier": "g-block",
          "button": [
            {
              "classModifier": "g-btn-primary g-btn-outline g-btn-with-icon--dropdown g-block",
              "type": "button",
              "textButton": "Capacidad (14 - 250)",
              "classIcon": "la-angle-down"
            }
          ],
          "list": false,
          "assessmentBox": false,
          "capacidadBox": [
            {
              "classModifier": "g-dropDown--capacidad",
              "button": [
                {
                  "classModifier": "g-btn-outline g-block",
                  "type": "button",
                  "textButton": "Aplicar"
                }
              ]
            }
          ]
        }
      ],
      "btnLimpiar": [
        {
          "link": "#",
          "modifierClass": "g-link-icon-static",
          "iconLeft": false,
          "text": "Limpiar",
          "iconRight": [
            {
              "class": "la la-trash"
            }
          ]
        }
      ]
    }
  ],
  "boxTable": [
    {
      "classModifier": "g-bgc-white pb-4",
      "table": [
        {
          "modifierClass": "",
          "tableModifierClass": "",
          "tableHead": [
            {
              "tableHeadItem": [
                {
                  "tableHeadItemAttribute": "",
                  "text": [
                    {
                      "tag": "span",
                      "modifierClass": "",
                      "inlineStyle": "",
                      "text": "Salas"
                    }
                  ]
                },
                {
                  "tableHeadItemAttribute": "",
                  "iconTable": [
                    {
                      "classModifier": "",
                      "icon": [
                        {
                          "class": "caicon-theater",
                          "inlineStyle": ""
                        }
                      ],
                      "text": [
                        {
                          "tag": "span",
                          "modifierClass": "",
                          "inlineStyle": "",
                          "text": "m2"
                        }
                      ]
                    }
                  ]
                },
                {
                  "tableHeadItemAttribute": "",
                  "iconTable": [
                    {
                      "classModifier": "",
                      "icon": [
                        {
                          "class": "caicon-theater",
                          "inlineStyle": ""
                        }
                      ],
                      "text": [
                        {
                          "tag": "span",
                          "modifierClass": "",
                          "inlineStyle": "",
                          "text": "Largo"
                        }
                      ]
                    }
                  ]
                },
                {
                  "tableHeadItemAttribute": "",
                  "iconTable": [
                    {
                      "classModifier": "",
                      "icon": [
                        {
                          "class": "caicon-theater",
                          "inlineStyle": ""
                        }
                      ],
                      "text": [
                        {
                          "tag": "span",
                          "modifierClass": "",
                          "inlineStyle": "",
                          "text": "Ancho"
                        }
                      ]
                    }
                  ]
                },
                {
                  "tableHeadItemAttribute": "",
                  "iconTable": [
                    {
                      "classModifier": "",
                      "icon": [
                        {
                          "class": "caicon-theater",
                          "inlineStyle": ""
                        }
                      ],
                      "text": [
                        {
                          "tag": "span",
                          "modifierClass": "",
                          "inlineStyle": "",
                          "text": "Alto"
                        }
                      ]
                    }
                  ]
                },
                {
                  "tableHeadItemAttribute": "",
                  "iconTable": [
                    {
                      "classModifier": "",
                      "icon": [
                        {
                          "class": "caicon-theater",
                          "inlineStyle": ""
                        }
                      ],
                      "text": [
                        {
                          "tag": "span",
                          "modifierClass": "",
                          "inlineStyle": "",
                          "text": "Teatro / Auditorio"
                        }
                      ]
                    }
                  ]
                },
                {
                  "tableHeadItemAttribute": "",
                  "iconTable": [
                    {
                      "classModifier": "",
                      "icon": [
                        {
                          "class": "caicon-theater",
                          "inlineStyle": ""
                        }
                      ],
                      "text": [
                        {
                          "tag": "span",
                          "modifierClass": "",
                          "inlineStyle": "",
                          "text": "Escuela / Aula"
                        }
                      ]
                    }
                  ]
                },
                {
                  "tableHeadItemAttribute": "",
                  "iconTable": [
                    {
                      "classModifier": "",
                      "icon": [
                        {
                          "class": "caicon-theater",
                          "inlineStyle": ""
                        }
                      ],
                      "text": [
                        {
                          "tag": "span",
                          "modifierClass": "",
                          "inlineStyle": "",
                          "text": "Cena / Banquete"
                        }
                      ]
                    }
                  ]
                },
                {
                  "tableHeadItemAttribute": "",
                  "iconTable": [
                    {
                      "classModifier": "",
                      "icon": [
                        {
                          "class": "caicon-theater",
                          "inlineStyle": ""
                        }
                      ],
                      "text": [
                        {
                          "tag": "span",
                          "modifierClass": "",
                          "inlineStyle": "",
                          "text": "Directorio / 'U'"
                        }
                      ]
                    }
                  ]
                },
                {
                  "tableHeadItemAttribute": "",
                  "iconTable": [
                    {
                      "classModifier": "",
                      "icon": [
                        {
                          "class": "caicon-theater",
                          "inlineStyle": ""
                        }
                      ],
                      "text": [
                        {
                          "tag": "span",
                          "modifierClass": "",
                          "inlineStyle": "",
                          "text": "Cocktail"
                        }
                      ]
                    }
                  ]
                }
              ]
            }
          ],
          "tableBody": [
            {
              "tableBodyRow": [
                {
                  "tableBodyRowItem": [
                    {
                      "tableBodyRowItemAttibute": "",
                      "text": [
                        {
                          "tag": "span",
                          "modifierClass": "",
                          "inlineStyle": "",
                          "text": "Directorio"
                        }
                      ]
                    },
                    {
                      "tableBodyRowItemAttibute": "",
                      "text": [
                        {
                          "tag": "span",
                          "modifierClass": "",
                          "inlineStyle": "",
                          "text": "31"
                        }
                      ]
                    },
                    {
                      "tableBodyRowItemAttibute": "",
                      "text": [
                        {
                          "tag": "span",
                          "modifierClass": "",
                          "inlineStyle": "",
                          "text": "5.5"
                        }
                      ]
                    },
                    {
                      "tableBodyRowItemAttibute": "",
                      "text": [
                        {
                          "tag": "span",
                          "modifierClass": "",
                          "inlineStyle": "",
                          "text": "5.5"
                        }
                      ]
                    },
                    {
                      "tableBodyRowItemAttibute": "",
                      "text": [
                        {
                          "tag": "span",
                          "modifierClass": "",
                          "inlineStyle": "",
                          "text": "5.5"
                        }
                      ]
                    },
                    {
                      "tableBodyRowItemAttibute": "",
                      "text": [
                        {
                          "tag": "span",
                          "modifierClass": "",
                          "inlineStyle": "",
                          "text": "5.5"
                        }
                      ]
                    },
                    {
                      "tableBodyRowItemAttibute": "",
                      "text": [
                        {
                          "tag": "span",
                          "modifierClass": "",
                          "inlineStyle": "",
                          "text": "5.5"
                        }
                      ]
                    },
                    {
                      "tableBodyRowItemAttibute": "",
                      "text": [
                        {
                          "tag": "span",
                          "modifierClass": "",
                          "inlineStyle": "",
                          "text": "5.5"
                        }
                      ]
                    },
                    {
                      "tableBodyRowItemAttibute": "",
                      "text": [
                        {
                          "tag": "span",
                          "modifierClass": "",
                          "inlineStyle": "",
                          "text": "5.5"
                        }
                      ]
                    },
                    {
                      "tableBodyRowItemAttibute": "",
                      "text": [
                        {
                          "tag": "span",
                          "modifierClass": "",
                          "inlineStyle": "",
                          "text": "5.5"
                        }
                      ]
                    }
                  ]
                }
              ]
            }
          ]
        }
      ],
      "button": [
        {
          "classModifier": "g-btn-primary g-block",
          "type": "button",
          "inlineStyle": "",
          "textButton": "Cotizar"
        }
      ]
    }
  ]
}
