{
  "classModifier": "g-box-shadow3 g-box--promociones",
  "urlImage": "https://placehold.it/350x280",
  "tag": [
    {
      "classModifier": "g-tag-type",
      "inlineStyle": "style='background-color: #01a236;'",
      "text": [
        {
          "tag": "span",
          "modifierClass": false,
          "text": "Sama"
        }
      ]
    }
  ],
  "info": [
    {
      "title": [
        {
          "tag": "h3",
          "modifierClass": "g-fs-30 g-f-nexa-slab g-fw-book",
          "text": "Casa Andina Premium Valle Sagrado Hotel & Villas"
        }
      ],
      "text": [
        {
          "tag": "p",
          "modifierClass": "",
          "text": "Casa Andina Standard Trujillo Plaza ha sido totalmente remodelado, cuenta con una ubicación estratégica a tan solo 1 cuadra de la Plaza de Armas de Trujillo y a 25 minutos del aeropuerto. Con 46 cómodas y funcionales habitaciones es el hotel ideal para ejecutivos y viajeros."
        }
      ]
    }
  ],
  "price": [
    {
      "content": [
        {
          "tag": "p",
          "modifierClass": "g-fw-bold g-block",
          "text": "Desde <span class='g-fw-normal g-fs-30'><small>S/</small>337</span>"
        }
      ],
      "button": [
        {
          "classModifier": "g-btn-primary g-btn-fat g-block",
          "type": "button",
          "textButton": "Reservar"
        }
      ],
      "link": [
        {
          "link": "#",
          "modifierClass": "g-link-icon-right mt-2",
          "iconLeft": false,
          "text": "Terminos y condiciones",
          "iconRight": [
            {
              "class": "la la-arrow-right"
            }
          ]
        }
      ]
    }
  ]
}
