{
  "navContactClass": "s-nav-sublist",
  "navContactItem": [
    {
      "navContactItemLink": "tel:5113916500",
      "icon": [
        {
          "class": "la la-phone",
          "inlineStyle": ""
        }
      ],
      "text": [
        {
          "tag": "span",
          "modifierClass": "",
          "inlineStyle": "",
          "text": "+51 3916500"
        }
      ]
    },
    {
      "navContactItemLink": "#",
      "icon": [
        {
          "class": "la la-envelope",
          "inlineStyle": ""
        }
      ],
      "text": [
        {
          "tag": "span",
          "modifierClass": "",
          "inlineStyle": "",
          "text": "Formulario de contacto"
        }
      ]
    }
  ]
}
