{
  "modifierClass": "g-bgc-gray7",
  "tab": [
    {
      "modifierClass": "",
      "tabNav": [
        {
          "modifierClass": "s-tab-nav--buttons",
          "tabNavItem": [
            {
              "modifierClass": "",
              "button": [
                {
                  "classModifier": "g-btn-outline g-btn-outline--black g-block",
                  "type": "button",
                  "textButton": "Ver Hoteles"
                }
              ]
            },
            {
              "modifierClass": "",
              "button": [
                {
                  "classModifier": "g-btn-outline g-btn-outline--black g-block active",
                  "type": "button",
                  "textButton": "Ver Mapa"
                }
              ]
            },
            {
              "modifierClass": "",
              "button": [
                {
                  "classModifier": "g-btn-outline g-btn-outline--black g-block",
                  "type": "button",
                  "textButton": "Ver Circuitos"
                }
              ]
            }
          ]
        }
      ],
      "tabPane": [
        {
          "modifierClass": "active",
          "tabVerCircuitos": [
            {
              "mapWithDetail": [
                {
                  "modifierClass": "",
                  "map": [
                    {
                      "modifierClass": "",
                      "img": [
                        {
                          "classModifier": "g-img-fluid",
                          "src": "../../images/mapa.svg",
                          "alt": ""
                        }
                      ],
                      "mapCircuit": [
                        {
                          "modifierClass": "active",
                          "mapRoad": [
                            {
                              "modifierClass": "s-map-road--nor",
                              "roadImg": [
                                {
                                  "classModifier": "",
                                  "src": "../../images/circuito-1.png",
                                  "alt": ""
                                }
                              ]
                            }
                          ],
                          "mapItem": [
                            {
                              "modifierClass": "s-map-item--tum",
                              "mapLink": [
                                {
                                  "modifierClass": "circuit",
                                  "icon": [
                                    {
                                      "class": "caicon-pin",
                                      "inlineStyle": "style='color: #d69c4f;'"
                                    }
                                  ]
                                }
                              ],
                              "name": [
                                {
                                  "tag": "span",
                                  "modifierClass": "",
                                  "text": "Zorritos Tumbes"
                                }
                              ]
                            },
                            {
                              "modifierClass": "s-map-item--tal",
                              "mapLink": [
                                {
                                  "modifierClass": "circuit",
                                  "icon": [
                                    {
                                      "class": "caicon-pin",
                                      "inlineStyle": "style='color: #d69c4f;'"
                                    }
                                  ]
                                }
                              ],
                              "name": [
                                {
                                  "tag": "span",
                                  "modifierClass": "",
                                  "text": "Talara"
                                }
                              ]
                            },
                            {
                              "modifierClass": "s-map-item--piu",
                              "mapLink": [
                                {
                                  "modifierClass": "circuit",
                                  "icon": [
                                    {
                                      "class": "caicon-pin",
                                      "inlineStyle": "style='color: #d69c4f;'"
                                    }
                                  ]
                                }
                              ],
                              "name": [
                                {
                                  "tag": "span",
                                  "modifierClass": "",
                                  "text": "Piura"
                                }
                              ]
                            },
                            {
                              "modifierClass": "s-map-item--cix",
                              "mapLink": [
                                {
                                  "modifierClass": "circuit",
                                  "icon": [
                                    {
                                      "class": "caicon-pin",
                                      "inlineStyle": "style='color: #d69c4f;'"
                                    }
                                  ]
                                }
                              ],
                              "name": [
                                {
                                  "tag": "span",
                                  "modifierClass": "",
                                  "text": "Chiclayo"
                                }
                              ]
                            },
                            {
                              "modifierClass": "s-map-item--tru",
                              "mapLink": [
                                {
                                  "modifierClass": "circuit",
                                  "icon": [
                                    {
                                      "class": "caicon-pin",
                                      "inlineStyle": "style='color: #d69c4f;'"
                                    }
                                  ]
                                }
                              ],
                              "name": [
                                {
                                  "tag": "span",
                                  "modifierClass": "",
                                  "text": "Trujillo"
                                }
                              ]
                            }
                          ]
                        },
                        {
                          "modifierClass": "",
                          "mapRoad": [
                            {
                              "modifierClass": "s-map-road--lim",
                              "roadImg": [
                                {
                                  "classModifier": "",
                                  "src": "../../images/circuito-2.png",
                                  "alt": ""
                                }
                              ]
                            }
                          ],
                          "mapItem": [
                            {
                              "modifierClass": "s-map-item--lim",
                              "mapLink": [
                                {
                                  "modifierClass": "circuit",
                                  "icon": [
                                    {
                                      "class": "caicon-pin",
                                      "inlineStyle": "style='color: #d69c4f;'"
                                    }
                                  ]
                                }
                              ],
                              "name": [
                                {
                                  "tag": "span",
                                  "modifierClass": "",
                                  "text": "Lima"
                                }
                              ]
                            },
                            {
                              "modifierClass": "s-map-item--chi",
                              "mapLink": [
                                {
                                  "modifierClass": "circuit",
                                  "icon": [
                                    {
                                      "class": "caicon-pin",
                                      "inlineStyle": "style='color: #d69c4f;'"
                                    }
                                  ]
                                }
                              ],
                              "name": [
                                {
                                  "tag": "span",
                                  "modifierClass": "",
                                  "text": "Chincha"
                                }
                              ]
                            },
                            {
                              "modifierClass": "s-map-item--naz",
                              "mapLink": [
                                {
                                  "modifierClass": "circuit",
                                  "icon": [
                                    {
                                      "class": "caicon-pin",
                                      "inlineStyle": "style='color: #d69c4f;'"
                                    }
                                  ]
                                }
                              ],
                              "name": [
                                {
                                  "tag": "span",
                                  "modifierClass": "",
                                  "text": "Nazca"
                                }
                              ]
                            }
                          ]
                        },
                        {
                          "modifierClass": "",
                          "mapRoad": [
                            {
                              "modifierClass": "s-map-road--sur",
                              "roadImg": [
                                {
                                  "classModifier": "",
                                  "src": "../../images/circuito-3.png",
                                  "alt": ""
                                }
                              ]
                            }
                          ],
                          "mapItem": [
                            {
                              "modifierClass": "s-map-item--col",
                              "mapLink": [
                                {
                                  "modifierClass": "circuit",
                                  "icon": [
                                    {
                                      "class": "caicon-pin",
                                      "inlineStyle": "style='color: #d69c4f;'"
                                    }
                                  ]
                                }
                              ],
                              "name": [
                                {
                                  "tag": "span",
                                  "modifierClass": "",
                                  "text": "Colca"
                                }
                              ]
                            },
                            {
                              "modifierClass": "s-map-item--aqp",
                              "mapLink": [
                                {
                                  "modifierClass": "circuit",
                                  "icon": [
                                    {
                                      "class": "caicon-pin",
                                      "inlineStyle": "style='color: #d69c4f;'"
                                    }
                                  ]
                                }
                              ],
                              "name": [
                                {
                                  "tag": "span",
                                  "modifierClass": "",
                                  "text": "Arequipa"
                                }
                              ]
                            },
                            {
                              "modifierClass": "s-map-item--moq",
                              "mapLink": [
                                {
                                  "modifierClass": "circuit",
                                  "icon": [
                                    {
                                      "class": "caicon-pin",
                                      "inlineStyle": "style='color: #d69c4f;'"
                                    }
                                  ]
                                }
                              ],
                              "name": [
                                {
                                  "tag": "span",
                                  "modifierClass": "",
                                  "text": "Moquegua"
                                }
                              ]
                            },
                            {
                              "modifierClass": "s-map-item--tac",
                              "mapLink": [
                                {
                                  "modifierClass": "circuit",
                                  "icon": [
                                    {
                                      "class": "caicon-pin",
                                      "inlineStyle": "style='color: #d69c4f;'"
                                    }
                                  ]
                                }
                              ],
                              "name": [
                                {
                                  "tag": "span",
                                  "modifierClass": "",
                                  "text": "Tacna"
                                }
                              ]
                            },
                            {
                              "modifierClass": "s-map-item--pun",
                              "mapLink": [
                                {
                                  "modifierClass": "circuit",
                                  "icon": [
                                    {
                                      "class": "caicon-pin",
                                      "inlineStyle": "style='color: #d69c4f;'"
                                    }
                                  ]
                                }
                              ],
                              "name": [
                                {
                                  "tag": "span",
                                  "modifierClass": "",
                                  "text": "Puno"
                                }
                              ]
                            }
                          ]
                        },
                        {
                          "modifierClass": "",
                          "mapRoad": [
                            {
                              "modifierClass": "s-map-road--cus",
                              "roadImg": [
                                {
                                  "classModifier": "",
                                  "src": "../../images/circuito-4.png",
                                  "alt": ""
                                }
                              ]
                            }
                          ],
                          "mapItem": [
                            {
                              "modifierClass": "s-map-item--mac",
                              "mapLink": [
                                {
                                  "modifierClass": "circuit",
                                  "icon": [
                                    {
                                      "class": "caicon-pin",
                                      "inlineStyle": "style='color: #d69c4f;'"
                                    }
                                  ]
                                }
                              ],
                              "name": [
                                {
                                  "tag": "span",
                                  "modifierClass": "",
                                  "text": "Aguas Calientes - Machu Piccho"
                                }
                              ]
                            },
                            {
                              "modifierClass": "s-map-item--val",
                              "mapLink": [
                                {
                                  "modifierClass": "circuit",
                                  "icon": [
                                    {
                                      "class": "caicon-pin",
                                      "inlineStyle": "style='color: #d69c4f;'"
                                    }
                                  ]
                                }
                              ],
                              "name": [
                                {
                                  "tag": "span",
                                  "modifierClass": "",
                                  "text": "Valle Sagrado"
                                }
                              ]
                            },
                            {
                              "modifierClass": "s-map-item--cus",
                              "mapLink": [
                                {
                                  "modifierClass": "circuit",
                                  "icon": [
                                    {
                                      "class": "caicon-pin",
                                      "inlineStyle": "style='color: #d69c4f;'"
                                    }
                                  ]
                                }
                              ],
                              "name": [
                                {
                                  "tag": "span",
                                  "modifierClass": "",
                                  "text": "Cusco"
                                }
                              ]
                            }
                          ]
                        }
                      ]
                    }
                  ],
                  "mapDetail": [
                    {
                      "modifierClass": "",
                      "title": false,
                      "text": false,
                      "list": false,
                      "hotelDetail": [
                        {
                          "img": [
                            {
                              "classModifier": "",
                              "src": "https://placehold.it/400x150",
                              "alt": ""
                            }
                          ],
                          "assessment": false,
                          "text": [
                            {
                              "tag": "h3",
                              "modifierClass": "g-f-nexa-slab g-fw-book g-fs-24 g-fs-md-30",
                              "text": "Circuito Norte o Moche"
                            },
                            {
                              "tag": "p",
                              "modifierClass": "mb-2",
                              "text": "Lorem Ipsum ha sido el texto de relleno estándar de las industrias desde el año 1500."
                            }
                          ],
                          "link": false,
                          "circuitList": [
                            {
                              "modifierClass": "",
                              "item": [
                                {
                                  "text": "Zorritos Tumbes"
                                },
                                {
                                  "text": "Talara"
                                },
                                {
                                  "text": "Piura"
                                },
                                {
                                  "text": "Chiclayo"
                                },
                                {
                                  "text": "Trujillo"
                                }
                              ]
                            }
                          ],
                          "button": false
                        }
                      ]
                    }
                  ]
                }
              ]
            }
          ]
        }
      ]
    }
  ]
}
