{
  "classModifier": "g-height-550",
  "fog": [
    {
      "classModifier": "",
      "link": [
        {
          "link": "#",
          "modifierClass": "g-link-icon-right",
          "iconLeft": false,
          "text": "Ver experiencia",
          "iconRight": [
            {
              "class": "la la-arrow-right"
            }
          ]
        }
      ],
      "button": [
        {
          "classModifier": "g-btn-primary g-btn-fat g-block mt-2-5",
          "type": "button",
          "textButton": "Reservar"
        }
      ],
      "share": [
        {
          "classModifier": "mt-2",
          "text": [
            {
              "tag": "span",
              "modifierClass": " g-text-uppercase",
              "text": "Compartir:"
            }
          ],
          "nav": [
            {
              "items": [
                {
                  "liClass": "g-nav-item",
                  "link": "#",
                  "iconClass": "la la-facebook-official"
                },
                {
                  "liClass": "g-nav-item",
                  "link": "#",
                  "iconClass": "la la-twitter"
                },
                {
                  "liClass": "g-nav-item",
                  "link": "#",
                  "iconClass": "la la-instagram"
                }
              ]
            }
          ]
        }
      ]
    }
  ],
  "tag": [
    {
      "classModifier": "g-tag-type",
      "inlineStyle": "style='background-color: #ff4200;'",
      "text": [
        {
          "tag": "span",
          "modifierClass": false,
          "text": "Standard"
        }
      ]
    }
  ],
  "tagSale": false,
  "urlImage": "../../images/bkg-card.jpg",
  "info": [
    {
      "salePlaceText": [
        {
          "tag": "span",
          "modifierClass": "",
          "text": "Casa Andina Standard Miraflores San Antonio"
        }
      ],
      "saleInfoText": [
        {
          "tag": "p",
          "modifierClass": "",
          "text": "Reserva 3 días y te bonificamos el día 4"
        }
      ],
      "experienceInfoText": false
    }
  ]
}
