{
  "header": [
    {
      "logo": [
        {
          "src": "../../images/ca-brand-white.png",
          "alt": "Logo Casa Andina"
        }
      ],
      "profileInfo": [
        {
          "iconClass": "la la-user",
          "name": "Jose Herrera Nevado",
          "role": "Administrador",
          "profileInfoDropdown": [
            {
              "modifierClass": "",
              "dropdownListItem": [
                {
                  "dropdownListIcon": [
                    {
                      "class": "la la-user"
                    }
                  ],
                  "dropdownListText": "Perfil"
                },
                {
                  "dropdownListIcon": [
                    {
                      "class": "la la-cog"
                    }
                  ],
                  "dropdownListText": "Configuración General"
                },
                {
                  "dropdownListIcon": [
                    {
                      "class": "la la-lock"
                    }
                  ],
                  "dropdownListText": "Cambiar Contraseña"
                }
              ]
            }
          ]
        }
      ],
      "profileLogout": [
        {
          "url": "#",
          "iconClass": "la la-sign-out",
          "text": "Cerrar sesión"
        }
      ]
    }
  ],
  "sidebar": [
    {
      "mainMenu": [
        {
          "itemMenu": [
            {
              "anchor": [
                {
                  "url": "#",
                  "modifierClass": "",
                  "icon": [
                    {
                      "class": "la la-home"
                    }
                  ],
                  "text": "Home"
                }
              ]
            },
            {
              "anchor": [
                {
                  "url": "#",
                  "modifierClass": "",
                  "icon": [
                    {
                      "class": "la la-list"
                    }
                  ],
                  "text": "Menu"
                }
              ]
            },
            {
              "anchor": [
                {
                  "url": "#",
                  "modifierClass": "active",
                  "icon": [
                    {
                      "class": "la la-file-text"
                    }
                  ],
                  "text": "Páginas"
                }
              ]
            },
            {
              "anchor": [
                {
                  "url": "#",
                  "modifierClass": "",
                  "icon": [
                    {
                      "class": "la la-laptop"
                    }
                  ],
                  "text": "Administrar usuarios y roles"
                }
              ]
            },
            {
              "anchor": [
                {
                  "url": "#",
                  "modifierClass": "",
                  "icon": [
                    {
                      "class": "la la-file-code-o"
                    }
                  ],
                  "text": "Páginas Error"
                }
              ]
            },
            {
              "anchor": [
                {
                  "url": "#",
                  "modifierClass": "",
                  "icon": [
                    {
                      "class": "la la-users"
                    }
                  ],
                  "text": "Suscriptores"
                }
              ]
            },
            {
              "anchor": [
                {
                  "url": "#",
                  "modifierClass": "",
                  "icon": [
                    {
                      "class": "la la-tags"
                    }
                  ],
                  "text": "Promociones"
                }
              ]
            },
            {
              "anchor": [
                {
                  "url": "#",
                  "modifierClass": "",
                  "icon": [
                    {
                      "class": "la la-building"
                    }
                  ],
                  "text": "Hoteles"
                }
              ]
            },
            {
              "anchor": [
                {
                  "url": "#",
                  "modifierClass": "",
                  "icon": [
                    {
                      "class": "la la-map-marker"
                    }
                  ],
                  "text": "Destinos"
                }
              ]
            },
            {
              "anchor": [
                {
                  "url": "#",
                  "modifierClass": "",
                  "icon": [
                    {
                      "class": "la la-cutlery"
                    }
                  ],
                  "text": "Restaurantes"
                }
              ]
            },
            {
              "anchor": [
                {
                  "url": "#",
                  "modifierClass": "",
                  "icon": [
                    {
                      "class": "la la-glass"
                    }
                  ],
                  "text": "Eventos"
                }
              ]
            },
            {
              "anchor": [
                {
                  "url": "#",
                  "modifierClass": "",
                  "icon": [
                    {
                      "class": "la la-image"
                    }
                  ],
                  "text": "Multimedia"
                }
              ]
            }
          ]
        }
      ]
    }
  ],
  "mainNotification": [
    {
      "modifierClass": "g-main-notification-success active",
      "icon": [
        {
          "class": "la la-check-circle"
        }
      ],
      "text": [
        {
          "tag": "span",
          "modifierClass": "",
          "text": "Se añadio usuario de manera correcta"
        }
      ]
    }
  ],
  "navTabsAndButton": [
    {
      "modifierClass": "",
      "col": [
        {
          "colClass": "col px-3 text-right",
          "buttonWithIcon": [
            {
              "classModifier": "g-btn-primary g-btn-icon-left",
              "type": "button",
              "textButton": "Crear Página",
              "classIcon": "la-plus-circle"
            }
          ]
        }
      ]
    }
  ],
  "principalTitle": [
    {
      "modifierCLass": "mb-2",
      "col": [
        {
          "colClass": "col-auto",
          "heading": [
            {
              "tag": "h1",
              "modifierClass": "c-heading-title",
              "text": "Publicaciones"
            }
          ]
        },
        {
          "colClass": "col",
          "rowInner": [
            {
              "colInner": [
                {
                  "colInnerClass": "col-auto",
                  "buttonSelect": [
                    {
                      "classModifier": "",
                      "textButton": "Secciones",
                      "buttonSelectIcon": [
                        {
                          "class": "la la-bars"
                        }
                      ]
                    }
                  ]
                },
                {
                  "colInnerClass": "col-auto",
                  "buttonSelect": [
                    {
                      "classModifier": "",
                      "textButton": "Usuarios",
                      "buttonSelectIcon": [
                        {
                          "class": "la la-user"
                        }
                      ]
                    }
                  ]
                },
                {
                  "colInnerClass": "col-auto",
                  "buttonSelect": [
                    {
                      "classModifier": "active",
                      "textButton": "Estados",
                      "buttonSelectIcon": [
                        {
                          "class": "la la-tag"
                        }
                      ],
                      "checkboxList": [
                        {
                          "item": [
                            {
                              "className": "g-checkbox",
                              "type": "checkbox",
                              "name": "nCheckboxList",
                              "labelText": "Publicadas"
                            },
                            {
                              "className": "g-checkbox",
                              "type": "checkbox",
                              "name": "nCheckboxList",
                              "labelText": "En edición"
                            },
                            {
                              "className": "g-checkbox",
                              "type": "checkbox",
                              "name": "nCheckboxList",
                              "labelText": "En espera"
                            },
                            {
                              "className": "g-checkbox",
                              "type": "checkbox",
                              "name": "nCheckboxList",
                              "labelText": "Papelera"
                            }
                          ]
                        }
                      ]
                    }
                  ]
                },
                {
                  "colInnerClass": "col-auto",
                  "buttonSelect": [
                    {
                      "classModifier": "",
                      "textButton": "Desde - Hasta",
                      "buttonSelectIcon": [
                        {
                          "class": "la la-calendar"
                        }
                      ]
                    }
                  ]
                }
              ]
            }
          ]
        },
        {
          "colClass": "col-auto text-right",
          "buttonDefault": [
            {
              "classModifier": "g-btn-outline g-btn-outline--blue",
              "type": "button",
              "textButton": "Aplicar"
            },
            {
              "classModifier": "g-btn-outline g-btn-outline--gray",
              "type": "button",
              "textButton": "Limpiar"
            }
          ]
        }
      ]
    }
  ],
  "summaryPages": [
    {
      "column": [
        {
          "colClass": "col-3",
          "cardPageInfo": [
            {
              "breadcrumb": [
                {
                  "marginClass": "",
                  "items": [
                    {
                      "item": "Home"
                    }
                  ]
                }
              ],
              "pageTitle": [
                {
                  "tag": "h4",
                  "modifierClass": "g-fs-15 mb-0",
                  "text": "Inicio"
                }
              ]
            }
          ]
        },
        {
          "colClass": "col-2 pl-0",
          "cardInfo": [
            {
              "title": "Última actualización",
              "infoWithIcon": [
                {
                  "iconClass": "la la-calendar",
                  "text": "15/10/2018"
                },
                {
                  "iconClass": "la la-user",
                  "text": "Hugo Torres Herrera"
                }
              ]
            }
          ]
        },
        {
          "colClass": "col-2",
          "cardInfo": [
            {
              "title": "Estado",
              "badge": [
                {
                  "modifierClass": "g-badge-success",
                  "text": "Publicada"
                }
              ]
            }
          ]
        },
        {
          "colClass": "col-2",
          "cardInfo": [
            {
              "title": "Idioma",
              "infoWithIcon": [
                {
                  "iconClass": "la la-language",
                  "text": "Inglés / Español / Portugués"
                }
              ]
            }
          ]
        },
        {
          "colClass": "col-3 text-right",
          "squareBtn": [
            {
              "type": "button",
              "classModifier": "",
              "iconClass": "la la-eye",
              "text": "Ver"
            },
            {
              "type": "button",
              "classModifier": "",
              "iconClass": "la la-edit",
              "text": "Editar"
            }
          ]
        }
      ]
    },
    {
      "column": [
        {
          "colClass": "col-3",
          "cardPageInfo": [
            {
              "breadcrumb": [
                {
                  "marginClass": "",
                  "items": [
                    {
                      "item": "Home"
                    }
                  ]
                }
              ],
              "pageTitle": [
                {
                  "tag": "h4",
                  "modifierClass": "g-fs-15 mb-0",
                  "text": "Ver todos los destinos"
                }
              ]
            }
          ]
        },
        {
          "colClass": "col-2 pl-0",
          "cardInfo": [
            {
              "title": "Última actualización",
              "infoWithIcon": [
                {
                  "iconClass": "la la-calendar",
                  "text": "15/10/2018"
                },
                {
                  "iconClass": "la la-user",
                  "text": "Hugo Torres Herrera"
                }
              ]
            }
          ]
        },
        {
          "colClass": "col-2",
          "cardInfo": [
            {
              "title": "Estado",
              "badge": [
                {
                  "modifierClass": "g-badge-success",
                  "text": "Publicada"
                }
              ]
            }
          ]
        },
        {
          "colClass": "col-2",
          "cardInfo": [
            {
              "title": "Idioma",
              "infoWithIcon": [
                {
                  "iconClass": "la la-language",
                  "text": "Inglés / Español / Portugués"
                }
              ]
            }
          ]
        },
        {
          "colClass": "col-3 text-right",
          "squareBtn": [
            {
              "type": "button",
              "classModifier": "",
              "iconClass": "la la-eye",
              "text": "Ver"
            },
            {
              "type": "button",
              "classModifier": "",
              "iconClass": "la la-edit",
              "text": "Editar"
            }
          ]
        }
      ]
    },
    {
      "column": [
        {
          "colClass": "col-3",
          "cardPageInfo": [
            {
              "breadcrumb": [
                {
                  "marginClass": "",
                  "items": [
                    {
                      "item": "Destinos"
                    }
                  ]
                }
              ],
              "pageTitle": [
                {
                  "tag": "h4",
                  "modifierClass": "g-fs-15 mb-0",
                  "text": "Arequipa"
                }
              ]
            }
          ]
        },
        {
          "colClass": "col-2 pl-0",
          "cardInfo": [
            {
              "title": "Última actualización",
              "infoWithIcon": [
                {
                  "iconClass": "la la-calendar",
                  "text": "15/10/2018"
                },
                {
                  "iconClass": "la la-user",
                  "text": "Hugo Torres Herrera"
                }
              ]
            }
          ]
        },
        {
          "colClass": "col-2",
          "cardInfo": [
            {
              "title": "Estado",
              "badge": [
                {
                  "modifierClass": "g-badge-success",
                  "text": "Publicada"
                }
              ]
            }
          ]
        },
        {
          "colClass": "col-2",
          "cardInfo": [
            {
              "title": "Idioma",
              "infoWithIcon": [
                {
                  "iconClass": "la la-language",
                  "text": "Inglés / Español / Portugués"
                }
              ]
            }
          ]
        },
        {
          "colClass": "col-3 text-right",
          "squareBtn": [
            {
              "type": "button",
              "classModifier": "",
              "iconClass": "la la-eye",
              "text": "Ver"
            },
            {
              "type": "button",
              "classModifier": "",
              "iconClass": "la la-edit",
              "text": "Editar"
            }
          ]
        }
      ]
    },
    {
      "column": [
        {
          "colClass": "col-3",
          "cardPageInfo": [
            {
              "breadcrumb": [
                {
                  "marginClass": "",
                  "items": [
                    {
                      "item": "Premium"
                    }
                  ]
                }
              ],
              "pageTitle": [
                {
                  "tag": "h4",
                  "modifierClass": "g-fs-15 mb-0",
                  "text": "Valle Sagrado Hotel & Villas"
                }
              ]
            }
          ]
        },
        {
          "colClass": "col-2 pl-0",
          "cardInfo": [
            {
              "title": "Última actualización",
              "infoWithIcon": [
                {
                  "iconClass": "la la-calendar",
                  "text": "15/10/2018"
                },
                {
                  "iconClass": "la la-user",
                  "text": "Hugo Torres Herrera"
                }
              ]
            }
          ]
        },
        {
          "colClass": "col-2",
          "cardInfo": [
            {
              "title": "Estado",
              "badge": [
                {
                  "modifierClass": "g-badge-success",
                  "text": "Publicada"
                }
              ]
            }
          ]
        },
        {
          "colClass": "col-2",
          "cardInfo": [
            {
              "title": "Idioma",
              "infoWithIcon": [
                {
                  "iconClass": "la la-language",
                  "text": "Inglés / Español / Portugués"
                }
              ]
            }
          ]
        },
        {
          "colClass": "col-3 text-right",
          "squareBtn": [
            {
              "type": "button",
              "classModifier": "",
              "iconClass": "la la-eye",
              "text": "Ver"
            },
            {
              "type": "button",
              "classModifier": "",
              "iconClass": "la la-edit",
              "text": "Editar"
            }
          ]
        }
      ]
    },
    {
      "column": [
        {
          "colClass": "col-3",
          "cardPageInfo": [
            {
              "breadcrumb": [
                {
                  "marginClass": "",
                  "items": [
                    {
                      "item": "Promociones"
                    }
                  ]
                }
              ],
              "pageTitle": [
                {
                  "tag": "h4",
                  "modifierClass": "g-fs-15 mb-0",
                  "text": "Semana Santa"
                }
              ]
            }
          ]
        },
        {
          "colClass": "col-2 pl-0",
          "cardInfo": [
            {
              "title": "Última actualización",
              "infoWithIcon": [
                {
                  "iconClass": "la la-calendar",
                  "text": "15/10/2018"
                },
                {
                  "iconClass": "la la-user",
                  "text": "Hugo Torres Herrera"
                }
              ]
            }
          ]
        },
        {
          "colClass": "col-2",
          "cardInfo": [
            {
              "title": "Estado",
              "badge": [
                {
                  "modifierClass": "g-badge-success",
                  "text": "Publicada"
                }
              ]
            }
          ]
        },
        {
          "colClass": "col-2",
          "cardInfo": [
            {
              "title": "Idioma",
              "infoWithIcon": [
                {
                  "iconClass": "la la-language",
                  "text": "Inglés / Español / Portugués"
                }
              ]
            }
          ]
        },
        {
          "colClass": "col-3 text-right",
          "squareBtn": [
            {
              "type": "button",
              "classModifier": "",
              "iconClass": "la la-eye",
              "text": "Ver"
            },
            {
              "type": "button",
              "classModifier": "",
              "iconClass": "la la-edit",
              "text": "Editar"
            }
          ]
        }
      ]
    },
    {
      "column": [
        {
          "colClass": "col-3",
          "cardPageInfo": [
            {
              "breadcrumb": [
                {
                  "marginClass": "",
                  "items": [
                    {
                      "item": "Home"
                    }
                  ]
                }
              ],
              "pageTitle": [
                {
                  "tag": "h4",
                  "modifierClass": "g-fs-15 mb-0",
                  "text": "Restaurantes"
                }
              ]
            }
          ]
        },
        {
          "colClass": "col-2 pl-0",
          "cardInfo": [
            {
              "title": "Última actualización",
              "infoWithIcon": [
                {
                  "iconClass": "la la-calendar",
                  "text": "15/10/2018"
                },
                {
                  "iconClass": "la la-user",
                  "text": "Hugo Torres Herrera"
                }
              ]
            }
          ]
        },
        {
          "colClass": "col-2",
          "cardInfo": [
            {
              "title": "Estado",
              "badge": [
                {
                  "modifierClass": "g-badge-success",
                  "text": "Publicada"
                }
              ]
            }
          ]
        },
        {
          "colClass": "col-2",
          "cardInfo": [
            {
              "title": "Idioma",
              "infoWithIcon": [
                {
                  "iconClass": "la la-language",
                  "text": "Inglés / Español / Portugués"
                }
              ]
            }
          ]
        },
        {
          "colClass": "col-3 text-right",
          "squareBtn": [
            {
              "type": "button",
              "classModifier": "",
              "iconClass": "la la-eye",
              "text": "Ver"
            },
            {
              "type": "button",
              "classModifier": "",
              "iconClass": "la la-edit",
              "text": "Editar"
            }
          ]
        }
      ]
    },
    {
      "column": [
        {
          "colClass": "col-3",
          "cardPageInfo": [
            {
              "breadcrumb": [
                {
                  "marginClass": "",
                  "items": [
                    {
                      "item": "Restaurantes"
                    }
                  ]
                }
              ],
              "pageTitle": [
                {
                  "tag": "h4",
                  "modifierClass": "g-fs-15 mb-0",
                  "text": "Alma"
                }
              ]
            }
          ]
        },
        {
          "colClass": "col-2 pl-0",
          "cardInfo": [
            {
              "title": "Última actualización",
              "infoWithIcon": [
                {
                  "iconClass": "la la-calendar",
                  "text": "15/10/2018"
                },
                {
                  "iconClass": "la la-user",
                  "text": "Hugo Torres Herrera"
                }
              ]
            }
          ]
        },
        {
          "colClass": "col-2",
          "cardInfo": [
            {
              "title": "Estado",
              "badge": [
                {
                  "modifierClass": "g-badge-success",
                  "text": "Publicada"
                }
              ]
            }
          ]
        },
        {
          "colClass": "col-2",
          "cardInfo": [
            {
              "title": "Idioma",
              "infoWithIcon": [
                {
                  "iconClass": "la la-language",
                  "text": "Inglés / Español / Portugués"
                }
              ]
            }
          ]
        },
        {
          "colClass": "col-3 text-right",
          "squareBtn": [
            {
              "type": "button",
              "classModifier": "",
              "iconClass": "la la-eye",
              "text": "Ver"
            },
            {
              "type": "button",
              "classModifier": "",
              "iconClass": "la la-edit",
              "text": "Editar"
            }
          ]
        }
      ]
    },
    {
      "column": [
        {
          "colClass": "col-3",
          "cardPageInfo": [
            {
              "breadcrumb": [
                {
                  "marginClass": "",
                  "items": [
                    {
                      "item": "Alma"
                    }
                  ]
                }
              ],
              "pageTitle": [
                {
                  "tag": "h4",
                  "modifierClass": "g-fs-15 mb-0",
                  "text": "Premium Miraflores"
                }
              ]
            }
          ]
        },
        {
          "colClass": "col-2 pl-0",
          "cardInfo": [
            {
              "title": "Última actualización",
              "infoWithIcon": [
                {
                  "iconClass": "la la-calendar",
                  "text": "15/10/2018"
                },
                {
                  "iconClass": "la la-user",
                  "text": "Hugo Torres Herrera"
                }
              ]
            }
          ]
        },
        {
          "colClass": "col-2",
          "cardInfo": [
            {
              "title": "Estado",
              "badge": [
                {
                  "modifierClass": "g-badge-success",
                  "text": "Publicada"
                }
              ]
            }
          ]
        },
        {
          "colClass": "col-2",
          "cardInfo": [
            {
              "title": "Idioma",
              "infoWithIcon": [
                {
                  "iconClass": "la la-language",
                  "text": "Inglés / Español / Portugués"
                }
              ]
            }
          ]
        },
        {
          "colClass": "col-3 text-right",
          "squareBtn": [
            {
              "type": "button",
              "classModifier": "",
              "iconClass": "la la-eye",
              "text": "Ver"
            },
            {
              "type": "button",
              "classModifier": "",
              "iconClass": "la la-edit",
              "text": "Editar"
            }
          ]
        }
      ]
    },
    {
      "column": [
        {
          "colClass": "col-3",
          "cardPageInfo": [
            {
              "breadcrumb": [
                {
                  "marginClass": "",
                  "items": [
                    {
                      "item": "Home"
                    }
                  ]
                }
              ],
              "pageTitle": [
                {
                  "tag": "h4",
                  "modifierClass": "g-fs-15 mb-0",
                  "text": "Eventos"
                }
              ]
            }
          ]
        },
        {
          "colClass": "col-2 pl-0",
          "cardInfo": [
            {
              "title": "Última actualización",
              "infoWithIcon": [
                {
                  "iconClass": "la la-calendar",
                  "text": "15/10/2018"
                },
                {
                  "iconClass": "la la-user",
                  "text": "Hugo Torres Herrera"
                }
              ]
            }
          ]
        },
        {
          "colClass": "col-2",
          "cardInfo": [
            {
              "title": "Estado",
              "badge": [
                {
                  "modifierClass": "g-badge-success",
                  "text": "Publicada"
                }
              ]
            }
          ]
        },
        {
          "colClass": "col-2",
          "cardInfo": [
            {
              "title": "Idioma",
              "infoWithIcon": [
                {
                  "iconClass": "la la-language",
                  "text": "Inglés / Español / Portugués"
                }
              ]
            }
          ]
        },
        {
          "colClass": "col-3 text-right",
          "squareBtn": [
            {
              "type": "button",
              "classModifier": "",
              "iconClass": "la la-eye",
              "text": "Ver"
            },
            {
              "type": "button",
              "classModifier": "",
              "iconClass": "la la-edit",
              "text": "Editar"
            }
          ]
        }
      ]
    },
    {
      "column": [
        {
          "colClass": "col-3",
          "cardPageInfo": [
            {
              "breadcrumb": [
                {
                  "marginClass": "",
                  "items": [
                    {
                      "item": "Eventos"
                    }
                  ]
                }
              ],
              "pageTitle": [
                {
                  "tag": "h4",
                  "modifierClass": "g-fs-15 mb-0",
                  "text": "Sociales"
                }
              ]
            }
          ]
        },
        {
          "colClass": "col-2 pl-0",
          "cardInfo": [
            {
              "title": "Última actualización",
              "infoWithIcon": [
                {
                  "iconClass": "la la-calendar",
                  "text": "15/10/2018"
                },
                {
                  "iconClass": "la la-user",
                  "text": "Hugo Torres Herrera"
                }
              ]
            }
          ]
        },
        {
          "colClass": "col-2",
          "cardInfo": [
            {
              "title": "Estado",
              "badge": [
                {
                  "modifierClass": "g-badge-success",
                  "text": "Publicada"
                }
              ]
            }
          ]
        },
        {
          "colClass": "col-2",
          "cardInfo": [
            {
              "title": "Idioma",
              "infoWithIcon": [
                {
                  "iconClass": "la la-language",
                  "text": "Inglés / Español / Portugués"
                }
              ]
            }
          ]
        },
        {
          "colClass": "col-3 text-right",
          "squareBtn": [
            {
              "type": "button",
              "classModifier": "",
              "iconClass": "la la-eye",
              "text": "Ver"
            },
            {
              "type": "button",
              "classModifier": "",
              "iconClass": "la la-edit",
              "text": "Editar"
            }
          ]
        }
      ]
    },
    {
      "column": [
        {
          "colClass": "col-3",
          "cardPageInfo": [
            {
              "breadcrumb": [
                {
                  "marginClass": "",
                  "items": [
                    {
                      "item": "Home"
                    }
                  ]
                }
              ],
              "pageTitle": [
                {
                  "tag": "h4",
                  "modifierClass": "g-fs-15 mb-0",
                  "text": "Quienes Somos"
                }
              ]
            }
          ]
        },
        {
          "colClass": "col-2 pl-0",
          "cardInfo": [
            {
              "title": "Última actualización",
              "infoWithIcon": [
                {
                  "iconClass": "la la-calendar",
                  "text": "15/10/2018"
                },
                {
                  "iconClass": "la la-user",
                  "text": "Hugo Torres Herrera"
                }
              ]
            }
          ]
        },
        {
          "colClass": "col-2",
          "cardInfo": [
            {
              "title": "Estado",
              "badge": [
                {
                  "modifierClass": "g-badge-success",
                  "text": "Publicada"
                }
              ]
            }
          ]
        },
        {
          "colClass": "col-2",
          "cardInfo": [
            {
              "title": "Idioma",
              "infoWithIcon": [
                {
                  "iconClass": "la la-language",
                  "text": "Inglés / Español / Portugués"
                }
              ]
            }
          ]
        },
        {
          "colClass": "col-3 text-right",
          "squareBtn": [
            {
              "type": "button",
              "classModifier": "",
              "iconClass": "la la-eye",
              "text": "Ver"
            },
            {
              "type": "button",
              "classModifier": "",
              "iconClass": "la la-edit",
              "text": "Editar"
            }
          ]
        }
      ]
    },
    {
      "column": [
        {
          "colClass": "col-3",
          "cardPageInfo": [
            {
              "breadcrumb": [
                {
                  "marginClass": "",
                  "items": [
                    {
                      "item": "Home"
                    }
                  ]
                }
              ],
              "pageTitle": [
                {
                  "tag": "h4",
                  "modifierClass": "g-fs-15 mb-0",
                  "text": "Responsabilidad Social"
                }
              ]
            }
          ]
        },
        {
          "colClass": "col-2 pl-0",
          "cardInfo": [
            {
              "title": "Última actualización",
              "infoWithIcon": [
                {
                  "iconClass": "la la-calendar",
                  "text": "15/10/2018"
                },
                {
                  "iconClass": "la la-user",
                  "text": "Hugo Torres Herrera"
                }
              ]
            }
          ]
        },
        {
          "colClass": "col-2",
          "cardInfo": [
            {
              "title": "Estado",
              "badge": [
                {
                  "modifierClass": "g-badge-success",
                  "text": "Publicada"
                }
              ]
            }
          ]
        },
        {
          "colClass": "col-2",
          "cardInfo": [
            {
              "title": "Idioma",
              "infoWithIcon": [
                {
                  "iconClass": "la la-language",
                  "text": "Inglés / Español / Portugués"
                }
              ]
            }
          ]
        },
        {
          "colClass": "col-3 text-right",
          "squareBtn": [
            {
              "type": "button",
              "classModifier": "",
              "iconClass": "la la-eye",
              "text": "Ver"
            },
            {
              "type": "button",
              "classModifier": "",
              "iconClass": "la la-edit",
              "text": "Editar"
            }
          ]
        }
      ]
    }
  ],
  "pagination": [
    {
      "paginationItems": [
        {
          "classModifier": "disabled",
          "href": "#",
          "text": ""
        },
        {
          "classModifier": "page active",
          "href": "#",
          "text": 1
        },
        {
          "classModifier": "page",
          "href": "#",
          "text": 2
        },
        {
          "classModifier": "page",
          "href": "#",
          "text": 3
        },
        {
          "classModifier": "page",
          "href": "#",
          "text": 4
        },
        {
          "classModifier": "page",
          "href": "#",
          "text": 5
        },
        {
          "classModifier": "",
          "href": "#",
          "text": ""
        }
      ]
    }
  ]
}
