{
  "navWrapperModifierClass": "active",
  "navList": [
    {
      "navListModifierClass": "",
      "navListItem": [
        {
          "navListItemModifierClass": "s-nav-list-item--featured active",
          "navListLink": [
            {
              "navListLinkUrl": "#",
              "navListLinkClass": "",
              "icon": false,
              "navListLinkText": "Reservar"
            }
          ],
          "navSublistWrapper": [
            {
              "navSublistWrapperClass": "",
              "navForm": [
                {
                  "navFormCloseButton": [
                    {
                      "navFormCloseButtonUrl": "#",
                      "navFormCloseButtonClass": "s-nav-list-link--close",
                      "navFormCloseButtonIcon": [
                        {
                          "class": "la la-close"
                        }
                      ]
                    }
                  ],
                  "navFormCol": [
                    {
                      "navFormColClass": "col-xl-4",
                      "controlContainer": [
                        {
                          "controlContainerClass": "mb-2",
                          "formGroupInput": [
                            {
                              "label": [
                                {
                                  "classModifier": "g-label g-fs-12 g-cl-white g-text-uppercase",
                                  "name": "nDestino",
                                  "title": "Destino"
                                }
                              ],
                              "input": [
                                {
                                  "classModifier": "g-input g-input-invert",
                                  "type": "text",
                                  "name": "nDestino",
                                  "placeHolder": "Busca 'Arequipa'"
                                }
                              ]
                            }
                          ]
                        },
                        {
                          "controlContainerClass": "mb-2",
                          "formGroupInput": [
                            {
                              "label": [
                                {
                                  "classModifier": "g-label g-fs-12 g-cl-white g-text-uppercase",
                                  "name": "nDestino",
                                  "title": "Hotel"
                                }
                              ],
                              "input": [
                                {
                                  "classModifier": "g-input g-input-invert",
                                  "type": "text",
                                  "name": "nDestino",
                                  "placeHolder": "Busca 'Standard, Select, Premium'"
                                }
                              ]
                            }
                          ]
                        },
                        {
                          "controlContainerClass": "mb-2",
                          "formGroupInput": [
                            {
                              "label": [
                                {
                                  "classModifier": "g-label g-fs-12 g-cl-white g-text-uppercase",
                                  "name": "nDestino",
                                  "title": "Interés"
                                }
                              ],
                              "input": [
                                {
                                  "classModifier": "g-input-invert",
                                  "type": "text",
                                  "name": "nDestino",
                                  "placeHolder": "Busca 'Hotel con sauna'"
                                }
                              ]
                            }
                          ]
                        }
                      ]
                    },
                    {
                      "navFormColClass": "col-xl-4",
                      "controlContainer": [
                        {
                          "controlContainerClass": "row mb-2",
                          "innerCol": [
                            {
                              "innerColClass": "col-6",
                              "dropdownButton": [
                                {
                                  "label": [
                                    {
                                      "classModifier": "g-fs-12 g-cl-white g-text-uppercase",
                                      "name": "nEntrada",
                                      "title": "Entrada"
                                    }
                                  ],
                                  "classModifier": "g-input-dropdown-white g-input-date",
                                  "icon": [
                                    {
                                      "class": "la la-angle-down"
                                    }
                                  ],
                                  "date": [
                                    {
                                      "numberDay": 20,
                                      "month": "May",
                                      "year": 19,
                                      "textDay": "Miercoles"
                                    }
                                  ]
                                }
                              ]
                            },
                            {
                              "innerColClass": "col-6",
                              "dropdownButton": [
                                {
                                  "label": [
                                    {
                                      "classModifier": "g-fs-12 g-cl-white g-text-uppercase",
                                      "name": "nSalida",
                                      "title": "Salida"
                                    }
                                  ],
                                  "classModifier": "g-input-dropdown-white g-input-date",
                                  "icon": [
                                    {
                                      "class": "la la-angle-down"
                                    }
                                  ],
                                  "date": [
                                    {
                                      "numberDay": 25,
                                      "month": "Jun",
                                      "year": 19,
                                      "textDay": "Domingo"
                                    }
                                  ]
                                }
                              ]
                            }
                          ]
                        },
                        {
                          "controlContainerClass": "mb-3",
                          "formGroupInput": [
                            {
                              "label": [
                                {
                                  "classModifier": "g-label g-fs-12 g-cl-white g-text-uppercase",
                                  "name": "codigo",
                                  "title": "Código Promocional"
                                }
                              ],
                              "input": [
                                {
                                  "classModifier": "g-input-invert",
                                  "type": "text",
                                  "name": "codigo",
                                  "placeHolder": "Opcional"
                                }
                              ]
                            }
                          ]
                        },
                        {
                          "controlContainerClass": "",
                          "button": [
                            {
                              "classModifier": "g-btn-fat g-btn-primary g-block",
                              "type": "button",
                              "textButton": "Buscar"
                            }
                          ]
                        }
                      ]
                    },
                    {
                      "navFormColClass": "col-xl-4 d-none d-xl-block",
                      "controlContainer": [
                        {
                          "controlContainerClass": "mb-2",
                          "linkWithIcon": [
                            {
                              "link": "#",
                              "modifierClass": "g-link-white g-link-icon-right",
                              "iconLeft": false,
                              "text": "Buscar Hotel para Bodas",
                              "iconRight": [
                                {
                                  "class": "la la-arrow-right"
                                }
                              ]
                            }
                          ]
                        },
                        {
                          "controlContainerClass": "mb-2",
                          "linkWithIcon": [
                            {
                              "link": "#",
                              "modifierClass": "g-link-white g-link-icon-right",
                              "iconLeft": false,
                              "text": "Buscar Hotel para Eventos Corporativos",
                              "iconRight": [
                                {
                                  "class": "la la-arrow-right"
                                }
                              ]
                            }
                          ]
                        },
                        {
                          "controlContainerClass": "mb-2",
                          "linkWithIcon": [
                            {
                              "link": "#",
                              "modifierClass": "g-link-white g-link-icon-right",
                              "iconLeft": false,
                              "text": "Buscar por Promociones",
                              "iconRight": [
                                {
                                  "class": "la la-arrow-right"
                                }
                              ]
                            }
                          ]
                        }
                      ]
                    }
                  ]
                }
              ]
            }
          ]
        },
        {
          "navListItemModifierClass": "s-nav-list-item--dropdown active",
          "navListLink": [
            {
              "navListLinkUrl": "#",
              "navListLinkClass": "active",
              "icon": false,
              "navListLinkText": "Destinos"
            }
          ],
          "navSublistWrapper": [
            {
              "navSublistWrapperClass": "s-nav-sublist-wrapper--all",
              "navSublist": [
                {
                  "navSublistClass": "container px-0",
                  "navSublistItem": [
                    {
                      "navSublistItemClass": "",
                      "navSublistLink": [
                        {
                          "navSublistLinkUrl": "#",
                          "navSublistLinkClass": "",
                          "navSublistLinkText": "Arequipa"
                        }
                      ]
                    },
                    {
                      "navSublistItemClass": "",
                      "navSublistLink": [
                        {
                          "navSublistLinkUrl": "#",
                          "navSublistLinkClass": "",
                          "navSublistLinkText": "Chiclayo"
                        }
                      ]
                    },
                    {
                      "navSublistItemClass": "",
                      "navSublistLink": [
                        {
                          "navSublistLinkUrl": "#",
                          "navSublistLinkClass": "",
                          "navSublistLinkText": "Lima"
                        }
                      ]
                    },
                    {
                      "navSublistItemClass": "",
                      "navSublistLink": [
                        {
                          "navSublistLinkUrl": "#",
                          "navSublistLinkClass": "",
                          "navSublistLinkText": "Moquegua"
                        }
                      ]
                    },
                    {
                      "navSublistItemClass": "",
                      "navSublistLink": [
                        {
                          "navSublistLinkUrl": "#",
                          "navSublistLinkClass": "",
                          "navSublistLinkText": "Cuzco"
                        }
                      ]
                    },
                    {
                      "navSublistItemClass": "",
                      "navSublistLink": [
                        {
                          "navSublistLinkUrl": "#",
                          "navSublistLinkClass": "",
                          "navSublistLinkText": "Puno"
                        }
                      ]
                    },
                    {
                      "navSublistItemClass": "",
                      "navSublistLink": [
                        {
                          "navSublistLinkUrl": "#",
                          "navSublistLinkClass": "",
                          "navSublistLinkText": "Arequipa"
                        }
                      ]
                    },
                    {
                      "navSublistItemClass": "",
                      "navSublistLink": [
                        {
                          "navSublistLinkUrl": "#",
                          "navSublistLinkClass": "",
                          "navSublistLinkText": "Chiclayo"
                        }
                      ]
                    },
                    {
                      "navSublistItemClass": "",
                      "navSublistLink": [
                        {
                          "navSublistLinkUrl": "#",
                          "navSublistLinkClass": "",
                          "navSublistLinkText": "Lima"
                        }
                      ]
                    },
                    {
                      "navSublistItemClass": "",
                      "navSublistLink": [
                        {
                          "navSublistLinkUrl": "#",
                          "navSublistLinkClass": "",
                          "navSublistLinkText": "Moquegua"
                        }
                      ]
                    },
                    {
                      "navSublistItemClass": "",
                      "navSublistLink": [
                        {
                          "navSublistLinkUrl": "#",
                          "navSublistLinkClass": "",
                          "navSublistLinkText": "Cuzco"
                        }
                      ]
                    },
                    {
                      "navSublistItemClass": "",
                      "navSublistLink": [
                        {
                          "navSublistLinkUrl": "#",
                          "navSublistLinkClass": "",
                          "navSublistLinkText": "Puno"
                        }
                      ]
                    },
                    {
                      "navSublistItemClass": "",
                      "navSublistLink": [
                        {
                          "navSublistLinkUrl": "#",
                          "navSublistLinkClass": "",
                          "navSublistLinkText": "Puno"
                        }
                      ]
                    },
                    {
                      "navSublistItemClass": "",
                      "navSublistLink": [
                        {
                          "navSublistLinkUrl": "#",
                          "navSublistLinkClass": "",
                          "navSublistLinkText": "Arequipa"
                        }
                      ]
                    },
                    {
                      "navSublistItemClass": "",
                      "navSublistLink": [
                        {
                          "navSublistLinkUrl": "#",
                          "navSublistLinkClass": "",
                          "navSublistLinkText": "Chiclayo"
                        }
                      ]
                    },
                    {
                      "navSublistItemClass": "",
                      "navSublistLink": [
                        {
                          "navSublistLinkUrl": "#",
                          "navSublistLinkClass": "",
                          "navSublistLinkText": "Lima"
                        }
                      ]
                    },
                    {
                      "navSublistItemClass": "",
                      "navSublistLink": [
                        {
                          "navSublistLinkUrl": "#",
                          "navSublistLinkClass": "",
                          "navSublistLinkText": "Moquegua"
                        }
                      ]
                    },
                    {
                      "navSublistItemClass": "",
                      "navSublistLink": [
                        {
                          "navSublistLinkUrl": "#",
                          "navSublistLinkClass": "",
                          "navSublistLinkText": "Cuzco"
                        }
                      ]
                    },
                    {
                      "navSublistItemClass": "",
                      "navSublistLink": [
                        {
                          "navSublistLinkUrl": "#",
                          "navSublistLinkClass": "",
                          "navSublistLinkText": "Puno"
                        }
                      ]
                    },
                    {
                      "navSublistItemClass": "",
                      "navSublistLink": [
                        {
                          "navSublistLinkUrl": "#",
                          "navSublistLinkClass": "",
                          "navSublistLinkText": "Moquegua"
                        }
                      ]
                    },
                    {
                      "navSublistItemClass": "s-nav-sublist-item--all",
                      "navSublistLink": [
                        {
                          "navSublistLinkUrl": "#",
                          "navSublistLinkClass": "",
                          "navSublistLinkText": "Ver todos los destinos"
                        }
                      ]
                    }
                  ]
                }
              ]
            }
          ]
        },
        {
          "navListItemModifierClass": "s-nav-list-item--dropdown active",
          "navListLink": [
            {
              "navListLinkUrl": "#",
              "navListLinkClass": "",
              "icon": false,
              "navListLinkText": "Nuestros Hoteles"
            }
          ],
          "navSublistWrapper": [
            {
              "navSublistWrapperClass": "",
              "navSublist": [
                {
                  "navSublistClass": "container px-0",
                  "navSublistItem": [
                    {
                      "navSublistItemClass": "s-nav-sublist-item--descriptor active",
                      "navSublistLink": [
                        {
                          "navSublistLinkUrl": "#",
                          "navSublistLinkClass": "s-nav-sublist-link--descriptor",
                          "navSublistLinkStyle": "style='border-color: #002857;'",
                          "navSublistLinkText": "Premium"
                        }
                      ],
                      "navSublistInner": [
                        {
                          "navSublistInnerClass": "s-nav-sublist--descriptor",
                          "navSublistInnerItem": [
                            {
                              "navSublistInnerItemClass": "",
                              "navSublistInnerLink": [
                                {
                                  "navSublistInnerLinkUrl": "#",
                                  "navSublistInnerLinkClass": "",
                                  "navSublistInnerLinkText": "Puno"
                                }
                              ]
                            },
                            {
                              "navSublistInnerItemClass": "",
                              "navSublistInnerLink": [
                                {
                                  "navSublistInnerLinkUrl": "#",
                                  "navSublistInnerLinkClass": "",
                                  "navSublistInnerLinkText": "Puno"
                                }
                              ]
                            },
                            {
                              "navSublistInnerItemClass": "",
                              "navSublistInnerLink": [
                                {
                                  "navSublistInnerLinkUrl": "#",
                                  "navSublistInnerLinkClass": "",
                                  "navSublistInnerLinkText": "Puno"
                                }
                              ]
                            },
                            {
                              "navSublistInnerItemClass": "",
                              "navSublistInnerLink": [
                                {
                                  "navSublistInnerLinkUrl": "#",
                                  "navSublistInnerLinkClass": "",
                                  "navSublistInnerLinkText": "Puno"
                                }
                              ]
                            },
                            {
                              "navSublistInnerItemClass": "",
                              "navSublistInnerLink": [
                                {
                                  "navSublistInnerLinkUrl": "#",
                                  "navSublistInnerLinkClass": "",
                                  "navSublistInnerLinkText": "Puno"
                                }
                              ]
                            },
                            {
                              "navSublistInnerItemClass": "",
                              "navSublistInnerLink": [
                                {
                                  "navSublistInnerLinkUrl": "#",
                                  "navSublistInnerLinkClass": "",
                                  "navSublistInnerLinkText": "Puno"
                                }
                              ]
                            },
                            {
                              "navSublistInnerItemClass": "",
                              "navSublistInnerLink": [
                                {
                                  "navSublistInnerLinkUrl": "#",
                                  "navSublistInnerLinkClass": "",
                                  "navSublistInnerLinkText": "Puno"
                                }
                              ]
                            },
                            {
                              "navSublistInnerItemClass": "",
                              "navSublistInnerLink": [
                                {
                                  "navSublistInnerLinkUrl": "#",
                                  "navSublistInnerLinkClass": "",
                                  "navSublistInnerLinkText": "Puno"
                                }
                              ]
                            }
                          ]
                        }
                      ]
                    },
                    {
                      "navSublistItemClass": "s-nav-sublist-item--descriptor",
                      "navSublistLink": [
                        {
                          "navSublistLinkUrl": "#",
                          "navSublistLinkClass": "s-nav-sublist-link--descriptor",
                          "navSublistLinkStyle": "style='border-color: #008eaa;'",
                          "navSublistLinkText": "Select"
                        }
                      ],
                      "navSublistInner": [
                        {
                          "navSublistInnerClass": "s-nav-sublist--descriptor",
                          "navSublistInnerItem": [
                            {
                              "navSublistInnerItemClass": "",
                              "navSublistInnerLink": [
                                {
                                  "navSublistInnerLinkUrl": "#",
                                  "navSublistInnerLinkClass": "",
                                  "navSublistInnerLinkText": "Puno"
                                }
                              ]
                            },
                            {
                              "navSublistInnerItemClass": "",
                              "navSublistInnerLink": [
                                {
                                  "navSublistInnerLinkUrl": "#",
                                  "navSublistInnerLinkClass": "",
                                  "navSublistInnerLinkText": "Puno"
                                }
                              ]
                            },
                            {
                              "navSublistInnerItemClass": "",
                              "navSublistInnerLink": [
                                {
                                  "navSublistInnerLinkUrl": "#",
                                  "navSublistInnerLinkClass": "",
                                  "navSublistInnerLinkText": "Puno"
                                }
                              ]
                            },
                            {
                              "navSublistInnerItemClass": "",
                              "navSublistInnerLink": [
                                {
                                  "navSublistInnerLinkUrl": "#",
                                  "navSublistInnerLinkClass": "",
                                  "navSublistInnerLinkText": "Puno"
                                }
                              ]
                            },
                            {
                              "navSublistInnerItemClass": "",
                              "navSublistInnerLink": [
                                {
                                  "navSublistInnerLinkUrl": "#",
                                  "navSublistInnerLinkClass": "",
                                  "navSublistInnerLinkText": "Puno"
                                }
                              ]
                            },
                            {
                              "navSublistInnerItemClass": "",
                              "navSublistInnerLink": [
                                {
                                  "navSublistInnerLinkUrl": "#",
                                  "navSublistInnerLinkClass": "",
                                  "navSublistInnerLinkText": "Puno"
                                }
                              ]
                            },
                            {
                              "navSublistInnerItemClass": "",
                              "navSublistInnerLink": [
                                {
                                  "navSublistInnerLinkUrl": "#",
                                  "navSublistInnerLinkClass": "",
                                  "navSublistInnerLinkText": "Puno"
                                }
                              ]
                            },
                            {
                              "navSublistInnerItemClass": "",
                              "navSublistInnerLink": [
                                {
                                  "navSublistInnerLinkUrl": "#",
                                  "navSublistInnerLinkClass": "",
                                  "navSublistInnerLinkText": "Puno"
                                }
                              ]
                            }
                          ]
                        }
                      ]
                    },
                    {
                      "navSublistItemClass": "s-nav-sublist-item--descriptor",
                      "navSublistLink": [
                        {
                          "navSublistLinkUrl": "#",
                          "navSublistLinkClass": "s-nav-sublist-link--descriptor",
                          "navSublistLinkStyle": "style='border-color: #ff4200;'",
                          "navSublistLinkText": "Standard"
                        }
                      ],
                      "navSublistInner": [
                        {
                          "navSublistInnerClass": "s-nav-sublist--descriptor",
                          "navSublistInnerItem": [
                            {
                              "navSublistInnerItemClass": "",
                              "navSublistInnerLink": [
                                {
                                  "navSublistInnerLinkUrl": "#",
                                  "navSublistInnerLinkClass": "",
                                  "navSublistInnerLinkText": "Puno"
                                }
                              ]
                            },
                            {
                              "navSublistInnerItemClass": "",
                              "navSublistInnerLink": [
                                {
                                  "navSublistInnerLinkUrl": "#",
                                  "navSublistInnerLinkClass": "",
                                  "navSublistInnerLinkText": "Puno"
                                }
                              ]
                            },
                            {
                              "navSublistInnerItemClass": "",
                              "navSublistInnerLink": [
                                {
                                  "navSublistInnerLinkUrl": "#",
                                  "navSublistInnerLinkClass": "",
                                  "navSublistInnerLinkText": "Puno"
                                }
                              ]
                            },
                            {
                              "navSublistInnerItemClass": "",
                              "navSublistInnerLink": [
                                {
                                  "navSublistInnerLinkUrl": "#",
                                  "navSublistInnerLinkClass": "",
                                  "navSublistInnerLinkText": "Puno"
                                }
                              ]
                            },
                            {
                              "navSublistInnerItemClass": "",
                              "navSublistInnerLink": [
                                {
                                  "navSublistInnerLinkUrl": "#",
                                  "navSublistInnerLinkClass": "",
                                  "navSublistInnerLinkText": "Puno"
                                }
                              ]
                            },
                            {
                              "navSublistInnerItemClass": "",
                              "navSublistInnerLink": [
                                {
                                  "navSublistInnerLinkUrl": "#",
                                  "navSublistInnerLinkClass": "",
                                  "navSublistInnerLinkText": "Puno"
                                }
                              ]
                            },
                            {
                              "navSublistInnerItemClass": "",
                              "navSublistInnerLink": [
                                {
                                  "navSublistInnerLinkUrl": "#",
                                  "navSublistInnerLinkClass": "",
                                  "navSublistInnerLinkText": "Puno"
                                }
                              ]
                            },
                            {
                              "navSublistInnerItemClass": "",
                              "navSublistInnerLink": [
                                {
                                  "navSublistInnerLinkUrl": "#",
                                  "navSublistInnerLinkClass": "",
                                  "navSublistInnerLinkText": "Puno"
                                }
                              ]
                            }
                          ]
                        }
                      ]
                    }
                  ]
                }
              ]
            }
          ]
        },
        {
          "navListItemModifierClass": "",
          "navListLink": [
            {
              "navListLinkUrl": "#",
              "navListLinkClass": "",
              "icon": false,
              "navListLinkText": "Promociones"
            }
          ],
          "navSublistWrapper": false
        },
        {
          "navListItemModifierClass": "s-nav-list-item--dropdown active",
          "navListLink": [
            {
              "navListLinkUrl": "#",
              "navListLinkClass": "",
              "icon": false,
              "navListLinkText": "Restaurantes"
            }
          ],
          "navSublistWrapper": [
            {
              "navSublistWrapperClass": "s-nav-sublist-wrapper--all",
              "navSublist": [
                {
                  "navSublistClass": "container px-0",
                  "navSublistItem": [
                    {
                      "navSublistItemClass": "s-nav-sublist-item--descriptor active",
                      "navSublistLink": [
                        {
                          "navSublistLinkUrl": "#",
                          "navSublistLinkClass": "s-nav-sublist-link--descriptor",
                          "navSublistLinkStyle": "style='border-color: #002c55;'",
                          "navSublistLinkText": "Alma"
                        }
                      ],
                      "navSublistInner": [
                        {
                          "navSublistInnerClass": "s-nav-sublist--descriptor",
                          "navSublistInnerItem": [
                            {
                              "navSublistInnerItemClass": "",
                              "navSublistInnerLink": [
                                {
                                  "navSublistInnerLinkUrl": "#",
                                  "navSublistInnerLinkClass": "",
                                  "navSublistInnerLinkText": "Puno"
                                }
                              ]
                            },
                            {
                              "navSublistInnerItemClass": "",
                              "navSublistInnerLink": [
                                {
                                  "navSublistInnerLinkUrl": "#",
                                  "navSublistInnerLinkClass": "",
                                  "navSublistInnerLinkText": "Puno"
                                }
                              ]
                            },
                            {
                              "navSublistInnerItemClass": "",
                              "navSublistInnerLink": [
                                {
                                  "navSublistInnerLinkUrl": "#",
                                  "navSublistInnerLinkClass": "",
                                  "navSublistInnerLinkText": "Puno"
                                }
                              ]
                            },
                            {
                              "navSublistInnerItemClass": "",
                              "navSublistInnerLink": [
                                {
                                  "navSublistInnerLinkUrl": "#",
                                  "navSublistInnerLinkClass": "",
                                  "navSublistInnerLinkText": "Puno"
                                }
                              ]
                            },
                            {
                              "navSublistInnerItemClass": "",
                              "navSublistInnerLink": [
                                {
                                  "navSublistInnerLinkUrl": "#",
                                  "navSublistInnerLinkClass": "",
                                  "navSublistInnerLinkText": "Puno"
                                }
                              ]
                            },
                            {
                              "navSublistInnerItemClass": "",
                              "navSublistInnerLink": [
                                {
                                  "navSublistInnerLinkUrl": "#",
                                  "navSublistInnerLinkClass": "",
                                  "navSublistInnerLinkText": "Puno"
                                }
                              ]
                            },
                            {
                              "navSublistInnerItemClass": "",
                              "navSublistInnerLink": [
                                {
                                  "navSublistInnerLinkUrl": "#",
                                  "navSublistInnerLinkClass": "",
                                  "navSublistInnerLinkText": "Puno"
                                }
                              ]
                            },
                            {
                              "navSublistInnerItemClass": "",
                              "navSublistInnerLink": [
                                {
                                  "navSublistInnerLinkUrl": "#",
                                  "navSublistInnerLinkClass": "",
                                  "navSublistInnerLinkText": "Puno"
                                }
                              ]
                            }
                          ]
                        }
                      ]
                    },
                    {
                      "navSublistItemClass": "s-nav-sublist-item--descriptor",
                      "navSublistLink": [
                        {
                          "navSublistLinkUrl": "#",
                          "navSublistLinkClass": "s-nav-sublist-link--descriptor",
                          "navSublistLinkStyle": "style='border-color: #e90629;'",
                          "navSublistLinkText": "La Plaza"
                        }
                      ],
                      "navSublistInner": [
                        {
                          "navSublistInnerClass": "s-nav-sublist--descriptor",
                          "navSublistInnerItem": [
                            {
                              "navSublistInnerItemClass": "",
                              "navSublistInnerLink": [
                                {
                                  "navSublistInnerLinkUrl": "#",
                                  "navSublistInnerLinkClass": "",
                                  "navSublistInnerLinkText": "Puno"
                                }
                              ]
                            },
                            {
                              "navSublistInnerItemClass": "",
                              "navSublistInnerLink": [
                                {
                                  "navSublistInnerLinkUrl": "#",
                                  "navSublistInnerLinkClass": "",
                                  "navSublistInnerLinkText": "Puno"
                                }
                              ]
                            },
                            {
                              "navSublistInnerItemClass": "",
                              "navSublistInnerLink": [
                                {
                                  "navSublistInnerLinkUrl": "#",
                                  "navSublistInnerLinkClass": "",
                                  "navSublistInnerLinkText": "Puno"
                                }
                              ]
                            },
                            {
                              "navSublistInnerItemClass": "",
                              "navSublistInnerLink": [
                                {
                                  "navSublistInnerLinkUrl": "#",
                                  "navSublistInnerLinkClass": "",
                                  "navSublistInnerLinkText": "Puno"
                                }
                              ]
                            },
                            {
                              "navSublistInnerItemClass": "",
                              "navSublistInnerLink": [
                                {
                                  "navSublistInnerLinkUrl": "#",
                                  "navSublistInnerLinkClass": "",
                                  "navSublistInnerLinkText": "Puno"
                                }
                              ]
                            },
                            {
                              "navSublistInnerItemClass": "",
                              "navSublistInnerLink": [
                                {
                                  "navSublistInnerLinkUrl": "#",
                                  "navSublistInnerLinkClass": "",
                                  "navSublistInnerLinkText": "Puno"
                                }
                              ]
                            },
                            {
                              "navSublistInnerItemClass": "",
                              "navSublistInnerLink": [
                                {
                                  "navSublistInnerLinkUrl": "#",
                                  "navSublistInnerLinkClass": "",
                                  "navSublistInnerLinkText": "Puno"
                                }
                              ]
                            },
                            {
                              "navSublistInnerItemClass": "",
                              "navSublistInnerLink": [
                                {
                                  "navSublistInnerLinkUrl": "#",
                                  "navSublistInnerLinkClass": "",
                                  "navSublistInnerLinkText": "Puno"
                                }
                              ]
                            }
                          ]
                        }
                      ]
                    },
                    {
                      "navSublistItemClass": "s-nav-sublist-item--descriptor",
                      "navSublistLink": [
                        {
                          "navSublistLinkUrl": "#",
                          "navSublistLinkClass": "s-nav-sublist-link--descriptor",
                          "navSublistLinkStyle": "style='border-color: #00a336;'",
                          "navSublistLinkText": "Sama"
                        }
                      ],
                      "navSublistInner": [
                        {
                          "navSublistInnerClass": "s-nav-sublist--descriptor",
                          "navSublistInnerItem": [
                            {
                              "navSublistInnerItemClass": "",
                              "navSublistInnerLink": [
                                {
                                  "navSublistInnerLinkUrl": "#",
                                  "navSublistInnerLinkClass": "",
                                  "navSublistInnerLinkText": "Puno"
                                }
                              ]
                            },
                            {
                              "navSublistInnerItemClass": "",
                              "navSublistInnerLink": [
                                {
                                  "navSublistInnerLinkUrl": "#",
                                  "navSublistInnerLinkClass": "",
                                  "navSublistInnerLinkText": "Puno"
                                }
                              ]
                            },
                            {
                              "navSublistInnerItemClass": "",
                              "navSublistInnerLink": [
                                {
                                  "navSublistInnerLinkUrl": "#",
                                  "navSublistInnerLinkClass": "",
                                  "navSublistInnerLinkText": "Puno"
                                }
                              ]
                            },
                            {
                              "navSublistInnerItemClass": "",
                              "navSublistInnerLink": [
                                {
                                  "navSublistInnerLinkUrl": "#",
                                  "navSublistInnerLinkClass": "",
                                  "navSublistInnerLinkText": "Puno"
                                }
                              ]
                            },
                            {
                              "navSublistInnerItemClass": "",
                              "navSublistInnerLink": [
                                {
                                  "navSublistInnerLinkUrl": "#",
                                  "navSublistInnerLinkClass": "",
                                  "navSublistInnerLinkText": "Puno"
                                }
                              ]
                            },
                            {
                              "navSublistInnerItemClass": "",
                              "navSublistInnerLink": [
                                {
                                  "navSublistInnerLinkUrl": "#",
                                  "navSublistInnerLinkClass": "",
                                  "navSublistInnerLinkText": "Puno"
                                }
                              ]
                            },
                            {
                              "navSublistInnerItemClass": "",
                              "navSublistInnerLink": [
                                {
                                  "navSublistInnerLinkUrl": "#",
                                  "navSublistInnerLinkClass": "",
                                  "navSublistInnerLinkText": "Puno"
                                }
                              ]
                            },
                            {
                              "navSublistInnerItemClass": "",
                              "navSublistInnerLink": [
                                {
                                  "navSublistInnerLinkUrl": "#",
                                  "navSublistInnerLinkClass": "",
                                  "navSublistInnerLinkText": "Puno"
                                }
                              ]
                            }
                          ]
                        }
                      ]
                    },
                    {
                      "navSublistItemClass": "s-nav-sublist-item--all",
                      "navSublistLink": [
                        {
                          "navSublistLinkUrl": "#",
                          "navSublistLinkClass": "",
                          "navSublistLinkText": "Ver todos los Restaurantes"
                        }
                      ]
                    }
                  ]
                }
              ]
            }
          ]
        },
        {
          "navListItemModifierClass": "",
          "navListLink": [
            {
              "navListLinkUrl": "#",
              "navListLinkClass": "",
              "icon": false,
              "navListLinkText": "Eventos"
            }
          ],
          "navSublistWrapper": false
        },
        {
          "navListItemModifierClass": "",
          "navListLink": [
            {
              "navListLinkUrl": "#",
              "navListLinkClass": "",
              "icon": false,
              "navListLinkText": "Viajeros Auténticos"
            }
          ],
          "navSublistWrapper": false
        }
      ]
    },
    {
      "navListModifierClass": "s-nav-list--user",
      "navListItem": [
        {
          "navListItemModifierClass": "",
          "select": [
            {
              "classModifier": "g-select-invert g-select-sm",
              "nameSelect": "moneda",
              "icon": [
                {
                  "class": "la la-angle-down",
                  "inlineStyle": ""
                }
              ],
              "options": [
                {
                  "value": "",
                  "text": "U$D"
                },
                {
                  "value": "",
                  "text": "S/"
                },
                {
                  "value": "",
                  "text": "R$"
                }
              ]
            }
          ]
        },
        {
          "navListItemModifierClass": "",
          "select": [
            {
              "classModifier": "g-select-invert g-select-sm",
              "nameSelect": "idioma",
              "icon": [
                {
                  "class": "la la-angle-down",
                  "inlineStyle": ""
                }
              ],
              "options": [
                {
                  "value": "",
                  "text": "ES"
                },
                {
                  "value": "",
                  "text": "EN"
                },
                {
                  "value": "",
                  "text": "PR"
                }
              ]
            }
          ]
        },
        {
          "navListItemModifierClass": "s-nav-list-item--user",
          "navListLink": [
            {
              "navListLinkUrl": "#",
              "navListLinkClass": "",
              "icon": [
                {
                  "class": "la la-user",
                  "inlineStyle": ""
                }
              ]
            }
          ]
        },
        {
          "navListItemModifierClass": "s-nav-list-item--contact d-none d-xl-block active",
          "navListLink": [
            {
              "navListLinkUrl": "#",
              "navListLinkClass": "",
              "icon": [
                {
                  "class": "la la-close",
                  "inlineStyle": ""
                }
              ]
            }
          ],
          "navSublist": [
            {
              "navSublistClass": "",
              "navSublistItem": [
                {
                  "navSublistItemClass": "",
                  "navSublistLink": [
                    {
                      "navSublistLinkUrl": "tel:5113916500",
                      "navSublistLinkClass": "",
                      "icon": [
                        {
                          "class": "la la-phone"
                        }
                      ],
                      "text": [
                        {
                          "tag": "span",
                          "modifierClass": "",
                          "text": "+51 3916500"
                        }
                      ]
                    }
                  ]
                },
                {
                  "navSublistItemClass": "",
                  "navSublistLink": [
                    {
                      "navSublistLinkUrl": "#",
                      "navSublistLinkClass": "",
                      "icon": [
                        {
                          "class": "la la-envelope"
                        }
                      ],
                      "text": [
                        {
                          "tag": "span",
                          "modifierClass": "",
                          "text": "Formulario de contacto"
                        }
                      ]
                    }
                  ]
                }
              ]
            }
          ]
        }
      ]
    }
  ]
}
