{
  "classModifier": "",
  "innerBorderColor": "style='border-color: #d69c4f;'",
  "textBanner": [
    {
      "tag": "h1",
      "modifierClass": "g-main-banner-title",
      "text": "Más que un viaje, una experiencia <span style='color: #d69c4f;'>MEMORABLE</span>"
    }
  ],
  "btnBanner": false
}
