{
  "sectionMainBanner": [
    {
      "classModifier": "g-main-banner--md",
      "mainBanner": [
        {
          "classModifier": "",
          "tagMainBanner": [
            {
              "classModifier": "g-tag-image d-none d-xl-block",
              "text": false,
              "image": [
                {
                  "classModifier": "g-img-fluid",
                  "src": "../../images/ca-brand-default.png",
                  "alt": "Alt default"
                }
              ]
            }
          ],
          "bannerControls": false,
          "bannerItem": [
            {
              "classItemModifier": "active",
              "image": [
                {
                  "classModifier": "",
                  "backgroundImage": "../../images/main-banner.png"
                }
              ],
              "caption": [
                {
                  "captionModifierClass": "",
                  "captionRowModifierClass": "justify-content-center",
                  "col": [
                    {
                      "colClass": "col-md-9",
                      "mainBannerInner": [
                        {
                          "classModifier": "banner-item-inner--sm",
                          "innerBorderColor": "style='border-color: #d69c4f;'",
                          "textBanner": [
                            {
                              "tag": "h1",
                              "modifierClass": "g-main-banner-title",
                              "text": "Servicio, espacios y paisajes <span>Inigualables</span>"
                            }
                          ]
                        }
                      ]
                    }
                  ]
                }
              ]
            }
          ]
        }
      ]
    }
  ],
  "sectionFeatures": [
    {
      "classModifier": "g-section--padding-50 g-section--texture",
      "features": [
        {
          "featuresColClass": "col-sm-6 col-md-4 col-lg-auto",
          "classModifier": "",
          "info": [
            {
              "icon": [
                {
                  "class": "la la-compass"
                }
              ],
              "textNormal": "12",
              "textBold": "Destinos"
            }
          ]
        },
        {
          "featuresColClass": "col-sm-6 col-md-4 col-lg-auto",
          "classModifier": "",
          "info": [
            {
              "icon": [
                {
                  "class": "la la-building"
                }
              ],
              "textNormal": "85",
              "textBold": "Salas"
            }
          ]
        },
        {
          "featuresColClass": "col-sm-6 col-md-4 col-lg-auto",
          "classModifier": "",
          "info": [
            {
              "icon": [
                {
                  "class": "la la-group"
                }
              ],
              "textNormal": "1000",
              "textBold": "Invitados"
            }
          ]
        },
        {
          "featuresColClass": "col-sm-6 col-md-4 col-lg-auto",
          "classModifier": "",
          "info": [
            {
              "icon": [
                {
                  "class": "la la-leaf"
                }
              ],
              "textNormal": "13",
              "textBold": "Jardines terrazas"
            }
          ]
        }
      ]
    }
  ],
  "sectionEvent": [
    {
      "modifierClass": "g-section--padding-40 g-bgc-gray7",
      "title": [
        {
          "tag": "h2",
          "modifierClass": "g-heading",
          "text": "Organiza tu evento"
        }
      ],
      "event": [
        {
          "modifierClass": "mb-2 flex-md-row-reverse",
          "img": [
            {
              "classModifier": "g-img-fluid",
              "src": "https://placehold.it/640x200",
              "alt": ""
            }
          ],
          "content": [
            {
              "tag": "h3",
              "modifierClass": "g-fs-18 g-fs-sm-24 g-fs-md-30 g-f-nexa-slab g-fw-book",
              "text": "Eventos sociales"
            },
            {
              "tag": "p",
              "modifierClass": "mb-2",
              "text": "Tú eliges el momento, nosotros superamos tus expectativas: Pedida de mano, showers, matrimonios, fiestas y más."
            }
          ],
          "link": [
            {
              "link": "#",
              "modifierClass": "g-link-icon-right",
              "iconLeft": false,
              "text": "Conocer más",
              "iconRight": [
                {
                  "class": "la la-arrow-right"
                }
              ]
            }
          ]
        },
        {
          "modifierClass": "mb-2",
          "img": [
            {
              "classModifier": "g-img-fluid",
              "src": "https://placehold.it/640x200",
              "alt": ""
            }
          ],
          "content": [
            {
              "tag": "h3",
              "modifierClass": "g-fs-18 g-fs-sm-24 g-fs-md-30 g-f-nexa-slab g-fw-book",
              "text": "Eventos corporativos"
            },
            {
              "tag": "p",
              "modifierClass": "mb-2",
              "text": "Nuestros estándares de calidad, aseguran un evento insuperable."
            }
          ],
          "link": [
            {
              "link": "#",
              "modifierClass": "g-link-icon-right",
              "iconLeft": false,
              "text": "Conocer más",
              "iconRight": [
                {
                  "class": "la la-arrow-right"
                }
              ]
            }
          ]
        }
      ]
    }
  ],
  "sectionSalas": [
    {
      "modifierClass": "g-section--padding-60 g-bgc-gray1",
      "title": [
        {
          "tag": "h2",
          "classModifier": "g-cl-white",
          "headingText": "Nuestras salas"
        }
      ],
      "button": [
        {
          "classModifier": "g-btn-outline g-btn-icon mb-1",
          "type": "button",
          "inlineStyle": "",
          "textButton": "",
          "icon": "<i class='la la-filter'></i>"
        }
      ],
      "filter": [
        {
          "classModifier": "g-box-shadow3",
          "btnDestino": [
            {
              "classModifier": "g-block",
              "button": [
                {
                  "classModifier": "g-btn-primary g-btn-outline g-btn-with-icon--dropdown g-block",
                  "type": "button",
                  "textButton": "Destino (1)",
                  "classIcon": "la la-angle-down"
                }
              ],
              "list": false,
              "listCheckbox": [
                {
                  "classModifier": "g-dropDown--list",
                  "listElements": [
                    {
                      "liClass": "",
                      "checkbox": [
                        {
                          "className": "g-checkbox",
                          "type": "checkbox",
                          "name": "nInputCheckbox",
                          "labelText": "Defaul text"
                        }
                      ]
                    },
                    {
                      "liClass": "",
                      "checkbox": [
                        {
                          "className": "g-checkbox",
                          "type": "checkbox",
                          "name": "nInputCheckbox",
                          "labelText": "Defaul text"
                        }
                      ]
                    },
                    {
                      "liClass": "",
                      "checkbox": [
                        {
                          "className": "g-checkbox",
                          "type": "checkbox",
                          "name": "nInputCheckbox",
                          "labelText": "Defaul text"
                        }
                      ]
                    },
                    {
                      "liClass": "",
                      "checkbox": [
                        {
                          "className": "g-checkbox",
                          "type": "checkbox",
                          "name": "nInputCheckbox",
                          "labelText": "Defaul text"
                        }
                      ]
                    },
                    {
                      "liClass": "",
                      "checkbox": [
                        {
                          "className": "g-checkbox",
                          "type": "checkbox",
                          "name": "nInputCheckbox",
                          "labelText": "Defaul text"
                        }
                      ]
                    },
                    {
                      "liClass": "",
                      "checkbox": [
                        {
                          "className": "g-checkbox",
                          "type": "checkbox",
                          "name": "nInputCheckbox",
                          "labelText": "Defaul text"
                        }
                      ]
                    }
                  ]
                }
              ],
              "assessmentBox": false
            }
          ],
          "btnLugar": [
            {
              "classModifier": "g-block",
              "button": [
                {
                  "classModifier": "g-btn-primary g-btn-outline g-btn-with-icon--dropdown g-block",
                  "type": "button",
                  "textButton": "Hoteles y centros de convenciones (1)",
                  "classIcon": "la la-angle-down"
                }
              ],
              "list": false,
              "listCheckbox": [
                {
                  "classModifier": "g-dropDown--list",
                  "listElements": [
                    {
                      "liClass": "",
                      "checkbox": [
                        {
                          "className": "g-checkbox",
                          "type": "checkbox",
                          "name": "nInputCheckbox",
                          "labelText": "Defaul text"
                        }
                      ]
                    },
                    {
                      "liClass": "",
                      "checkbox": [
                        {
                          "className": "g-checkbox",
                          "type": "checkbox",
                          "name": "nInputCheckbox",
                          "labelText": "Defaul text"
                        }
                      ]
                    },
                    {
                      "liClass": "",
                      "checkbox": [
                        {
                          "className": "g-checkbox",
                          "type": "checkbox",
                          "name": "nInputCheckbox",
                          "labelText": "Defaul text"
                        }
                      ]
                    },
                    {
                      "liClass": "",
                      "checkbox": [
                        {
                          "className": "g-checkbox",
                          "type": "checkbox",
                          "name": "nInputCheckbox",
                          "labelText": "Defaul text"
                        }
                      ]
                    },
                    {
                      "liClass": "",
                      "checkbox": [
                        {
                          "className": "g-checkbox",
                          "type": "checkbox",
                          "name": "nInputCheckbox",
                          "labelText": "Defaul text"
                        }
                      ]
                    },
                    {
                      "liClass": "",
                      "checkbox": [
                        {
                          "className": "g-checkbox",
                          "type": "checkbox",
                          "name": "nInputCheckbox",
                          "labelText": "Defaul text"
                        }
                      ]
                    }
                  ]
                }
              ],
              "assessmentBox": false
            }
          ],
          "btnCapacidad": [
            {
              "classModifier": "g-block",
              "button": [
                {
                  "classModifier": "g-btn-primary g-btn-outline g-btn-with-icon--dropdown g-block",
                  "type": "button",
                  "textButton": "Capacidad (14 - 250)",
                  "classIcon": "la-angle-down"
                }
              ],
              "list": false,
              "assessmentBox": false,
              "capacidadBox": [
                {
                  "classModifier": "g-dropDown--capacidad",
                  "button": [
                    {
                      "classModifier": "g-btn-outline g-block",
                      "type": "button",
                      "textButton": "Aplicar"
                    }
                  ]
                }
              ]
            }
          ],
          "btnLimpiar": [
            {
              "link": "#",
              "modifierClass": "g-link-icon-static",
              "iconLeft": false,
              "text": "Limpiar",
              "iconRight": [
                {
                  "class": "la la-trash"
                }
              ]
            }
          ]
        }
      ],
      "boxTable": [
        {
          "classModifier": "g-bgc-white pb-4",
          "table": [
            {
              "modifierClass": "s-table--rooms",
              "tableModifierClass": "",
              "tableHead": [
                {
                  "tableHeadItem": [
                    {
                      "tableHeadItemAttribute": "",
                      "text": [
                        {
                          "tag": "span",
                          "modifierClass": "",
                          "inlineStyle": "",
                          "text": "Salas"
                        }
                      ]
                    },
                    {
                      "tableHeadItemAttribute": "",
                      "iconTable": [
                        {
                          "classModifier": "",
                          "icon": [
                            {
                              "class": "caicon-area",
                              "inlineStyle": ""
                            }
                          ],
                          "text": [
                            {
                              "tag": "span",
                              "modifierClass": "",
                              "inlineStyle": "",
                              "text": "m2"
                            }
                          ]
                        }
                      ]
                    },
                    {
                      "tableHeadItemAttribute": "",
                      "iconTable": [
                        {
                          "classModifier": "",
                          "icon": [
                            {
                              "class": "caicon-long",
                              "inlineStyle": ""
                            }
                          ],
                          "text": [
                            {
                              "tag": "span",
                              "modifierClass": "",
                              "inlineStyle": "",
                              "text": "Largo"
                            }
                          ]
                        }
                      ]
                    },
                    {
                      "tableHeadItemAttribute": "",
                      "iconTable": [
                        {
                          "classModifier": "",
                          "icon": [
                            {
                              "class": "caicon-width",
                              "inlineStyle": ""
                            }
                          ],
                          "text": [
                            {
                              "tag": "span",
                              "modifierClass": "",
                              "inlineStyle": "",
                              "text": "Ancho"
                            }
                          ]
                        }
                      ]
                    },
                    {
                      "tableHeadItemAttribute": "",
                      "iconTable": [
                        {
                          "classModifier": "",
                          "icon": [
                            {
                              "class": "caicon-high",
                              "inlineStyle": ""
                            }
                          ],
                          "text": [
                            {
                              "tag": "span",
                              "modifierClass": "",
                              "inlineStyle": "",
                              "text": "Alto"
                            }
                          ]
                        }
                      ]
                    },
                    {
                      "tableHeadItemAttribute": "",
                      "iconTable": [
                        {
                          "classModifier": "",
                          "icon": [
                            {
                              "class": "caicon-theater",
                              "inlineStyle": ""
                            }
                          ],
                          "text": [
                            {
                              "tag": "span",
                              "modifierClass": "",
                              "inlineStyle": "",
                              "text": "Teatro / Auditorio"
                            }
                          ]
                        }
                      ]
                    },
                    {
                      "tableHeadItemAttribute": "",
                      "iconTable": [
                        {
                          "classModifier": "",
                          "icon": [
                            {
                              "class": "caicon-school",
                              "inlineStyle": ""
                            }
                          ],
                          "text": [
                            {
                              "tag": "span",
                              "modifierClass": "",
                              "inlineStyle": "",
                              "text": "Escuela / Aula"
                            }
                          ]
                        }
                      ]
                    },
                    {
                      "tableHeadItemAttribute": "",
                      "iconTable": [
                        {
                          "classModifier": "",
                          "icon": [
                            {
                              "class": "caicon-dinner",
                              "inlineStyle": ""
                            }
                          ],
                          "text": [
                            {
                              "tag": "span",
                              "modifierClass": "",
                              "inlineStyle": "",
                              "text": "Cena / Banquete"
                            }
                          ]
                        }
                      ]
                    },
                    {
                      "tableHeadItemAttribute": "",
                      "iconTable": [
                        {
                          "classModifier": "",
                          "icon": [
                            {
                              "class": "caicon-room-u",
                              "inlineStyle": ""
                            }
                          ],
                          "text": [
                            {
                              "tag": "span",
                              "modifierClass": "",
                              "inlineStyle": "",
                              "text": "Directorio / 'U'"
                            }
                          ]
                        }
                      ]
                    },
                    {
                      "tableHeadItemAttribute": "",
                      "iconTable": [
                        {
                          "classModifier": "",
                          "icon": [
                            {
                              "class": "la la-glass",
                              "inlineStyle": ""
                            }
                          ],
                          "text": [
                            {
                              "tag": "span",
                              "modifierClass": "",
                              "inlineStyle": "",
                              "text": "Cocktail"
                            }
                          ]
                        }
                      ]
                    }
                  ]
                }
              ],
              "tableBody": [
                {
                  "tableBodyRow": [
                    {
                      "tableBodyRowItem": [
                        {
                          "tableBodyRowItemAttibute": "",
                          "text": [
                            {
                              "tag": "span",
                              "modifierClass": "",
                              "inlineStyle": "",
                              "text": "Directorio"
                            }
                          ]
                        },
                        {
                          "tableBodyRowItemAttibute": "",
                          "text": [
                            {
                              "tag": "span",
                              "modifierClass": "",
                              "inlineStyle": "",
                              "text": "31"
                            }
                          ]
                        },
                        {
                          "tableBodyRowItemAttibute": "",
                          "text": [
                            {
                              "tag": "span",
                              "modifierClass": "",
                              "inlineStyle": "",
                              "text": "5.5"
                            }
                          ]
                        },
                        {
                          "tableBodyRowItemAttibute": "",
                          "text": [
                            {
                              "tag": "span",
                              "modifierClass": "",
                              "inlineStyle": "",
                              "text": "5.5"
                            }
                          ]
                        },
                        {
                          "tableBodyRowItemAttibute": "",
                          "text": [
                            {
                              "tag": "span",
                              "modifierClass": "",
                              "inlineStyle": "",
                              "text": "5.5"
                            }
                          ]
                        },
                        {
                          "tableBodyRowItemAttibute": "",
                          "text": [
                            {
                              "tag": "span",
                              "modifierClass": "",
                              "inlineStyle": "",
                              "text": "5.5"
                            }
                          ]
                        },
                        {
                          "tableBodyRowItemAttibute": "",
                          "text": [
                            {
                              "tag": "span",
                              "modifierClass": "",
                              "inlineStyle": "",
                              "text": "5.5"
                            }
                          ]
                        },
                        {
                          "tableBodyRowItemAttibute": "",
                          "text": [
                            {
                              "tag": "span",
                              "modifierClass": "",
                              "inlineStyle": "",
                              "text": "5.5"
                            }
                          ]
                        },
                        {
                          "tableBodyRowItemAttibute": "",
                          "text": [
                            {
                              "tag": "span",
                              "modifierClass": "",
                              "inlineStyle": "",
                              "text": "5.5"
                            }
                          ]
                        },
                        {
                          "tableBodyRowItemAttibute": "",
                          "text": [
                            {
                              "tag": "span",
                              "modifierClass": "",
                              "inlineStyle": "",
                              "text": "5.5"
                            }
                          ]
                        }
                      ]
                    },
                    {
                      "tableBodyRowItem": [
                        {
                          "tableBodyRowItemAttibute": "",
                          "text": [
                            {
                              "tag": "span",
                              "modifierClass": "",
                              "inlineStyle": "",
                              "text": "Valle Sagrado"
                            }
                          ]
                        },
                        {
                          "tableBodyRowItemAttibute": "",
                          "text": [
                            {
                              "tag": "span",
                              "modifierClass": "",
                              "inlineStyle": "",
                              "text": "31"
                            }
                          ]
                        },
                        {
                          "tableBodyRowItemAttibute": "",
                          "text": [
                            {
                              "tag": "span",
                              "modifierClass": "",
                              "inlineStyle": "",
                              "text": "5.5"
                            }
                          ]
                        },
                        {
                          "tableBodyRowItemAttibute": "",
                          "text": [
                            {
                              "tag": "span",
                              "modifierClass": "",
                              "inlineStyle": "",
                              "text": "5.5"
                            }
                          ]
                        },
                        {
                          "tableBodyRowItemAttibute": "",
                          "text": [
                            {
                              "tag": "span",
                              "modifierClass": "",
                              "inlineStyle": "",
                              "text": "5.5"
                            }
                          ]
                        },
                        {
                          "tableBodyRowItemAttibute": "",
                          "text": [
                            {
                              "tag": "span",
                              "modifierClass": "",
                              "inlineStyle": "",
                              "text": "5.5"
                            }
                          ]
                        },
                        {
                          "tableBodyRowItemAttibute": "",
                          "text": [
                            {
                              "tag": "span",
                              "modifierClass": "",
                              "inlineStyle": "",
                              "text": "5.5"
                            }
                          ]
                        },
                        {
                          "tableBodyRowItemAttibute": "",
                          "text": [
                            {
                              "tag": "span",
                              "modifierClass": "",
                              "inlineStyle": "",
                              "text": "5.5"
                            }
                          ]
                        },
                        {
                          "tableBodyRowItemAttibute": "",
                          "text": [
                            {
                              "tag": "span",
                              "modifierClass": "",
                              "inlineStyle": "",
                              "text": "5.5"
                            }
                          ]
                        },
                        {
                          "tableBodyRowItemAttibute": "",
                          "text": [
                            {
                              "tag": "span",
                              "modifierClass": "",
                              "inlineStyle": "",
                              "text": "5.5"
                            }
                          ]
                        }
                      ]
                    },
                    {
                      "tableBodyRowItem": [
                        {
                          "tableBodyRowItemAttibute": "",
                          "text": [
                            {
                              "tag": "span",
                              "modifierClass": "",
                              "inlineStyle": "",
                              "text": "Nasca"
                            }
                          ]
                        },
                        {
                          "tableBodyRowItemAttibute": "",
                          "text": [
                            {
                              "tag": "span",
                              "modifierClass": "",
                              "inlineStyle": "",
                              "text": "31"
                            }
                          ]
                        },
                        {
                          "tableBodyRowItemAttibute": "",
                          "text": [
                            {
                              "tag": "span",
                              "modifierClass": "",
                              "inlineStyle": "",
                              "text": "5.5"
                            }
                          ]
                        },
                        {
                          "tableBodyRowItemAttibute": "",
                          "text": [
                            {
                              "tag": "span",
                              "modifierClass": "",
                              "inlineStyle": "",
                              "text": "5.5"
                            }
                          ]
                        },
                        {
                          "tableBodyRowItemAttibute": "",
                          "text": [
                            {
                              "tag": "span",
                              "modifierClass": "",
                              "inlineStyle": "",
                              "text": "5.5"
                            }
                          ]
                        },
                        {
                          "tableBodyRowItemAttibute": "",
                          "text": [
                            {
                              "tag": "span",
                              "modifierClass": "",
                              "inlineStyle": "",
                              "text": "5.5"
                            }
                          ]
                        },
                        {
                          "tableBodyRowItemAttibute": "",
                          "text": [
                            {
                              "tag": "span",
                              "modifierClass": "",
                              "inlineStyle": "",
                              "text": "5.5"
                            }
                          ]
                        },
                        {
                          "tableBodyRowItemAttibute": "",
                          "text": [
                            {
                              "tag": "span",
                              "modifierClass": "",
                              "inlineStyle": "",
                              "text": "5.5"
                            }
                          ]
                        },
                        {
                          "tableBodyRowItemAttibute": "",
                          "text": [
                            {
                              "tag": "span",
                              "modifierClass": "",
                              "inlineStyle": "",
                              "text": "5.5"
                            }
                          ]
                        },
                        {
                          "tableBodyRowItemAttibute": "",
                          "text": [
                            {
                              "tag": "span",
                              "modifierClass": "",
                              "inlineStyle": "",
                              "text": "5.5"
                            }
                          ]
                        }
                      ]
                    },
                    {
                      "tableBodyRowItem": [
                        {
                          "tableBodyRowItemAttibute": "",
                          "text": [
                            {
                              "tag": "span",
                              "modifierClass": "",
                              "inlineStyle": "",
                              "text": "Lima"
                            }
                          ]
                        },
                        {
                          "tableBodyRowItemAttibute": "",
                          "text": [
                            {
                              "tag": "span",
                              "modifierClass": "",
                              "inlineStyle": "",
                              "text": "31"
                            }
                          ]
                        },
                        {
                          "tableBodyRowItemAttibute": "",
                          "text": [
                            {
                              "tag": "span",
                              "modifierClass": "",
                              "inlineStyle": "",
                              "text": "5.5"
                            }
                          ]
                        },
                        {
                          "tableBodyRowItemAttibute": "",
                          "text": [
                            {
                              "tag": "span",
                              "modifierClass": "",
                              "inlineStyle": "",
                              "text": "5.5"
                            }
                          ]
                        },
                        {
                          "tableBodyRowItemAttibute": "",
                          "text": [
                            {
                              "tag": "span",
                              "modifierClass": "",
                              "inlineStyle": "",
                              "text": "5.5"
                            }
                          ]
                        },
                        {
                          "tableBodyRowItemAttibute": "",
                          "text": [
                            {
                              "tag": "span",
                              "modifierClass": "",
                              "inlineStyle": "",
                              "text": "5.5"
                            }
                          ]
                        },
                        {
                          "tableBodyRowItemAttibute": "",
                          "text": [
                            {
                              "tag": "span",
                              "modifierClass": "",
                              "inlineStyle": "",
                              "text": "5.5"
                            }
                          ]
                        },
                        {
                          "tableBodyRowItemAttibute": "",
                          "text": [
                            {
                              "tag": "span",
                              "modifierClass": "",
                              "inlineStyle": "",
                              "text": "5.5"
                            }
                          ]
                        },
                        {
                          "tableBodyRowItemAttibute": "",
                          "text": [
                            {
                              "tag": "span",
                              "modifierClass": "",
                              "inlineStyle": "",
                              "text": "5.5"
                            }
                          ]
                        },
                        {
                          "tableBodyRowItemAttibute": "",
                          "text": [
                            {
                              "tag": "span",
                              "modifierClass": "",
                              "inlineStyle": "",
                              "text": "5.5"
                            }
                          ]
                        }
                      ]
                    },
                    {
                      "tableBodyRowItem": [
                        {
                          "tableBodyRowItemAttibute": "",
                          "text": [
                            {
                              "tag": "span",
                              "modifierClass": "",
                              "inlineStyle": "",
                              "text": "Suasi"
                            }
                          ]
                        },
                        {
                          "tableBodyRowItemAttibute": "",
                          "text": [
                            {
                              "tag": "span",
                              "modifierClass": "",
                              "inlineStyle": "",
                              "text": "31"
                            }
                          ]
                        },
                        {
                          "tableBodyRowItemAttibute": "",
                          "text": [
                            {
                              "tag": "span",
                              "modifierClass": "",
                              "inlineStyle": "",
                              "text": "5.5"
                            }
                          ]
                        },
                        {
                          "tableBodyRowItemAttibute": "",
                          "text": [
                            {
                              "tag": "span",
                              "modifierClass": "",
                              "inlineStyle": "",
                              "text": "5.5"
                            }
                          ]
                        },
                        {
                          "tableBodyRowItemAttibute": "",
                          "text": [
                            {
                              "tag": "span",
                              "modifierClass": "",
                              "inlineStyle": "",
                              "text": "5.5"
                            }
                          ]
                        },
                        {
                          "tableBodyRowItemAttibute": "",
                          "text": [
                            {
                              "tag": "span",
                              "modifierClass": "",
                              "inlineStyle": "",
                              "text": "5.5"
                            }
                          ]
                        },
                        {
                          "tableBodyRowItemAttibute": "",
                          "text": [
                            {
                              "tag": "span",
                              "modifierClass": "",
                              "inlineStyle": "",
                              "text": "5.5"
                            }
                          ]
                        },
                        {
                          "tableBodyRowItemAttibute": "",
                          "text": [
                            {
                              "tag": "span",
                              "modifierClass": "",
                              "inlineStyle": "",
                              "text": "5.5"
                            }
                          ]
                        },
                        {
                          "tableBodyRowItemAttibute": "",
                          "text": [
                            {
                              "tag": "span",
                              "modifierClass": "",
                              "inlineStyle": "",
                              "text": "5.5"
                            }
                          ]
                        },
                        {
                          "tableBodyRowItemAttibute": "",
                          "text": [
                            {
                              "tag": "span",
                              "modifierClass": "",
                              "inlineStyle": "",
                              "text": "5.5"
                            }
                          ]
                        }
                      ]
                    },
                    {
                      "tableBodyRowItem": [
                        {
                          "tableBodyRowItemAttibute": "",
                          "text": [
                            {
                              "tag": "span",
                              "modifierClass": "",
                              "inlineStyle": "",
                              "text": "Colca"
                            }
                          ]
                        },
                        {
                          "tableBodyRowItemAttibute": "",
                          "text": [
                            {
                              "tag": "span",
                              "modifierClass": "",
                              "inlineStyle": "",
                              "text": "31"
                            }
                          ]
                        },
                        {
                          "tableBodyRowItemAttibute": "",
                          "text": [
                            {
                              "tag": "span",
                              "modifierClass": "",
                              "inlineStyle": "",
                              "text": "5.5"
                            }
                          ]
                        },
                        {
                          "tableBodyRowItemAttibute": "",
                          "text": [
                            {
                              "tag": "span",
                              "modifierClass": "",
                              "inlineStyle": "",
                              "text": "5.5"
                            }
                          ]
                        },
                        {
                          "tableBodyRowItemAttibute": "",
                          "text": [
                            {
                              "tag": "span",
                              "modifierClass": "",
                              "inlineStyle": "",
                              "text": "5.5"
                            }
                          ]
                        },
                        {
                          "tableBodyRowItemAttibute": "",
                          "text": [
                            {
                              "tag": "span",
                              "modifierClass": "",
                              "inlineStyle": "",
                              "text": "5.5"
                            }
                          ]
                        },
                        {
                          "tableBodyRowItemAttibute": "",
                          "text": [
                            {
                              "tag": "span",
                              "modifierClass": "",
                              "inlineStyle": "",
                              "text": "5.5"
                            }
                          ]
                        },
                        {
                          "tableBodyRowItemAttibute": "",
                          "text": [
                            {
                              "tag": "span",
                              "modifierClass": "",
                              "inlineStyle": "",
                              "text": "5.5"
                            }
                          ]
                        },
                        {
                          "tableBodyRowItemAttibute": "",
                          "text": [
                            {
                              "tag": "span",
                              "modifierClass": "",
                              "inlineStyle": "",
                              "text": "5.5"
                            }
                          ]
                        },
                        {
                          "tableBodyRowItemAttibute": "",
                          "text": [
                            {
                              "tag": "span",
                              "modifierClass": "",
                              "inlineStyle": "",
                              "text": "5.5"
                            }
                          ]
                        }
                      ]
                    },
                    {
                      "tableBodyRowItem": [
                        {
                          "tableBodyRowItemAttibute": "",
                          "text": [
                            {
                              "tag": "span",
                              "modifierClass": "",
                              "inlineStyle": "",
                              "text": "Valle Sagrado + Colca"
                            }
                          ]
                        },
                        {
                          "tableBodyRowItemAttibute": "",
                          "text": [
                            {
                              "tag": "span",
                              "modifierClass": "",
                              "inlineStyle": "",
                              "text": "31"
                            }
                          ]
                        },
                        {
                          "tableBodyRowItemAttibute": "",
                          "text": [
                            {
                              "tag": "span",
                              "modifierClass": "",
                              "inlineStyle": "",
                              "text": "5.5"
                            }
                          ]
                        },
                        {
                          "tableBodyRowItemAttibute": "",
                          "text": [
                            {
                              "tag": "span",
                              "modifierClass": "",
                              "inlineStyle": "",
                              "text": "5.5"
                            }
                          ]
                        },
                        {
                          "tableBodyRowItemAttibute": "",
                          "text": [
                            {
                              "tag": "span",
                              "modifierClass": "",
                              "inlineStyle": "",
                              "text": "5.5"
                            }
                          ]
                        },
                        {
                          "tableBodyRowItemAttibute": "",
                          "text": [
                            {
                              "tag": "span",
                              "modifierClass": "",
                              "inlineStyle": "",
                              "text": "5.5"
                            }
                          ]
                        },
                        {
                          "tableBodyRowItemAttibute": "",
                          "text": [
                            {
                              "tag": "span",
                              "modifierClass": "",
                              "inlineStyle": "",
                              "text": "5.5"
                            }
                          ]
                        },
                        {
                          "tableBodyRowItemAttibute": "",
                          "text": [
                            {
                              "tag": "span",
                              "modifierClass": "",
                              "inlineStyle": "",
                              "text": "5.5"
                            }
                          ]
                        },
                        {
                          "tableBodyRowItemAttibute": "",
                          "text": [
                            {
                              "tag": "span",
                              "modifierClass": "",
                              "inlineStyle": "",
                              "text": "5.5"
                            }
                          ]
                        },
                        {
                          "tableBodyRowItemAttibute": "",
                          "text": [
                            {
                              "tag": "span",
                              "modifierClass": "",
                              "inlineStyle": "",
                              "text": "5.5"
                            }
                          ]
                        }
                      ]
                    },
                    {
                      "tableBodyRowItem": [
                        {
                          "tableBodyRowItemAttibute": "",
                          "text": [
                            {
                              "tag": "span",
                              "modifierClass": "",
                              "inlineStyle": "",
                              "text": "Valle Sagrado + Suasi"
                            }
                          ]
                        },
                        {
                          "tableBodyRowItemAttibute": "",
                          "text": [
                            {
                              "tag": "span",
                              "modifierClass": "",
                              "inlineStyle": "",
                              "text": "31"
                            }
                          ]
                        },
                        {
                          "tableBodyRowItemAttibute": "",
                          "text": [
                            {
                              "tag": "span",
                              "modifierClass": "",
                              "inlineStyle": "",
                              "text": "5.5"
                            }
                          ]
                        },
                        {
                          "tableBodyRowItemAttibute": "",
                          "text": [
                            {
                              "tag": "span",
                              "modifierClass": "",
                              "inlineStyle": "",
                              "text": "5.5"
                            }
                          ]
                        },
                        {
                          "tableBodyRowItemAttibute": "",
                          "text": [
                            {
                              "tag": "span",
                              "modifierClass": "",
                              "inlineStyle": "",
                              "text": "5.5"
                            }
                          ]
                        },
                        {
                          "tableBodyRowItemAttibute": "",
                          "text": [
                            {
                              "tag": "span",
                              "modifierClass": "",
                              "inlineStyle": "",
                              "text": "5.5"
                            }
                          ]
                        },
                        {
                          "tableBodyRowItemAttibute": "",
                          "text": [
                            {
                              "tag": "span",
                              "modifierClass": "",
                              "inlineStyle": "",
                              "text": "5.5"
                            }
                          ]
                        },
                        {
                          "tableBodyRowItemAttibute": "",
                          "text": [
                            {
                              "tag": "span",
                              "modifierClass": "",
                              "inlineStyle": "",
                              "text": "5.5"
                            }
                          ]
                        },
                        {
                          "tableBodyRowItemAttibute": "",
                          "text": [
                            {
                              "tag": "span",
                              "modifierClass": "",
                              "inlineStyle": "",
                              "text": "5.5"
                            }
                          ]
                        },
                        {
                          "tableBodyRowItemAttibute": "",
                          "text": [
                            {
                              "tag": "span",
                              "modifierClass": "",
                              "inlineStyle": "",
                              "text": "5.5"
                            }
                          ]
                        }
                      ]
                    },
                    {
                      "tableBodyRowItem": [
                        {
                          "tableBodyRowItemAttibute": "",
                          "text": [
                            {
                              "tag": "span",
                              "modifierClass": "",
                              "inlineStyle": "",
                              "text": "Valle Sagrado + Colca Suasi"
                            }
                          ]
                        },
                        {
                          "tableBodyRowItemAttibute": "",
                          "text": [
                            {
                              "tag": "span",
                              "modifierClass": "",
                              "inlineStyle": "",
                              "text": "31"
                            }
                          ]
                        },
                        {
                          "tableBodyRowItemAttibute": "",
                          "text": [
                            {
                              "tag": "span",
                              "modifierClass": "",
                              "inlineStyle": "",
                              "text": "5.5"
                            }
                          ]
                        },
                        {
                          "tableBodyRowItemAttibute": "",
                          "text": [
                            {
                              "tag": "span",
                              "modifierClass": "",
                              "inlineStyle": "",
                              "text": "5.5"
                            }
                          ]
                        },
                        {
                          "tableBodyRowItemAttibute": "",
                          "text": [
                            {
                              "tag": "span",
                              "modifierClass": "",
                              "inlineStyle": "",
                              "text": "5.5"
                            }
                          ]
                        },
                        {
                          "tableBodyRowItemAttibute": "",
                          "text": [
                            {
                              "tag": "span",
                              "modifierClass": "",
                              "inlineStyle": "",
                              "text": "5.5"
                            }
                          ]
                        },
                        {
                          "tableBodyRowItemAttibute": "",
                          "text": [
                            {
                              "tag": "span",
                              "modifierClass": "",
                              "inlineStyle": "",
                              "text": "5.5"
                            }
                          ]
                        },
                        {
                          "tableBodyRowItemAttibute": "",
                          "text": [
                            {
                              "tag": "span",
                              "modifierClass": "",
                              "inlineStyle": "",
                              "text": "5.5"
                            }
                          ]
                        },
                        {
                          "tableBodyRowItemAttibute": "",
                          "text": [
                            {
                              "tag": "span",
                              "modifierClass": "",
                              "inlineStyle": "",
                              "text": "5.5"
                            }
                          ]
                        },
                        {
                          "tableBodyRowItemAttibute": "",
                          "text": [
                            {
                              "tag": "span",
                              "modifierClass": "",
                              "inlineStyle": "",
                              "text": "5.5"
                            }
                          ]
                        }
                      ]
                    }
                  ]
                }
              ]
            }
          ],
          "button": [
            {
              "classModifier": "g-btn-primary g-block",
              "type": "button",
              "inlineStyle": "",
              "textButton": "Cotizar"
            }
          ]
        }
      ]
    }
  ],
  "sectionCarouselExperiences": [
    {
      "modifierClass": "g-section--padding-90 g-bgc-gray7",
      "title": [
        {
          "tag": "h2",
          "modifierClass": "g-heading",
          "text": "Más que viajes, experiencias"
        }
      ],
      "carousel": [
        {
          "controls": [
            {
              "classControlModifier": "carousel-control--black",
              "iconLeftClass": "la-angle-left",
              "iconRightClass": "la-angle-right",
              "startNumber": "01",
              "finalNumber": "03"
            }
          ],
          "carouselItem": [
            {
              "classItemModifier": "carousel-item--sm active",
              "card": [
                {
                  "classModifier": "s-card-wrapper--sm",
                  "fog": [
                    {
                      "classModifier": "",
                      "link": [
                        {
                          "link": "#",
                          "modifierClass": "g-link-icon-right",
                          "iconLeft": false,
                          "text": "Ver experiencia",
                          "iconRight": [
                            {
                              "class": "la la-arrow-right"
                            }
                          ]
                        }
                      ],
                      "button": [
                        {
                          "classModifier": "g-btn-primary g-btn-fat g-block mt-2-5",
                          "type": "button",
                          "textButton": "Reservar"
                        }
                      ],
                      "share": [
                        {
                          "classModifier": "mt-2",
                          "text": [
                            {
                              "tag": "span",
                              "modifierClass": " g-text-uppercase",
                              "text": "Compartir:"
                            }
                          ],
                          "nav": [
                            {
                              "items": [
                                {
                                  "liClass": "g-nav-item",
                                  "link": "#",
                                  "iconClass": "la la-facebook-official"
                                },
                                {
                                  "liClass": "g-nav-item",
                                  "link": "#",
                                  "iconClass": "la la-twitter"
                                },
                                {
                                  "liClass": "g-nav-item",
                                  "link": "#",
                                  "iconClass": "la la-instagram"
                                }
                              ]
                            }
                          ]
                        }
                      ]
                    }
                  ],
                  "tag": [
                    {
                      "classModifier": "g-tag-type",
                      "inlineStyle": "style='background-color: #ff4200;'",
                      "text": [
                        {
                          "tag": "span",
                          "modifierClass": false,
                          "text": "Standard"
                        }
                      ]
                    }
                  ],
                  "tagSale": false,
                  "urlImage": "../../images/bkg-card.jpg",
                  "info": [
                    {
                      "classModifier": "g-info",
                      "salePlaceText": [
                        {
                          "tag": "span",
                          "modifierClass": "",
                          "text": "Casa Andina Standard Puno"
                        }
                      ],
                      "saleInfoText": [
                        {
                          "tag": "p",
                          "modifierClass": "",
                          "text": "Naturaleza"
                        }
                      ],
                      "experienceInfoText": [
                        {
                          "tag": "span",
                          "modifierClass": "experience",
                          "text": "Destinos dónde puedas desconectarte y alimentar tu mente y cuerpo."
                        }
                      ]
                    }
                  ]
                }
              ]
            },
            {
              "classItemModifier": "carousel-item--sm active",
              "card": [
                {
                  "classModifier": "s-card-wrapper--sm",
                  "fog": [
                    {
                      "classModifier": "",
                      "link": [
                        {
                          "link": "#",
                          "modifierClass": "g-link-icon-right",
                          "iconLeft": false,
                          "text": "Ver experiencia",
                          "iconRight": [
                            {
                              "class": "la la-arrow-right"
                            }
                          ]
                        }
                      ],
                      "button": [
                        {
                          "classModifier": "g-btn-primary g-btn-fat g-block mt-2-5",
                          "type": "button",
                          "textButton": "Reservar"
                        }
                      ],
                      "share": [
                        {
                          "classModifier": "mt-2",
                          "text": [
                            {
                              "tag": "span",
                              "modifierClass": " g-text-uppercase",
                              "text": "Compartir:"
                            }
                          ],
                          "nav": [
                            {
                              "items": [
                                {
                                  "liClass": "g-nav-item",
                                  "link": "#",
                                  "iconClass": "la la-facebook-official"
                                },
                                {
                                  "liClass": "g-nav-item",
                                  "link": "#",
                                  "iconClass": "la la-twitter"
                                },
                                {
                                  "liClass": "g-nav-item",
                                  "link": "#",
                                  "iconClass": "la la-instagram"
                                }
                              ]
                            }
                          ]
                        }
                      ]
                    }
                  ],
                  "tag": [
                    {
                      "classModifier": "g-tag-type",
                      "inlineStyle": "style='background-color: #008eaa;'",
                      "text": [
                        {
                          "tag": "span",
                          "modifierClass": false,
                          "text": "Select"
                        }
                      ]
                    }
                  ],
                  "tagSale": false,
                  "urlImage": "../../images/bkg-card.jpg",
                  "info": [
                    {
                      "classModifier": "g-info",
                      "salePlaceText": [
                        {
                          "tag": "span",
                          "modifierClass": "",
                          "text": "Casa Andina Select Arequipa Plaza"
                        }
                      ],
                      "saleInfoText": [
                        {
                          "tag": "p",
                          "modifierClass": "",
                          "text": "Historia"
                        }
                      ],
                      "experienceInfoText": [
                        {
                          "tag": "span",
                          "modifierClass": "experience",
                          "text": "Destinos dónde puedas desconectarte y alimentar tu mente y cuerpo."
                        }
                      ]
                    }
                  ]
                }
              ]
            },
            {
              "classItemModifier": "carousel-item--sm active",
              "card": [
                {
                  "classModifier": "s-card-wrapper--sm",
                  "fog": [
                    {
                      "classModifier": "",
                      "link": [
                        {
                          "link": "#",
                          "modifierClass": "g-link-icon-right",
                          "iconLeft": false,
                          "text": "Ver experiencia",
                          "iconRight": [
                            {
                              "class": "la la-arrow-right"
                            }
                          ]
                        }
                      ],
                      "button": [
                        {
                          "classModifier": "g-btn-primary g-btn-fat g-block mt-2-5",
                          "type": "button",
                          "textButton": "Reservar"
                        }
                      ],
                      "share": [
                        {
                          "classModifier": "mt-2",
                          "text": [
                            {
                              "tag": "span",
                              "modifierClass": " g-text-uppercase",
                              "text": "Compartir:"
                            }
                          ],
                          "nav": [
                            {
                              "items": [
                                {
                                  "liClass": "g-nav-item",
                                  "link": "#",
                                  "iconClass": "la la-facebook-official"
                                },
                                {
                                  "liClass": "g-nav-item",
                                  "link": "#",
                                  "iconClass": "la la-twitter"
                                },
                                {
                                  "liClass": "g-nav-item",
                                  "link": "#",
                                  "iconClass": "la la-instagram"
                                }
                              ]
                            }
                          ]
                        }
                      ]
                    }
                  ],
                  "tag": [
                    {
                      "classModifier": "g-tag-type",
                      "inlineStyle": "style='background-color: #002855;'",
                      "text": [
                        {
                          "tag": "span",
                          "modifierClass": false,
                          "text": "Premium"
                        }
                      ]
                    }
                  ],
                  "tagSale": false,
                  "urlImage": "../../images/bkg-card.jpg",
                  "info": [
                    {
                      "classModifier": "g-info",
                      "salePlaceText": [
                        {
                          "tag": "span",
                          "modifierClass": "",
                          "text": "Casa Andina Premium Valle Sagrado Hotel & Villas"
                        }
                      ],
                      "saleInfoText": [
                        {
                          "tag": "p",
                          "modifierClass": "",
                          "text": "Well - ness"
                        }
                      ],
                      "experienceInfoText": [
                        {
                          "tag": "span",
                          "modifierClass": "experience",
                          "text": "Destinos dónde puedas desconectarte y alimentar tu mente y cuerpo."
                        }
                      ]
                    }
                  ]
                }
              ]
            }
          ]
        }
      ],
      "sectionLink": [
        {
          "link": "#",
          "modifierClass": "g-link-icon-right",
          "iconLeft": false,
          "text": "Mas experiencias",
          "iconRight": [
            {
              "class": "la la-arrow-right"
            }
          ]
        }
      ]
    }
  ],
  "sectionTags": [
    {
      "classModifier": "g-section--padding-90 pt-0 g-bgc-gray7",
      "findHotel": [
        {
          "classModifier": "align-items-center",
          "icon": [
            {
              "class": "la la-angle-right"
            }
          ],
          "title": [
            {
              "tag": "h2",
              "classModifier": "",
              "headingText": "Encuentra el mejor hotel para ti"
            }
          ],
          "navTags": [
            {
              "classModifier": "g-nav--single-tag",
              "items": [
                {
                  "tagLink": "#",
                  "tag": [
                    {
                      "classModifier": "g-tag-single",
                      "text": [
                        {
                          "tag": "span",
                          "modifierClass": "",
                          "text": "Dog friendly"
                        }
                      ]
                    }
                  ]
                },
                {
                  "tagLink": "#",
                  "tag": [
                    {
                      "classModifier": "g-tag-single",
                      "text": [
                        {
                          "tag": "span",
                          "modifierClass": "",
                          "text": "Hotel Sauna"
                        }
                      ]
                    }
                  ]
                },
                {
                  "tagLink": "#",
                  "tag": [
                    {
                      "classModifier": "g-tag-single",
                      "text": [
                        {
                          "tag": "span",
                          "modifierClass": "",
                          "text": "Hotel con piscina"
                        }
                      ]
                    }
                  ]
                },
                {
                  "tagLink": "#",
                  "tag": [
                    {
                      "classModifier": "g-tag-single",
                      "text": [
                        {
                          "tag": "span",
                          "modifierClass": "",
                          "text": "Hotel vista al mar"
                        }
                      ]
                    }
                  ]
                },
                {
                  "tagLink": "#",
                  "tag": [
                    {
                      "classModifier": "g-tag-single",
                      "text": [
                        {
                          "tag": "span",
                          "modifierClass": "",
                          "text": "Terraza al aire libre"
                        }
                      ]
                    }
                  ]
                }
              ]
            }
          ]
        }
      ]
    }
  ]
}
