{
  "cardHeader": [
    {
      "col": [
        {
          "colClass": "col-5",
          "cardInfo": [
            {
              "title": "Usuario",
              "infoWithIcon": [
                {
                  "iconClass": "la la-user",
                  "text": "<strong>Jose Herrera Nevado</strong> - usuario"
                }
              ]
            }
          ]
        },
        {
          "colClass": "col-4",
          "cardInfo": [
            {
              "title": "Rol",
              "infoWithIcon": [
                {
                  "iconClass": "la la-briefcase",
                  "text": "Administrador"
                }
              ]
            }
          ]
        },
        {
          "colClass": "col-3 text-right",
          "squareBtn": [
            {
              "type": "button",
              "classModifier": "",
              "iconClass": "la la-trash",
              "text": "Eliminar"
            },
            {
              "type": "button",
              "classModifier": "",
              "iconClass": "la la-edit",
              "text": "Editar"
            }
          ]
        }
      ]
    }
  ],
  "cardBody": [
    {
      "title": [
        {
          "iconClass": "la la-briefcase",
          "text": "Rol"
        }
      ],
      "roles": [
        {
          "className": "g-radio",
          "type": "radio",
          "name": "userRol",
          "labelText": "Administrador"
        },
        {
          "className": "g-radio",
          "type": "radio",
          "name": "userRol",
          "labelText": "Editor"
        },
        {
          "className": "g-radio",
          "type": "radio",
          "name": "userRol",
          "labelText": "Admin. Jr."
        }
      ],
      "addRolBtn": [
        {
          "link": "#",
          "modifierClass": "",
          "iconLeft": [
            {
              "class": "la la-plus-circle"
            }
          ],
          "text": "Crear rol"
        }
      ]
    }
  ]
}
