{
  "box": [
    {
      "modifierClass": "s-box--tr s-box--big s-box--tab",
      "boxContentModifierClass": "px-0 px-sm-2 pt-0 pt-sm-2 pb-1 pb-sm-3",
      "content": [
        {
          "tag": "h3",
          "modifierClass": "g-fs-18 g-fs-sm-24 g-fs-md-30 g-f-nexa-slab g-fw-book",
          "text": "Lima restaurant Week"
        },
        {
          "tag": "p",
          "modifierClass": "",
          "text": "Es un parque con caminerías que bordean el acantilado de la Costa Verde, ubicado en el distrito de Miraflores. Es uno de los principales atractives turísticos de la ciudad. Puedes realizar diferentes actividades, como pasear por los 5 kilómetros de recorrido. Los picnics para ver la puesta de sol son muy comunes en verano. Si te gusta la aventura y quieres ver a Lima panorámica no puedes perderte la experiencia de volar en parapente. Los lugares cercanos que podrás visitar son el Centro Comercial Larcomar, el parque Kennedy, el Museo de Arte Contemporáneo y el Parque del Amor."
        }
      ]
    }
  ],
  "imageBgBox": [
    {
      "modifierClass": "",
      "figureImage": [
        {
          "classModifier": "",
          "src": "https://placehold.it/540x320",
          "alt": ""
        }
      ]
    }
  ]
}
