{
  "text": [
    {
      "tag": "span",
      "modifierClass": "g-fs-15",
      "text": "Somos una cadena hotelera peruana fundada en febrero de 2003, enfocada en proporcionar a nuestros huéspedes una experiencia de viaje. Integramos las particularidades de cada destino donde nos encontramos, desde arquitectura, decoración, gastronomía, actividades y música, ofreciendo así a nuestros visitantes una experiencia de viaje única."
    }
  ],
  "text2": [
    {
      "tag": "span",
      "modifierClass": "g-fs-15",
      "text": "1 Cama King | 25 m2 | Vista a la calle"
    }
  ],
  "servicesBox": [
    {
      "modifierClass": "g-box--corners-20 g-box--corners-20-tr",
      "corners": [
        {
          "classLeft": "side-left",
          "classRight": "side-right"
        }
      ],
      "services": [
        {
          "classModifier": "",
          "title": false,
          "col": [
            {
              "colClass": "col-sm-6 col-md-4",
              "service": [
                {
                  "classModifier": "",
                  "info": [
                    {
                      "icon": [
                        {
                          "class": "la la-coffee",
                          "inlineStyle": "style='color: #002855;'"
                        }
                      ],
                      "textNormal": "Desayuno Buffet",
                      "textBold": ""
                    }
                  ]
                }
              ]
            },
            {
              "colClass": "col-sm-6 col-md-4",
              "service": [
                {
                  "classModifier": "",
                  "info": [
                    {
                      "icon": [
                        {
                          "class": "la la-cutlery",
                          "inlineStyle": "style='color: #002855;'"
                        }
                      ],
                      "textNormal": "Restaurante",
                      "textBold": ""
                    }
                  ]
                }
              ]
            },
            {
              "colClass": "col-sm-6 col-md-4",
              "service": [
                {
                  "classModifier": "",
                  "info": [
                    {
                      "icon": [
                        {
                          "class": "la la-child",
                          "inlineStyle": "style='color: #002855;'"
                        }
                      ],
                      "textNormal": "Juego infantiles",
                      "textBold": ""
                    }
                  ]
                }
              ]
            },
            {
              "colClass": "col-sm-6 col-md-4",
              "service": [
                {
                  "classModifier": "",
                  "info": [
                    {
                      "icon": [
                        {
                          "class": "la la-map-marker",
                          "inlineStyle": "style='color: #002855;'"
                        }
                      ],
                      "textNormal": "Excelente ubicación",
                      "textBold": ""
                    }
                  ]
                }
              ]
            },
            {
              "colClass": "col-sm-6 col-md-4",
              "service": [
                {
                  "classModifier": "",
                  "info": [
                    {
                      "icon": [
                        {
                          "class": "la la-leaf",
                          "inlineStyle": "style='color: #002855;'"
                        }
                      ],
                      "textNormal": "Spa",
                      "textBold": ""
                    }
                  ]
                }
              ]
            },
            {
              "colClass": "col-sm-6 col-md-4",
              "service": [
                {
                  "classModifier": "",
                  "info": [
                    {
                      "icon": [
                        {
                          "class": "la la-star-o",
                          "inlineStyle": "style='color: #002855;'"
                        }
                      ],
                      "textNormal": "Sauna",
                      "textBold": ""
                    }
                  ]
                }
              ]
            },
            {
              "colClass": "col-sm-6 col-md-4",
              "service": [
                {
                  "classModifier": "",
                  "info": [
                    {
                      "icon": [
                        {
                          "class": "la la-unlock-alt",
                          "inlineStyle": "style='color: #002855;'"
                        }
                      ],
                      "textNormal": "Caja de seguridad en recepción",
                      "textBold": ""
                    }
                  ]
                }
              ]
            },
            {
              "colClass": "col-sm-6 col-md-4",
              "service": [
                {
                  "classModifier": "",
                  "info": [
                    {
                      "icon": [
                        {
                          "class": "la la-glass",
                          "inlineStyle": "style='color: #002855;'"
                        }
                      ],
                      "textNormal": "Bar",
                      "textBold": ""
                    }
                  ]
                }
              ]
            },
            {
              "colClass": "col-sm-6 col-md-4",
              "service": [
                {
                  "classModifier": "",
                  "info": [
                    {
                      "icon": [
                        {
                          "class": "la la-automobile",
                          "inlineStyle": "style='color: #002855;'"
                        }
                      ],
                      "textNormal": "Estacionamiento gratuito",
                      "textBold": ""
                    }
                  ]
                }
              ]
            },
            {
              "colClass": "col-sm-6 col-md-4",
              "service": [
                {
                  "classModifier": "",
                  "info": [
                    {
                      "icon": [
                        {
                          "class": "la la-bed",
                          "inlineStyle": "style='color: #002855;'"
                        }
                      ],
                      "textNormal": "Habitación altamente confortable",
                      "textBold": ""
                    }
                  ]
                }
              ]
            },
            {
              "colClass": "col-sm-6 col-md-4",
              "service": [
                {
                  "classModifier": "",
                  "info": [
                    {
                      "icon": [
                        {
                          "class": "la la-suitcase",
                          "inlineStyle": "style='color: #002855;'"
                        }
                      ],
                      "textNormal": "Room Service",
                      "textBold": ""
                    }
                  ]
                }
              ]
            },
            {
              "colClass": "col-sm-6 col-md-4",
              "service": [
                {
                  "classModifier": "",
                  "info": [
                    {
                      "icon": [
                        {
                          "class": "la la-wifi",
                          "inlineStyle": "style='color: #002855;'"
                        }
                      ],
                      "textNormal": "Wifi",
                      "textBold": ""
                    }
                  ]
                }
              ]
            },
            {
              "colClass": "col-sm-6 col-md-4",
              "service": [
                {
                  "classModifier": "",
                  "info": [
                    {
                      "icon": [
                        {
                          "class": "la la-laptop",
                          "inlineStyle": "style='color: #002855;'"
                        }
                      ],
                      "textNormal": "Centro de internet",
                      "textBold": ""
                    }
                  ]
                }
              ]
            },
            {
              "colClass": "col-sm-6 col-md-4",
              "service": [
                {
                  "classModifier": "",
                  "info": [
                    {
                      "icon": [
                        {
                          "class": "la la-credit-card",
                          "inlineStyle": "style='color: #002855;'"
                        }
                      ],
                      "textNormal": "Se acepta pagos con UnionPay",
                      "textBold": ""
                    }
                  ]
                }
              ]
            },
            {
              "colClass": "col-sm-6 col-md-4",
              "service": [
                {
                  "classModifier": "",
                  "info": [
                    {
                      "icon": [
                        {
                          "class": "la la-tint",
                          "inlineStyle": "style='color: #002855;'"
                        }
                      ],
                      "textNormal": "Lavanderia",
                      "textBold": ""
                    }
                  ]
                }
              ]
            }
          ]
        }
      ]
    }
  ]
}
