{
  "hotelsList": [
    {
      "modifierClass": "",
      "item": [
        {
          "modifierClass": "active",
          "itemHeader": [
            {
              "modifierClass": "",
              "text": "En <strong>Arequipa (3)</strong>"
            }
          ],
          "itemBody": [
            {
              "modifierClass": "",
              "link": [
                {
                  "text": "Casa Andina <span class='standard'>Standard</span> Arequipa"
                },
                {
                  "text": "Casa Andina <span class='select'>Select</span> Arequipa Plaza"
                },
                {
                  "text": "Casa Andina <span class='premium'>Premium</span> Arequipa"
                }
              ]
            }
          ]
        },
        {
          "modifierClass": "active",
          "itemHeader": [
            {
              "modifierClass": "",
              "text": "En <strong>Colca (1)</strong>"
            }
          ],
          "itemBody": [
            {
              "modifierClass": "",
              "link": [
                {
                  "text": "Casa Andina <span class='standard'>Standard</span> Colca"
                }
              ]
            }
          ]
        },
        {
          "modifierClass": "active",
          "itemHeader": [
            {
              "modifierClass": "",
              "text": "En <strong>Cusco (5)</strong>"
            }
          ],
          "itemBody": [
            {
              "modifierClass": "",
              "link": [
                {
                  "text": "Casa Andina <span class='standard'>Standard</span> Cusco San Blas"
                },
                {
                  "text": "Casa Andina <span class='standard'>Standard</span> Cusco Plaza"
                },
                {
                  "text": "Casa Andina <span class='standard'>Standard</span> Cusco Catedral"
                },
                {
                  "text": "Casa Andina <span class='standard'>Standard</span> Cusco koricancha"
                },
                {
                  "text": "Casa Andina <span class='premium'>Premium</span> Cusco"
                }
              ]
            }
          ]
        },
        {
          "modifierClass": "active",
          "itemHeader": [
            {
              "modifierClass": "",
              "text": "En <strong>Chincha (1)</strong>"
            }
          ],
          "itemBody": [
            {
              "modifierClass": "",
              "link": [
                {
                  "text": "Casa Andina <span class='standard'>Standard</span> Chincha"
                }
              ]
            }
          ]
        },
        {
          "modifierClass": "active",
          "itemHeader": [
            {
              "modifierClass": "",
              "text": "En <strong>Chiclayo (1)</strong>"
            }
          ],
          "itemBody": [
            {
              "modifierClass": "",
              "link": [
                {
                  "text": "Casa Andina <span class='select'>Select</span> Chiclayo"
                }
              ]
            }
          ]
        },
        {
          "modifierClass": "active",
          "itemHeader": [
            {
              "modifierClass": "",
              "text": "En <strong>Machu Picchu (1)</strong>"
            }
          ],
          "itemBody": [
            {
              "modifierClass": "",
              "link": [
                {
                  "text": "Casa Andina <span class='standard'>Standard</span> Cusco Machu Picchu"
                }
              ]
            }
          ]
        },
        {
          "modifierClass": "active",
          "itemHeader": [
            {
              "modifierClass": "",
              "text": "En <strong>Lima (4)</strong>"
            }
          ],
          "itemBody": [
            {
              "modifierClass": "",
              "link": [
                {
                  "text": "Casa Andina <span class='standard'>Standard</span> Miraflores San Antonio"
                },
                {
                  "text": "Casa Andina <span class='standard'>Standard</span> Miraflores Centro"
                },
                {
                  "text": "Casa Andina <span class='select'>Select</span> Miraflores"
                },
                {
                  "text": "Casa Andina <span class='premium'>Premium</span> Miraflores"
                }
              ]
            }
          ]
        },
        {
          "modifierClass": "active",
          "itemHeader": [
            {
              "modifierClass": "",
              "text": "En <strong>Moquegua (1)</strong>"
            }
          ],
          "itemBody": [
            {
              "modifierClass": "",
              "link": [
                {
                  "text": "Casa Andina <span class='select'>Select</span> Moquegua"
                }
              ]
            }
          ]
        },
        {
          "modifierClass": "active",
          "itemHeader": [
            {
              "modifierClass": "",
              "text": "En <strong>Nasca (1)</strong>"
            }
          ],
          "itemBody": [
            {
              "modifierClass": "",
              "link": [
                {
                  "text": "Casa Andina <span class='standard'>Standard</span> Nasca"
                }
              ]
            }
          ]
        },
        {
          "modifierClass": "active",
          "itemHeader": [
            {
              "modifierClass": "",
              "text": "En <strong>Piura (2)</strong>"
            }
          ],
          "itemBody": [
            {
              "modifierClass": "",
              "link": [
                {
                  "text": "Casa Andina <span class='standard'>Standard</span> Piura"
                },
                {
                  "text": "Casa Andina <span class='premium'>Premium</span> Piura"
                }
              ]
            }
          ]
        },
        {
          "modifierClass": "active",
          "itemHeader": [
            {
              "modifierClass": "",
              "text": "En <strong>Puno (2)</strong>"
            }
          ],
          "itemBody": [
            {
              "modifierClass": "",
              "link": [
                {
                  "text": "Casa Andina <span class='standard'>Standard</span> Puno"
                },
                {
                  "text": "Casa Andina <span class='premium'>Premium</span> Puno"
                }
              ]
            }
          ]
        },
        {
          "modifierClass": "active",
          "itemHeader": [
            {
              "modifierClass": "",
              "text": "En <strong>Pucallpa (1)</strong>"
            }
          ],
          "itemBody": [
            {
              "modifierClass": "",
              "link": [
                {
                  "text": "Casa Andina <span class='select'>Select</span> Pucallpa"
                }
              ]
            }
          ]
        },
        {
          "modifierClass": "active",
          "itemHeader": [
            {
              "modifierClass": "",
              "text": "En <strong>Tacna (1)</strong>"
            }
          ],
          "itemBody": [
            {
              "modifierClass": "",
              "link": [
                {
                  "text": "Casa Andina <span class='select'>Select</span> Tacna"
                }
              ]
            }
          ]
        },
        {
          "modifierClass": "active",
          "itemHeader": [
            {
              "modifierClass": "",
              "text": "En <strong>Trujillo (2)</strong>"
            }
          ],
          "itemBody": [
            {
              "modifierClass": "",
              "link": [
                {
                  "text": "Casa Andina <span class='standard'>Standard</span> Trujillo Plaza"
                },
                {
                  "text": "Casa Andina <span class='premium'>Premium</span> Trujillo"
                }
              ]
            }
          ]
        },
        {
          "modifierClass": "active",
          "itemHeader": [
            {
              "modifierClass": "",
              "text": "En <strong>Talara (1)</strong>"
            }
          ],
          "itemBody": [
            {
              "modifierClass": "",
              "link": [
                {
                  "text": "Casa Andina <span class='standard'>Standard</span> Talara"
                }
              ]
            }
          ]
        },
        {
          "modifierClass": "active",
          "itemHeader": [
            {
              "modifierClass": "",
              "text": "En <strong>Valle Sagrado (1)</strong>"
            }
          ],
          "itemBody": [
            {
              "modifierClass": "",
              "link": [
                {
                  "text": "Casa Andina <span class='premium'>Premium</span> Valle Sagrado Hotel & Villas"
                }
              ]
            }
          ]
        },
        {
          "modifierClass": "active",
          "itemHeader": [
            {
              "modifierClass": "",
              "text": "En <strong>Zorritos Tumbes (1)</strong>"
            }
          ],
          "itemBody": [
            {
              "modifierClass": "",
              "link": [
                {
                  "text": "Casa Andina <span class='select'>Select</span> Zorritos Tumbes"
                }
              ]
            }
          ]
        }
      ]
    }
  ]
}
