{
  "figureImage": [
    {
      "classModifier": "w-100",
      "src": "../../images/why-casa-andina.jpg",
      "alt": ""
    }
  ],
  "inlineList": [
    {
      "modifierClass": "",
      "item": [
        {
          "modifierClass": "",
          "bulletColor": "",
          "text": "Premios y certificados"
        }
      ]
    }
  ],
  "awardsImage": [
    {
      "classModifier": "g-w-60 g-w-md-80",
      "src": "../../images/logopremio-1.jpg",
      "alt": ""
    },
    {
      "classModifier": "g-w-60 g-w-md-80",
      "src": "../../images/logopremio-2.jpg",
      "alt": ""
    },
    {
      "classModifier": "g-w-60 g-w-md-80",
      "src": "../../images/logopremio-3.jpg",
      "alt": ""
    },
    {
      "classModifier": "g-w-60 g-w-md-80",
      "src": "../../images/logopremio-4.jpg",
      "alt": ""
    },
    {
      "classModifier": "g-w-60 g-w-md-80",
      "src": "../../images/logopremio-1.jpg",
      "alt": ""
    },
    {
      "classModifier": "g-w-60 g-w-md-80",
      "src": "../../images/logopremio-2.jpg",
      "alt": ""
    }
  ]
}
