{
  "modifierClass": "s-img-bg-2 s-img-bg-md-100 d-flex align-items-end p-1",
  "imgUrl": "https://placehold.it/500x500",
  "captionHotelDetail": [
    {
      "figcaptionClass": "s-figcaption-detail",
      "modifierClass": "s-box--big s-box--tr",
      "boxContentModifierClass": "",
      "img": false,
      "content": [
        {
          "tag": "h4",
          "modifierClass": "g-fs-20 g-fw-normal g-cl-premium g-block mb-1",
          "text": "Casa Andina Premium Miraflores"
        },
        {
          "tag": "p",
          "modifierClass": "g-fw-bold g-block",
          "text": "Desde <span class='g-fw-normal g-fs-30'><small>S/</small>337</span>"
        }
      ],
      "button": [
        {
          "classModifier": "g-btn-primary g-btn-fat g-block",
          "type": "button",
          "textButton": "Reservar"
        }
      ],
      "link": false
    }
  ]
}
