{
  "classModifier": "s-box--bl-tr s-box--decoration s-box--shadow",
  "boxContentModifierClass": "",
  "title": [
    {
      "tag": "h2",
      "classModifier": "g-heading--sm",
      "headingText": "Beneficios por reservar on-line"
    }
  ],
  "features": [
    {
      "classModifier": "g-feature--benefits",
      "info": [
        {
          "icon": [
            {
              "class": "la la-cutlery"
            }
          ],
          "textNormal": "10% dcto. en nuestros restaurantes",
          "textBold": ""
        }
      ]
    },
    {
      "classModifier": "g-feature--benefits",
      "info": [
        {
          "icon": [
            {
              "class": "la la-glass"
            }
          ],
          "textNormal": "Welcome Drink",
          "textBold": ""
        }
      ]
    },
    {
      "classModifier": "g-feature--benefits",
      "info": [
        {
          "icon": [
            {
              "class": "la la la-calendar-check-o"
            }
          ],
          "textNormal": "Posibilidad de cambiar fechas",
          "textBold": ""
        }
      ]
    },
    {
      "classModifier": "g-feature--benefits",
      "info": [
        {
          "icon": [
            {
              "class": "la la-bed"
            }
          ],
          "textNormal": "Tarifa única en Jr. Suite y Suite",
          "textBold": ""
        }
      ]
    },
    {
      "classModifier": "g-feature--benefits",
      "info": [
        {
          "icon": [
            {
              "class": "la la-heart-o"
            }
          ],
          "textNormal": "Programa de lealtad",
          "textBold": ""
        }
      ]
    }
  ]
}
