{
  "boxModifierClass": "s-box--bl-tr s-box--shadow s-box--decoration s-box--text",
  "boxContentModifierClass": "py-1 py-md-2 px-0 px-sm-2 px-md-4 px-lg-6 px-xl-8",
  "text": [
    {
      "tag": "p",
      "modifierClass": "",
      "text": "<strong>Lima es la capital de Perú,</strong> se encuentra ubicada en la costa central del país, a orillas del océano Pacífico. Presenta un clima particular subtropical, fresco, desértico y húmedo a la vez. La temperatura media máxima anual es de 21°C y la mínima es de 17°C. En esta hermosa ciudad puedes disfrutar de la cultura, gastronomía, historia ancestral y entretenimiento. Es perfecta para venir solo, con tu pareja o en familia, pues existen muchísimas actividades que se pueden realizar a lo largo del día."
    }
  ]
}
