{
  "header": [
    {
      "logo": [
        {
          "src": "../../images/ca-brand-white.png",
          "alt": "Logo Casa Andina"
        }
      ],
      "profileInfo": [
        {
          "iconClass": "la la-user",
          "name": "Jose Herrera Nevado",
          "role": "Administrador"
        }
      ],
      "profileLogout": [
        {
          "url": "#",
          "iconClass": "la la-sign-out",
          "text": "Cerrar sesión"
        }
      ]
    }
  ],
  "sidebar": [
    {
      "mainMenu": [
        {
          "itemMenu": [
            {
              "anchor": [
                {
                  "url": "#",
                  "modifierClass": "",
                  "icon": [
                    {
                      "class": "la la-home"
                    }
                  ],
                  "text": "Home"
                }
              ]
            },
            {
              "anchor": [
                {
                  "url": "#",
                  "modifierClass": "active",
                  "icon": [
                    {
                      "class": "la la-list"
                    }
                  ],
                  "text": "Menu"
                }
              ]
            },
            {
              "anchor": [
                {
                  "url": "#",
                  "modifierClass": "",
                  "icon": [
                    {
                      "class": "la la-file-text"
                    }
                  ],
                  "text": "Páginas"
                }
              ]
            },
            {
              "anchor": [
                {
                  "url": "#",
                  "modifierClass": "",
                  "icon": [
                    {
                      "class": "la la-laptop"
                    }
                  ],
                  "text": "Administrar usuarios y roles"
                }
              ]
            },
            {
              "anchor": [
                {
                  "url": "#",
                  "modifierClass": "",
                  "icon": [
                    {
                      "class": "la la-file-code-o"
                    }
                  ],
                  "text": "Páginas Error"
                }
              ]
            },
            {
              "anchor": [
                {
                  "url": "#",
                  "modifierClass": "",
                  "icon": [
                    {
                      "class": "la la-users"
                    }
                  ],
                  "text": "Suscriptores"
                }
              ]
            },
            {
              "anchor": [
                {
                  "url": "#",
                  "modifierClass": "",
                  "icon": [
                    {
                      "class": "la la-tags"
                    }
                  ],
                  "text": "Promociones"
                }
              ]
            },
            {
              "anchor": [
                {
                  "url": "#",
                  "modifierClass": "",
                  "icon": [
                    {
                      "class": "la la-building"
                    }
                  ],
                  "text": "Hoteles"
                }
              ]
            },
            {
              "anchor": [
                {
                  "url": "#",
                  "modifierClass": "",
                  "icon": [
                    {
                      "class": "la la-map-marker"
                    }
                  ],
                  "text": "Destinos"
                }
              ]
            },
            {
              "anchor": [
                {
                  "url": "#",
                  "modifierClass": "",
                  "icon": [
                    {
                      "class": "la la-cutlery"
                    }
                  ],
                  "text": "Restaurantes"
                }
              ]
            },
            {
              "anchor": [
                {
                  "url": "#",
                  "modifierClass": "",
                  "icon": [
                    {
                      "class": "la la-glass"
                    }
                  ],
                  "text": "Eventos"
                }
              ]
            },
            {
              "anchor": [
                {
                  "url": "#",
                  "modifierClass": "",
                  "icon": [
                    {
                      "class": "la la-image"
                    }
                  ],
                  "text": "Multimedia"
                }
              ]
            }
          ]
        }
      ]
    }
  ],
  "mainNotification": [
    {
      "modifierClass": "g-main-notification-success active",
      "icon": [
        {
          "class": "la la-check-circle"
        }
      ],
      "text": [
        {
          "tag": "span",
          "modifierClass": "",
          "text": "Se añadio usuario de manera correcta"
        }
      ]
    }
  ],
  "navTabsAndButton": [
    {
      "modifierClass": "",
      "col": [
        {
          "colClass": "col px-3 text-right",
          "buttonWithIcon": [
            {
              "classModifier": "g-btn-primary g-btn-icon-left",
              "type": "button",
              "textButton": "Agregar Nuevo Menú",
              "classIcon": "la-plus-circle"
            }
          ]
        }
      ]
    }
  ],
  "principalTitle": [
    {
      "modifierCLass": "mb-2",
      "col": [
        {
          "colClass": "col-auto",
          "heading": [
            {
              "tag": "h1",
              "modifierClass": "c-heading-title",
              "text": "Menú Principal"
            }
          ]
        }
      ]
    }
  ],
  "editorForm": [
    {
      "modifierClass": "",
      "editorFormHeader": [
        {
          "modifierClass": "",
          "headerTab": [
            {
              "modifierClass": "",
              "item": [
                {
                  "stateClass": "active",
                  "text": "Español"
                },
                {
                  "stateClass": "",
                  "text": "Inglés"
                },
                {
                  "stateClass": "",
                  "text": "Portugués"
                }
              ]
            }
          ]
        }
      ],
      "editorFormBody": [
        {
          "modifierClass": "p-0",
          "pagesList": [
            {
              "item": [
                {
                  "itemClass": "active",
                  "acordionListHeader": [
                    {
                      "text": "Destinos"
                    }
                  ],
                  "acordionListBody": [
                    {
                      "pagesAccordion": [
                        {
                          "pagesAccordionClass": "",
                          "cardHeader": [
                            {
                              "col": [
                                {
                                  "colClass": "col-3",
                                  "cardPageInfo": [
                                    {
                                      "pageTitle": [
                                        {
                                          "tag": "h4",
                                          "modifierClass": "g-fs-15 mb-0",
                                          "text": "Premium"
                                        }
                                      ]
                                    }
                                  ]
                                },
                                {
                                  "colClass": "col-2 pl-0",
                                  "cardInfo": [
                                    {
                                      "title": "Última actualización",
                                      "infoWithIcon": [
                                        {
                                          "iconClass": "la la-calendar",
                                          "text": "15/10/2018"
                                        },
                                        {
                                          "iconClass": "la la-user",
                                          "text": "Gasper Antunes"
                                        }
                                      ]
                                    }
                                  ]
                                },
                                {
                                  "colClass": "col-2",
                                  "cardInfo": [
                                    {
                                      "title": "Estado",
                                      "badge": [
                                        {
                                          "modifierClass": "g-badge-success",
                                          "text": "Publicada"
                                        }
                                      ]
                                    }
                                  ]
                                },
                                {
                                  "colClass": "col-2",
                                  "cardInfo": [
                                    {
                                      "title": "Idioma",
                                      "infoWithIcon": [
                                        {
                                          "iconClass": "la la-language",
                                          "text": "Inglés / Español / Portugués"
                                        }
                                      ]
                                    }
                                  ]
                                },
                                {
                                  "colClass": "col text-right pr-0",
                                  "squareBtn": [
                                    {
                                      "type": "button",
                                      "classModifier": "",
                                      "iconClass": "la la-eye",
                                      "text": "Ver"
                                    },
                                    {
                                      "type": "button",
                                      "classModifier": "",
                                      "iconClass": "la la-trash",
                                      "text": "Eliminar"
                                    }
                                  ]
                                },
                                {
                                  "colClass": "col-auto pl-0",
                                  "squareBtn": [
                                    {
                                      "type": "button",
                                      "classModifier": "g-btn-square-transparent",
                                      "iconClass": "la la-angle-up"
                                    }
                                  ]
                                }
                              ]
                            }
                          ],
                          "pagesAccordionBody": [
                            {
                              "pageSummary": [
                                {
                                  "column": [
                                    {
                                      "colClass": "col-3",
                                      "cardPageInfo": [
                                        {
                                          "pageTitle": [
                                            {
                                              "tag": "h4",
                                              "modifierClass": "g-fs-15 mb-0",
                                              "text": "Casa Andina Premium Valle Sagrado Hotel & Villas"
                                            }
                                          ]
                                        }
                                      ]
                                    },
                                    {
                                      "colClass": "col-2 pl-0",
                                      "cardInfo": [
                                        {
                                          "title": "Última actualización",
                                          "infoWithIcon": [
                                            {
                                              "iconClass": "la la-calendar",
                                              "text": "15/10/2018"
                                            },
                                            {
                                              "iconClass": "la la-user",
                                              "text": " Gaspar Antunes"
                                            }
                                          ]
                                        }
                                      ]
                                    },
                                    {
                                      "colClass": "col-2",
                                      "cardInfo": [
                                        {
                                          "title": "Estado",
                                          "badge": [
                                            {
                                              "modifierClass": "g-badge-success",
                                              "text": "Publicada"
                                            }
                                          ]
                                        }
                                      ]
                                    },
                                    {
                                      "colClass": "col-2",
                                      "cardInfo": [
                                        {
                                          "title": "Idioma",
                                          "infoWithIcon": [
                                            {
                                              "iconClass": "la la-language",
                                              "text": "Inglés / Español / Portugués"
                                            }
                                          ]
                                        }
                                      ]
                                    },
                                    {
                                      "colClass": "col-3 text-right",
                                      "squareBtn": [
                                        {
                                          "type": "button",
                                          "classModifier": "",
                                          "iconClass": "la la-eye",
                                          "text": "Ver"
                                        },
                                        {
                                          "type": "button",
                                          "classModifier": "",
                                          "iconClass": "la la-trash",
                                          "text": "Eliminar"
                                        }
                                      ]
                                    }
                                  ]
                                },
                                {
                                  "column": [
                                    {
                                      "colClass": "col-3",
                                      "cardPageInfo": [
                                        {
                                          "pageTitle": [
                                            {
                                              "tag": "h4",
                                              "modifierClass": "g-fs-15 mb-0",
                                              "text": "Casa Andina Premium Valle Sagrado Hotel & Villas"
                                            }
                                          ]
                                        }
                                      ]
                                    },
                                    {
                                      "colClass": "col-2 pl-0",
                                      "cardInfo": [
                                        {
                                          "title": "Última actualización",
                                          "infoWithIcon": [
                                            {
                                              "iconClass": "la la-calendar",
                                              "text": "15/10/2018"
                                            },
                                            {
                                              "iconClass": "la la-user",
                                              "text": " Gaspar Antunes"
                                            }
                                          ]
                                        }
                                      ]
                                    },
                                    {
                                      "colClass": "col-2",
                                      "cardInfo": [
                                        {
                                          "title": "Estado",
                                          "badge": [
                                            {
                                              "modifierClass": "g-badge-success",
                                              "text": "Publicada"
                                            }
                                          ]
                                        }
                                      ]
                                    },
                                    {
                                      "colClass": "col-2",
                                      "cardInfo": [
                                        {
                                          "title": "Idioma",
                                          "infoWithIcon": [
                                            {
                                              "iconClass": "la la-language",
                                              "text": "Inglés / Español / Portugués"
                                            }
                                          ]
                                        }
                                      ]
                                    },
                                    {
                                      "colClass": "col-3 text-right",
                                      "squareBtn": [
                                        {
                                          "type": "button",
                                          "classModifier": "",
                                          "iconClass": "la la-eye",
                                          "text": "Ver"
                                        },
                                        {
                                          "type": "button",
                                          "classModifier": "",
                                          "iconClass": "la la-trash",
                                          "text": "Eliminar"
                                        }
                                      ]
                                    }
                                  ]
                                }
                              ]
                            }
                          ]
                        },
                        {
                          "pagesAccordionClass": "",
                          "cardHeader": [
                            {
                              "col": [
                                {
                                  "colClass": "col-3",
                                  "cardPageInfo": [
                                    {
                                      "pageTitle": [
                                        {
                                          "tag": "h4",
                                          "modifierClass": "g-fs-15 mb-0",
                                          "text": "Standard"
                                        }
                                      ]
                                    }
                                  ]
                                },
                                {
                                  "colClass": "col-2 pl-0",
                                  "cardInfo": [
                                    {
                                      "title": "Última actualización",
                                      "infoWithIcon": [
                                        {
                                          "iconClass": "la la-calendar",
                                          "text": "15/10/2018"
                                        },
                                        {
                                          "iconClass": "la la-user",
                                          "text": "Gasper Antunes"
                                        }
                                      ]
                                    }
                                  ]
                                },
                                {
                                  "colClass": "col-2",
                                  "cardInfo": [
                                    {
                                      "title": "Estado",
                                      "badge": [
                                        {
                                          "modifierClass": "g-badge-success",
                                          "text": "Publicada"
                                        }
                                      ]
                                    }
                                  ]
                                },
                                {
                                  "colClass": "col-2",
                                  "cardInfo": [
                                    {
                                      "title": "Idioma",
                                      "infoWithIcon": [
                                        {
                                          "iconClass": "la la-language",
                                          "text": "Inglés / Español / Portugués"
                                        }
                                      ]
                                    }
                                  ]
                                },
                                {
                                  "colClass": "col text-right pr-0",
                                  "squareBtn": [
                                    {
                                      "type": "button",
                                      "classModifier": "",
                                      "iconClass": "la la-eye",
                                      "text": "Ver"
                                    },
                                    {
                                      "type": "button",
                                      "classModifier": "",
                                      "iconClass": "la la-trash",
                                      "text": "Eliminar"
                                    }
                                  ]
                                },
                                {
                                  "colClass": "col-auto pl-0",
                                  "squareBtn": [
                                    {
                                      "type": "button",
                                      "classModifier": "g-btn-square-transparent",
                                      "iconClass": "la la-angle-down"
                                    }
                                  ]
                                }
                              ]
                            }
                          ],
                          "pagesAccordionBody": false
                        }
                      ]
                    }
                  ]
                },
                {
                  "itemClass": "",
                  "acordionListHeader": [
                    {
                      "text": "Nuestros Hoteles"
                    }
                  ],
                  "acordionListBody": false
                },
                {
                  "itemClass": "",
                  "acordionListHeader": [
                    {
                      "text": "Promociones"
                    }
                  ],
                  "acordionListBody": false
                },
                {
                  "itemClass": "",
                  "acordionListHeader": [
                    {
                      "text": "Restaurantes"
                    }
                  ],
                  "acordionListBody": false
                },
                {
                  "itemClass": "",
                  "acordionListHeader": [
                    {
                      "text": "Eventos"
                    }
                  ],
                  "acordionListBody": false
                }
              ]
            }
          ]
        }
      ]
    }
  ]
}
