{
  "caption": [
    {
      "tag": "p",
      "modifierClass": "g-fw-bold mb-2",
      "text": "Vista de cómo se ve en el browser:"
    }
  ],
  "info": [
    {
      "tag": "h5",
      "modifierClass": "c-browser-preview-title",
      "text": "Hoteles Casa Andina"
    },
    {
      "tag": "span",
      "modifierClass": "c-browser-preview-link",
      "text": "Hoteles Casa Andina"
    },
    {
      "tag": "span",
      "modifierClass": "c-browser-preview-description",
      "text": "18 destinos y 29 hoteles Casa Andina esperándote con Desayuno Buffet incluido, free Wi-Fi, excelente ubicación y mucho más."
    }
  ]
}
