{
  "favicon": [
    {
      "imgClass": "",
      "src": "https://placehold.it/16x16",
      "alt": ""
    }
  ],
  "pageTitle": [
    {
      "tag": "span",
      "modifierClass": "",
      "text": "Hoteles Casa Andina"
    }
  ]
}
