{
  "cardInfoModifierClass": "",
  "infoText": [
    {
      "tag": "span",
      "modifierClass": "",
      "text": "Nombre: Semana Santa"
    },
    {
      "tag": "span",
      "modifierClass": "",
      "text": "Fecha Inicio: 10/03/2019"
    },
    {
      "tag": "span",
      "modifierClass": "",
      "text": "Desde: 20%"
    }
  ]
}
