{
  "breadcrumb": [
    {
      "marginClass": "",
      "items": [
        {
          "item": "Mercado"
        }
      ]
    }
  ],
  "pageType": [
    {
      "class": "la la-file g-fs-20 mr-1"
    }
  ],
  "pageTitle": [
    {
      "tag": "h4",
      "modifierClass": "g-fs-17 mb-0",
      "text": "Resumen de mercado de valores agrupados"
    }
  ]
}
