{
  "item": [
    {
      "className": "g-checkbox",
      "type": "checkbox",
      "name": "nCheckboxList",
      "labelText": "Publicadas"
    },
    {
      "className": "g-checkbox",
      "type": "checkbox",
      "name": "nCheckboxList",
      "labelText": "En edición"
    },
    {
      "className": "g-checkbox",
      "type": "checkbox",
      "name": "nCheckboxList",
      "labelText": "En espera"
    },
    {
      "className": "g-checkbox",
      "type": "checkbox",
      "name": "nCheckboxList",
      "labelText": "Papelera"
    }
  ]
}
