{
  "ulClass": "",
  "ulItems": [
    {
      "liClass": "g-autocomplete-item",
      "text": "<strong>Jose N</strong>arcizo"
    },
    {
      "liClass": "g-autocomplete-item",
      "text": "<strong>Jose N</strong>eruda"
    },
    {
      "liClass": "g-autocomplete-item",
      "text": "<strong>Jose N</strong>evado"
    }
  ]
}