{
  "modifierClass": "g-main-notification-success active",
  "icon": [
    {
      "class": "la la-check-circle"
    }
  ],
  "text": [
    {
      "tag": "span",
      "modifierClass": "",
      "text": "Se añadio usuario de manera correcta"
    }
  ]
}
