{
  "modifierCLass": "",
  "col": [
    {
      "colClass": "col-auto",
      "heading": [
        {
          "tag": "h1",
          "modifierClass": "c-heading-title",
          "text": "Configuraciones Generales"
        }
      ]
    }
  ]
}
