{
  "titleListClass": "",
  "titleListItem": [
    {
      "titleListItemClass": "active",
      "titleListItemText": "Hoteles"
    },
    {
      "titleListItemClass": "",
      "titleListItemText": "Habitaciones"
    }
  ]
}
