{
  "modifierClass": "py-4 py-sm-6 g-bgc-gray7",
  "event": [
    {
      "modifierClass": "mb-2 flex-md-row-reverse",
      "img": [
        {
          "classModifier": "g-img-fluid",
          "src": "https://placehold.it/640x200",
          "alt": ""
        }
      ],
      "content": [
        {
          "tag": "h3",
          "modifierClass": "g-fs-18 g-fs-sm-24 g-fs-md-30 g-f-nexa-slab g-fw-book",
          "text": "Misión"
        },
        {
          "tag": "p",
          "modifierClass": "",
          "text": "Creamos experiencias auténticas que van más allá de lo que el viajero espera."
        }
      ],
      "link": false
    },
    {
      "modifierClass": "",
      "img": [
        {
          "classModifier": "g-img-fluid",
          "src": "https://placehold.it/640x200",
          "alt": ""
        }
      ],
      "content": [
        {
          "tag": "h3",
          "modifierClass": "g-fs-18 g-fs-sm-24 g-fs-md-30 g-f-nexa-slab g-fw-book",
          "text": "Visión"
        },
        {
          "tag": "p",
          "modifierClass": "",
          "text": "Ser la cadena hotelera peruana referente en el mundo gracias a nuestros colaboradores, excelencia en el servicio y resultados extraordinarios."
        }
      ],
      "link": false
    }
  ]
}
